{
  "count": 750,
  "pageIndex": 1,
  "pageSize": 25,
  "pageCount": 30,
  "items": [
    {
      "$ref": "http://sports.core.api.espn.com/v2/sports/basketball/leagues/nba/athletes/4432932?lang=en&region=us"
    },
    {
      "$ref": "http://sports.core.api.espn.com/v2/sports/basketball/leagues/nba/athletes/4431679?lang=en&region=us"
    },
    {
      "$ref": "http://sports.core.api.espn.com/v2/sports/basketball/leagues/nba/athletes/2991235?lang=en&region=us"
    },
    {
      "$ref": "http://sports.core.api.espn.com/v2/sports/basketball/leagues/nba/athletes/4066261?lang=en&region=us"
    },
    {
      "$ref": "http://sports.core.api.espn.com/v2/sports/basketball/leagues/nba/athletes/4397018?lang=en&region=us"
    },
    {
      "$ref": "http://sports.core.api.espn.com/v2/sports/basketball/leagues/nba/athletes/5211981?lang=en&region=us"
    },
    {
      "$ref": "http://sports.core.api.espn.com/v2/sports/basketball/leagues/nba/athletes/4397072?lang=en&region=us"
    },
    {
      "$ref": "http://sports.core.api.espn.com/v2/sports/basketball/leagues/nba/athletes/4593125?lang=en&region=us"
    },
    {
      "$ref": "http://sports.core.api.espn.com/v2/sports/basketball/leagues/nba/athletes/4433268?lang=en&region=us"
    },
    {
      "$ref": "http://sports.core.api.espn.com/v2/sports/basketball/leagues/nba/athletes/4278039?lang=en&region=us"
    },
    {
      "$ref": "http://sports.core.api.espn.com/v2/sports/basketball/leagues/nba/athletes/3135045?lang=en&region=us"
    },
    {
      "$ref": "http://sports.core.api.espn.com/v2/sports/basketball/leagues/nba/athletes/4066328?lang=en&region=us"
    },
    {
      "$ref": "http://sports.core.api.espn.com/v2/sports/basketball/leagues/nba/athletes/4277869?lang=en&region=us"
    },
    {
      "$ref": "http://sports.core.api.espn.com/v2/sports/basketball/leagues/nba/athletes/2993874?lang=en&region=us"
    },
    {
      "$ref": "http://sports.core.api.espn.com/v2/sports/basketball/leagues/nba/athletes/3032977?lang=en&region=us"
    },
    {
      "$ref": "http://sports.core.api.espn.com/v2/sports/basketball/leagues/nba/athletes/3102533?lang=en&region=us"
    },
    {
      "$ref": "http://sports.core.api.espn.com/v2/sports/basketball/leagues/nba/athletes/4432809?lang=en&region=us"
    },
    {
      "$ref": "http://sports.core.api.espn.com/v2/sports/basketball/leagues/nba/athletes/3934719?lang=en&region=us"
    },
    {
      "$ref": "http://sports.core.api.espn.com/v2/sports/basketball/leagues/nba/athletes/4406489?lang=en&region=us"
    },
    {
      "$ref": "http://sports.core.api.espn.com/v2/sports/basketball/leagues/nba/athletes/4896850?lang=en&region=us"
    },
    {
      "$ref": "http://sports.core.api.espn.com/v2/sports/basketball/leagues/nba/athletes/4683021?lang=en&region=us"
    },
    {
      "$ref": "http://sports.core.api.espn.com/v2/sports/basketball/leagues/nba/athletes/4278129?lang=en&region=us"
    },
    {
      "$ref": "http://sports.core.api.espn.com/v2/sports/basketball/leagues/nba/athletes/4066299?lang=en&region=us"
    },
    {
      "$ref": "http://sports.core.api.espn.com/v2/sports/basketball/leagues/nba/athletes/4431674?lang=en&region=us"
    },
    {
      "$ref": "http://sports.core.api.espn.com/v2/sports/basketball/leagues/nba/athletes/4871140?lang=en&region=us"
    }
  ]
}