{"$ref":"http://sports.core.api.espn.com/v2/sports/basketball/leagues/nba/seasons/2024/athletes/1966/eventlog?lang=en&region=us","teams":{"13":{"team":{"$ref":"http://sports.core.api.espn.com/v2/sports/basketball/leagues/nba/seasons/2024/teams/13?lang=en&region=us"},"id":"13"},"32":{"team":{"$ref":"http://sports.core.api.espn.com/v2/sports/basketball/leagues/nba/seasons/2024/teams/32?lang=en&region=us"},"id":"32"}},"events":{"count":85,"pageIndex":1,"pageSize":25,"pageCount":4,"items":[{"event":{"$ref":"http://sports.core.api.espn.com/v2/sports/basketball/leagues/nba/events/401591880?lang=en&region=us"},"competition":{"$ref":"http://sports.core.api.espn.com/v2/sports/basketball/leagues/nba/events/401591880/competitions/401591880?lang=en&region=us"},"statistics":{"$ref":"http://sports.core.api.espn.com/v2/sports/basketball/leagues/nba/events/401591880/competitions/401591880/competitors/13/roster/1966/statistics/0?lang=en&region=us"},"teamId":"13","played":true},{"event":{"$ref":"http://sports.core.api.espn.com/v2/sports/basketball/leagues/nba/events/401591892?lang=en&region=us"},"competition":{"$ref":"http://sports.core.api.espn.com/v2/sports/basketball/leagues/nba/events/401591892/competitions/401591892?lang=en&region=us"},"teamId":"13","played":false},{"event":{"$ref":"http://sports.core.api.espn.com/v2/sports/basketball/leagues/nba/events/401591902?lang=en&region=us"},"competition":{"$ref":"http://sports.core.api.espn.com/v2/sports/basketball/leagues/nba/events/401591902/competitions/401591902?lang=en&region=us"},"statistics":{"$ref":"http://sports.core.api.espn.com/v2/sports/basketball/leagues/nba/events/401591902/competitions/401591902/competitors/13/roster/1966/statistics/0?lang=en&region=us"},"teamId":"13","played":true},{"event":{"$ref":"http://sports.core.api.espn.com/v2/sports/basketball/leagues/nba/events/401591909?lang=en&region=us"},"competition":{"$ref":"http://sports.core.api.espn.com/v2/sports/basketball/leagues/nba/events/401591909/competitions/401591909?lang=en&region=us"},"teamId":"13","played":false},{"event":{"$ref":"http://sports.core.api.espn.com/v2/sports/basketball/leagues/nba/events/401591931?lang=en&region=us"},"competition":{"$ref":"http://sports.core.api.espn.com/v2/sports/basketball/leagues/nba/events/401591931/competitions/401591931?lang=en&region=us"},"statistics":{"$ref":"http://sports.core.api.espn.com/v2/sports/basketball/leagues/nba/events/401591931/competitions/401591931/competitors/13/roster/1966/statistics/0?lang=en&region=us"},"teamId":"13","played":true},{"event":{"$ref":"http://sports.core.api.espn.com/v2/sports/basketball/leagues/nba/events/401584689?lang=en&region=us"},"competition":{"$ref":"http://sports.core.api.espn.com/v2/sports/basketball/leagues/nba/events/401584689/competitions/401584689?lang=en&region=us"},"statistics":{"$ref":"http://sports.core.api.espn.com/v2/sports/basketball/leagues/nba/events/401584689/competitions/401584689/competitors/13/roster/1966/statistics/0?lang=en&region=us"},"teamId":"13","played":true},{"event":{"$ref":"http://sports.core.api.espn.com/v2/sports/basketball/leagues/nba/events/401584704?lang=en&region=us"},"competition":{"$ref":"http://sports.core.api.espn.com/v2/sports/basketball/leagues/nba/events/401584704/competitions/401584704?lang=en&region=us"},"statistics":{"$ref":"http://sports.core.api.espn.com/v2/sports/basketball/leagues/nba/events/401584704/competitions/401584704/competitors/13/roster/1966/statistics/0?lang=en&region=us"},"teamId":"13","played":true},{"event":{"$ref":"http://sports.core.api.espn.com/v2/sports/basketball/leagues/nba/events/401584728?lang=en&region=us"},"competition":{"$ref":"http://sports.core.api.espn.com/v2/sports/basketball/leagues/nba/events/401584728/competitions/401584728?lang=en&region=us"},"statistics":{"$ref":"http://sports.core.api.espn.com/v2/sports/basketball/leagues/nba/events/401584728/competitions/401584728/competitors/13/roster/1966/statistics/0?lang=en&region=us"},"teamId":"13","played":true},{"event":{"$ref":"http://sports.core.api.espn.com/v2/sports/basketball/leagues/nba/events/401584739?lang=en&region=us"},"competition":{"$ref":"http://sports.core.api.espn.com/v2/sports/basketball/leagues/nba/events/401584739/competitions/401584739?lang=en&region=us"},"statistics":{"$ref":"http://sports.core.api.espn.com/v2/sports/basketball/leagues/nba/events/401584739/competitions/401584739/competitors/13/roster/1966/statistics/0?lang=en&region=us"},"teamId":"13","played":true},{"event":{"$ref":"http://sports.core.api.espn.com/v2/sports/basketball/leagues/nba/events/401584755?lang=en&region=us"},"competition":{"$ref":"http://sports.core.api.espn.com/v2/sports/basketball/leagues/nba/events/401584755/competitions/401584755?lang=en&region=us"},"statistics":{"$ref":"http://sports.core.api.espn.com/v2/sports/basketball/leagues/nba/events/401584755/competitions/401584755/competitors/13/roster/1966/statistics/0?lang=en&region=us"},"teamId":"13","played":true},{"event":{"$ref":"http://sports.core.api.espn.com/v2/sports/basketball/leagues/nba/events/401584762?lang=en&region=us"},"competition":{"$ref":"http://sports.core.api.espn.com/v2/sports/basketball/leagues/nba/events/401584762/competitions/401584762?lang=en&region=us"},"statistics":{"$ref":"http://sports.core.api.espn.com/v2/sports/basketball/leagues/nba/events/401584762/competitions/401584762/competitors/13/roster/1966/statistics/0?lang=en&region=us"},"teamId":"13","played":true},{"event":{"$ref":"http://sports.core.api.espn.com/v2/sports/basketball/leagues/nba/events/401584778?lang=en&region=us"},"competition":{"$ref":"http://sports.core.api.espn.com/v2/sports/basketball/leagues/nba/events/401584778/competitions/401584778?lang=en&region=us"},"statistics":{"$ref":"http://sports.core.api.espn.com/v2/sports/basketball/leagues/nba/events/401584778/competitions/401584778/competitors/13/roster/1966/statistics/0?lang=en&region=us"},"teamId":"13","played":true},{"event":{"$ref":"http://sports.core.api.espn.com/v2/sports/basketball/leagues/nba/events/401584791?lang=en&region=us"},"competition":{"$ref":"http://sports.core.api.espn.com/v2/sports/basketball/leagues/nba/events/401584791/competitions/401584791?lang=en&region=us"},"statistics":{"$ref":"http://sports.core.api.espn.com/v2/sports/basketball/leagues/nba/events/401584791/competitions/401584791/competitors/13/roster/1966/statistics/0?lang=en&region=us"},"teamId":"13","played":true},{"event":{"$ref":"http://sports.core.api.espn.com/v2/sports/basketball/leagues/nba/events/401584103?lang=en&region=us"},"competition":{"$ref":"http://sports.core.api.espn.com/v2/sports/basketball/leagues/nba/events/401584103/competitions/401584103?lang=en&region=us"},"statistics":{"$ref":"http://sports.core.api.espn.com/v2/sports/basketball/leagues/nba/events/401584103/competitions/401584103/competitors/13/roster/1966/statistics/0?lang=en&region=us"},"teamId":"13","played":true},{"event":{"$ref":"http://sports.core.api.espn.com/v2/sports/basketball/leagues/nba/events/401584114?lang=en&region=us"},"competition":{"$ref":"http://sports.core.api.espn.com/v2/sports/basketball/leagues/nba/events/401584114/competitions/401584114?lang=en&region=us"},"statistics":{"$ref":"http://sports.core.api.espn.com/v2/sports/basketball/leagues/nba/events/401584114/competitions/401584114/competitors/13/roster/1966/statistics/0?lang=en&region=us"},"teamId":"13","played":true},{"event":{"$ref":"http://sports.core.api.espn.com/v2/sports/basketball/leagues/nba/events/401584826?lang=en&region=us"},"competition":{"$ref":"http://sports.core.api.espn.com/v2/sports/basketball/leagues/nba/events/401584826/competitions/401584826?lang=en&region=us"},"statistics":{"$ref":"http://sports.core.api.espn.com/v2/sports/basketball/leagues/nba/events/401584826/competitions/401584826/competitors/13/roster/1966/statistics/0?lang=en&region=us"},"teamId":"13","played":true},{"event":{"$ref":"http://sports.core.api.espn.com/v2/sports/basketball/leagues/nba/events/401584124?lang=en&region=us"},"competition":{"$ref":"http://sports.core.api.espn.com/v2/sports/basketball/leagues/nba/events/401584124/competitions/401584124?lang=en&region=us"},"statistics":{"$ref":"http://sports.core.api.espn.com/v2/sports/basketball/leagues/nba/events/401584124/competitions/401584124/competitors/13/roster/1966/statistics/0?lang=en&region=us"},"teamId":"13","played":true},{"event":{"$ref":"http://sports.core.api.espn.com/v2/sports/basketball/leagues/nba/events/401584844?lang=en&region=us"},"competition":{"$ref":"http://sports.core.api.espn.com/v2/sports/basketball/leagues/nba/events/401584844/competitions/401584844?lang=en&region=us"},"statistics":{"$ref":"http://sports.core.api.espn.com/v2/sports/basketball/leagues/nba/events/401584844/competitions/401584844/competitors/13/roster/1966/statistics/0?lang=en&region=us"},"teamId":"13","played":true},{"event":{"$ref":"http://sports.core.api.espn.com/v2/sports/basketball/leagues/nba/events/401584130?lang=en&region=us"},"competition":{"$ref":"http://sports.core.api.espn.com/v2/sports/basketball/leagues/nba/events/401584130/competitions/401584130?lang=en&region=us"},"statistics":{"$ref":"http://sports.core.api.espn.com/v2/sports/basketball/leagues/nba/events/401584130/competitions/401584130/competitors/13/roster/1966/statistics/0?lang=en&region=us"},"teamId":"13","played":true},{"event":{"$ref":"http://sports.core.api.espn.com/v2/sports/basketball/leagues/nba/events/401584866?lang=en&region=us"},"competition":{"$ref":"http://sports.core.api.espn.com/v2/sports/basketball/leagues/nba/events/401584866/competitions/401584866?lang=en&region=us"},"statistics":{"$ref":"http://sports.core.api.espn.com/v2/sports/basketball/leagues/nba/events/401584866/competitions/401584866/competitors/13/roster/1966/statistics/0?lang=en&region=us"},"teamId":"13","played":true},{"event":{"$ref":"http://sports.core.api.espn.com/v2/sports/basketball/leagues/nba/events/401584870?lang=en&region=us"},"competition":{"$ref":"http://sports.core.api.espn.com/v2/sports/basketball/leagues/nba/events/401584870/competitions/401584870?lang=en&region=us"},"statistics":{"$ref":"http://sports.core.api.espn.com/v2/sports/basketball/leagues/nba/events/401584870/competitions/401584870/competitors/13/roster/1966/statistics/0?lang=en&region=us"},"teamId":"13","played":true},{"event":{"$ref":"http://sports.core.api.espn.com/v2/sports/basketball/leagues/nba/events/401584883?lang=en&region=us"},"competition":{"$ref":"http://sports.core.api.espn.com/v2/sports/basketball/leagues/nba/events/401584883/competitions/401584883?lang=en&region=us"},"statistics":{"$ref":"http://sports.core.api.espn.com/v2/sports/basketball/leagues/nba/events/401584883/competitions/401584883/competitors/13/roster/1966/statistics/0?lang=en&region=us"},"teamId":"13","played":true},{"event":{"$ref":"http://sports.core.api.espn.com/v2/sports/basketball/leagues/nba/events/401584886?lang=en&region=us"},"competition":{"$ref":"http://sports.core.api.espn.com/v2/sports/basketball/leagues/nba/events/401584886/competitions/401584886?lang=en&region=us"},"statistics":{"$ref":"http://sports.core.api.espn.com/v2/sports/basketball/leagues/nba/events/401584886/competitions/401584886/competitors/13/roster/1966/statistics/0?lang=en&region=us"},"teamId":"13","played":true},{"event":{"$ref":"http://sports.core.api.espn.com/v2/sports/basketball/leagues/nba/events/401584899?lang=en&region=us"},"competition":{"$ref":"http://sports.core.api.espn.com/v2/sports/basketball/leagues/nba/events/401584899/competitions/401584899?lang=en&region=us"},"statistics":{"$ref":"http://sports.core.api.espn.com/v2/sports/basketball/leagues/nba/events/401584899/competitions/401584899/competitors/13/roster/1966/statistics/0?lang=en&region=us"},"teamId":"13","played":true},{"event":{"$ref":"http://sports.core.api.espn.com/v2/sports/basketball/leagues/nba/events/401584919?lang=en&region=us"},"competition":{"$ref":"http://sports.core.api.espn.com/v2/sports/basketball/leagues/nba/events/401584919/competitions/401584919?lang=en&region=us"},"statistics":{"$ref":"http://sports.core.api.espn.com/v2/sports/basketball/leagues/nba/events/401584919/competitions/401584919/competitors/13/roster/1966/statistics/0?lang=en&region=us"},"teamId":"13","played":true}]}}