{"$ref":"http://sports.core.api.espn.com/v2/sports/baseball/leagues/mlb/seasons/2024/athletes/33912/eventlog?lang=en&region=us","teams":{"16":{"team":{"$ref":"http://sports.core.api.espn.com/v2/sports/baseball/leagues/mlb/seasons/2024/teams/16?lang=en&region=us"},"id":"16"}},"events":{"count":130,"pageIndex":1,"pageSize":25,"pageCount":6,"items":[{"event":{"$ref":"http://sports.core.api.espn.com/v2/sports/baseball/leagues/mlb/events/401568474?lang=en&region=us"},"competition":{"$ref":"http://sports.core.api.espn.com/v2/sports/baseball/leagues/mlb/events/401568474/competitions/401568474?lang=en&region=us"},"statistics":{"$ref":"http://sports.core.api.espn.com/v2/sports/baseball/leagues/mlb/events/401568474/competitions/401568474/competitors/16/roster/33912/statistics/0?lang=en&region=us"},"teamId":"16","played":true},{"event":{"$ref":"http://sports.core.api.espn.com/v2/sports/baseball/leagues/mlb/events/401568497?lang=en&region=us"},"competition":{"$ref":"http://sports.core.api.espn.com/v2/sports/baseball/leagues/mlb/events/401568497/competitions/401568497?lang=en&region=us"},"statistics":{"$ref":"http://sports.core.api.espn.com/v2/sports/baseball/leagues/mlb/events/401568497/competitions/401568497/competitors/16/roster/33912/statistics/0?lang=en&region=us"},"teamId":"16","played":true},{"event":{"$ref":"http://sports.core.api.espn.com/v2/sports/baseball/leagues/mlb/events/401568512?lang=en&region=us"},"competition":{"$ref":"http://sports.core.api.espn.com/v2/sports/baseball/leagues/mlb/events/401568512/competitions/401568512?lang=en&region=us"},"statistics":{"$ref":"http://sports.core.api.espn.com/v2/sports/baseball/leagues/mlb/events/401568512/competitions/401568512/competitors/16/roster/33912/statistics/0?lang=en&region=us"},"teamId":"16","played":true},{"event":{"$ref":"http://sports.core.api.espn.com/v2/sports/baseball/leagues/mlb/events/401568529?lang=en&region=us"},"competition":{"$ref":"http://sports.core.api.espn.com/v2/sports/baseball/leagues/mlb/events/401568529/competitions/401568529?lang=en&region=us"},"statistics":{"$ref":"http://sports.core.api.espn.com/v2/sports/baseball/leagues/mlb/events/401568529/competitions/401568529/competitors/16/roster/33912/statistics/0?lang=en&region=us"},"teamId":"16","played":true},{"event":{"$ref":"http://sports.core.api.espn.com/v2/sports/baseball/leagues/mlb/events/401568543?lang=en&region=us"},"competition":{"$ref":"http://sports.core.api.espn.com/v2/sports/baseball/leagues/mlb/events/401568543/competitions/401568543?lang=en&region=us"},"statistics":{"$ref":"http://sports.core.api.espn.com/v2/sports/baseball/leagues/mlb/events/401568543/competitions/401568543/competitors/16/roster/33912/statistics/0?lang=en&region=us"},"teamId":"16","played":true},{"event":{"$ref":"http://sports.core.api.espn.com/v2/sports/baseball/leagues/mlb/events/401568557?lang=en&region=us"},"competition":{"$ref":"http://sports.core.api.espn.com/v2/sports/baseball/leagues/mlb/events/401568557/competitions/401568557?lang=en&region=us"},"statistics":{"$ref":"http://sports.core.api.espn.com/v2/sports/baseball/leagues/mlb/events/401568557/competitions/401568557/competitors/16/roster/33912/statistics/0?lang=en&region=us"},"teamId":"16","played":true},{"event":{"$ref":"http://sports.core.api.espn.com/v2/sports/baseball/leagues/mlb/events/401568576?lang=en&region=us"},"competition":{"$ref":"http://sports.core.api.espn.com/v2/sports/baseball/leagues/mlb/events/401568576/competitions/401568576?lang=en&region=us"},"statistics":{"$ref":"http://sports.core.api.espn.com/v2/sports/baseball/leagues/mlb/events/401568576/competitions/401568576/competitors/16/roster/33912/statistics/0?lang=en&region=us"},"teamId":"16","played":true},{"event":{"$ref":"http://sports.core.api.espn.com/v2/sports/baseball/leagues/mlb/events/401568590?lang=en&region=us"},"competition":{"$ref":"http://sports.core.api.espn.com/v2/sports/baseball/leagues/mlb/events/401568590/competitions/401568590?lang=en&region=us"},"statistics":{"$ref":"http://sports.core.api.espn.com/v2/sports/baseball/leagues/mlb/events/401568590/competitions/401568590/competitors/16/roster/33912/statistics/0?lang=en&region=us"},"teamId":"16","played":true},{"event":{"$ref":"http://sports.core.api.espn.com/v2/sports/baseball/leagues/mlb/events/401568605?lang=en&region=us"},"competition":{"$ref":"http://sports.core.api.espn.com/v2/sports/baseball/leagues/mlb/events/401568605/competitions/401568605?lang=en&region=us"},"statistics":{"$ref":"http://sports.core.api.espn.com/v2/sports/baseball/leagues/mlb/events/401568605/competitions/401568605/competitors/16/roster/33912/statistics/0?lang=en&region=us"},"teamId":"16","played":true},{"event":{"$ref":"http://sports.core.api.espn.com/v2/sports/baseball/leagues/mlb/events/401568616?lang=en&region=us"},"competition":{"$ref":"http://sports.core.api.espn.com/v2/sports/baseball/leagues/mlb/events/401568616/competitions/401568616?lang=en&region=us"},"statistics":{"$ref":"http://sports.core.api.espn.com/v2/sports/baseball/leagues/mlb/events/401568616/competitions/401568616/competitors/16/roster/33912/statistics/0?lang=en&region=us"},"teamId":"16","played":true},{"event":{"$ref":"http://sports.core.api.espn.com/v2/sports/baseball/leagues/mlb/events/401568630?lang=en&region=us"},"competition":{"$ref":"http://sports.core.api.espn.com/v2/sports/baseball/leagues/mlb/events/401568630/competitions/401568630?lang=en&region=us"},"statistics":{"$ref":"http://sports.core.api.espn.com/v2/sports/baseball/leagues/mlb/events/401568630/competitions/401568630/competitors/16/roster/33912/statistics/0?lang=en&region=us"},"teamId":"16","played":true},{"event":{"$ref":"http://sports.core.api.espn.com/v2/sports/baseball/leagues/mlb/events/401568645?lang=en&region=us"},"competition":{"$ref":"http://sports.core.api.espn.com/v2/sports/baseball/leagues/mlb/events/401568645/competitions/401568645?lang=en&region=us"},"statistics":{"$ref":"http://sports.core.api.espn.com/v2/sports/baseball/leagues/mlb/events/401568645/competitions/401568645/competitors/16/roster/33912/statistics/0?lang=en&region=us"},"teamId":"16","played":true},{"event":{"$ref":"http://sports.core.api.espn.com/v2/sports/baseball/leagues/mlb/events/401568665?lang=en&region=us"},"competition":{"$ref":"http://sports.core.api.espn.com/v2/sports/baseball/leagues/mlb/events/401568665/competitions/401568665?lang=en&region=us"},"statistics":{"$ref":"http://sports.core.api.espn.com/v2/sports/baseball/leagues/mlb/events/401568665/competitions/401568665/competitors/16/roster/33912/statistics/0?lang=en&region=us"},"teamId":"16","played":true},{"event":{"$ref":"http://sports.core.api.espn.com/v2/sports/baseball/leagues/mlb/events/401568680?lang=en&region=us"},"competition":{"$ref":"http://sports.core.api.espn.com/v2/sports/baseball/leagues/mlb/events/401568680/competitions/401568680?lang=en&region=us"},"statistics":{"$ref":"http://sports.core.api.espn.com/v2/sports/baseball/leagues/mlb/events/401568680/competitions/401568680/competitors/16/roster/33912/statistics/0?lang=en&region=us"},"teamId":"16","played":true},{"event":{"$ref":"http://sports.core.api.espn.com/v2/sports/baseball/leagues/mlb/events/401568695?lang=en&region=us"},"competition":{"$ref":"http://sports.core.api.espn.com/v2/sports/baseball/leagues/mlb/events/401568695/competitions/401568695?lang=en&region=us"},"statistics":{"$ref":"http://sports.core.api.espn.com/v2/sports/baseball/leagues/mlb/events/401568695/competitions/401568695/competitors/16/roster/33912/statistics/0?lang=en&region=us"},"teamId":"16","played":true},{"event":{"$ref":"http://sports.core.api.espn.com/v2/sports/baseball/leagues/mlb/events/401568710?lang=en&region=us"},"competition":{"$ref":"http://sports.core.api.espn.com/v2/sports/baseball/leagues/mlb/events/401568710/competitions/401568710?lang=en&region=us"},"statistics":{"$ref":"http://sports.core.api.espn.com/v2/sports/baseball/leagues/mlb/events/401568710/competitions/401568710/competitors/16/roster/33912/statistics/0?lang=en&region=us"},"teamId":"16","played":true},{"event":{"$ref":"http://sports.core.api.espn.com/v2/sports/baseball/leagues/mlb/events/401568725?lang=en&region=us"},"competition":{"$ref":"http://sports.core.api.espn.com/v2/sports/baseball/leagues/mlb/events/401568725/competitions/401568725?lang=en&region=us"},"statistics":{"$ref":"http://sports.core.api.espn.com/v2/sports/baseball/leagues/mlb/events/401568725/competitions/401568725/competitors/16/roster/33912/statistics/0?lang=en&region=us"},"teamId":"16","played":true},{"event":{"$ref":"http://sports.core.api.espn.com/v2/sports/baseball/leagues/mlb/events/401568740?lang=en&region=us"},"competition":{"$ref":"http://sports.core.api.espn.com/v2/sports/baseball/leagues/mlb/events/401568740/competitions/401568740?lang=en&region=us"},"statistics":{"$ref":"http://sports.core.api.espn.com/v2/sports/baseball/leagues/mlb/events/401568740/competitions/401568740/competitors/16/roster/33912/statistics/0?lang=en&region=us"},"teamId":"16","played":true},{"event":{"$ref":"http://sports.core.api.espn.com/v2/sports/baseball/leagues/mlb/events/401568765?lang=en&region=us"},"competition":{"$ref":"http://sports.core.api.espn.com/v2/sports/baseball/leagues/mlb/events/401568765/competitions/401568765?lang=en&region=us"},"statistics":{"$ref":"http://sports.core.api.espn.com/v2/sports/baseball/leagues/mlb/events/401568765/competitions/401568765/competitors/16/roster/33912/statistics/0?lang=en&region=us"},"teamId":"16","played":true},{"event":{"$ref":"http://sports.core.api.espn.com/v2/sports/baseball/leagues/mlb/events/401655505?lang=en&region=us"},"competition":{"$ref":"http://sports.core.api.espn.com/v2/sports/baseball/leagues/mlb/events/401655505/competitions/401655505?lang=en&region=us"},"statistics":{"$ref":"http://sports.core.api.espn.com/v2/sports/baseball/leagues/mlb/events/401655505/competitions/401655505/competitors/16/roster/33912/statistics/0?lang=en&region=us"},"teamId":"16","played":true},{"event":{"$ref":"http://sports.core.api.espn.com/v2/sports/baseball/leagues/mlb/events/401568795?lang=en&region=us"},"competition":{"$ref":"http://sports.core.api.espn.com/v2/sports/baseball/leagues/mlb/events/401568795/competitions/401568795?lang=en&region=us"},"statistics":{"$ref":"http://sports.core.api.espn.com/v2/sports/baseball/leagues/mlb/events/401568795/competitions/401568795/competitors/16/roster/33912/statistics/0?lang=en&region=us"},"teamId":"16","played":true},{"event":{"$ref":"http://sports.core.api.espn.com/v2/sports/baseball/leagues/mlb/events/401568819?lang=en&region=us"},"competition":{"$ref":"http://sports.core.api.espn.com/v2/sports/baseball/leagues/mlb/events/401568819/competitions/401568819?lang=en&region=us"},"statistics":{"$ref":"http://sports.core.api.espn.com/v2/sports/baseball/leagues/mlb/events/401568819/competitions/401568819/competitors/16/roster/33912/statistics/0?lang=en&region=us"},"teamId":"16","played":true},{"event":{"$ref":"http://sports.core.api.espn.com/v2/sports/baseball/leagues/mlb/events/401569011?lang=en&region=us"},"competition":{"$ref":"http://sports.core.api.espn.com/v2/sports/baseball/leagues/mlb/events/401569011/competitions/401569011?lang=en&region=us"},"statistics":{"$ref":"http://sports.core.api.espn.com/v2/sports/baseball/leagues/mlb/events/401569011/competitions/401569011/competitors/16/roster/33912/statistics/0?lang=en&region=us"},"teamId":"16","played":true},{"event":{"$ref":"http://sports.core.api.espn.com/v2/sports/baseball/leagues/mlb/events/401569026?lang=en&region=us"},"competition":{"$ref":"http://sports.core.api.espn.com/v2/sports/baseball/leagues/mlb/events/401569026/competitions/401569026?lang=en&region=us"},"statistics":{"$ref":"http://sports.core.api.espn.com/v2/sports/baseball/leagues/mlb/events/401569026/competitions/401569026/competitors/16/roster/33912/statistics/0?lang=en&region=us"},"teamId":"16","played":true},{"event":{"$ref":"http://sports.core.api.espn.com/v2/sports/baseball/leagues/mlb/events/401569041?lang=en&region=us"},"competition":{"$ref":"http://sports.core.api.espn.com/v2/sports/baseball/leagues/mlb/events/401569041/competitions/401569041?lang=en&region=us"},"statistics":{"$ref":"http://sports.core.api.espn.com/v2/sports/baseball/leagues/mlb/events/401569041/competitions/401569041/competitors/16/roster/33912/statistics/0?lang=en&region=us"},"teamId":"16","played":true}]}}