{
  "count": 32,
  "pageIndex": 1,
  "pageSize": 25,
  "pageCount": 2,
  "items": [
    {
      "$ref": "http://sports.core.api.espn.com/v2/sports/hockey/leagues/nhl/seasons/2024/coaches/811?lang=en&region=us"
    },
    {
      "$ref": "http://sports.core.api.espn.com/v2/sports/hockey/leagues/nhl/seasons/2024/coaches/2018453?lang=en&region=us"
    },
    {
      "$ref": "http://sports.core.api.espn.com/v2/sports/hockey/leagues/nhl/seasons/2024/coaches/4626?lang=en&region=us"
    },
    {
      "$ref": "http://sports.core.api.espn.com/v2/sports/hockey/leagues/nhl/seasons/2024/coaches/2591437?lang=en&region=us"
    },
    {
      "$ref": "http://sports.core.api.espn.com/v2/sports/hockey/leagues/nhl/seasons/2024/coaches/2017787?lang=en&region=us"
    },
    {
      "$ref": "http://sports.core.api.espn.com/v2/sports/hockey/leagues/nhl/seasons/2024/coaches/4085?lang=en&region=us"
    },
    {
      "$ref": "http://sports.core.api.espn.com/v2/sports/hockey/leagues/nhl/seasons/2024/coaches/105?lang=en&region=us"
    },
    {
      "$ref": "http://sports.core.api.espn.com/v2/sports/hockey/leagues/nhl/seasons/2024/coaches/4140?lang=en&region=us"
    },
    {
      "$ref": "http://sports.core.api.espn.com/v2/sports/hockey/leagues/nhl/seasons/2024/coaches/5996?lang=en&region=us"
    },
    {
      "$ref": "http://sports.core.api.espn.com/v2/sports/hockey/leagues/nhl/seasons/2024/coaches/883?lang=en&region=us"
    },
    {
      "$ref": "http://sports.core.api.espn.com/v2/sports/hockey/leagues/nhl/seasons/2024/coaches/441?lang=en&region=us"
    },
    {
      "$ref": "http://sports.core.api.espn.com/v2/sports/hockey/leagues/nhl/seasons/2024/coaches/804?lang=en&region=us"
    },
    {
      "$ref": "http://sports.core.api.espn.com/v2/sports/hockey/leagues/nhl/seasons/2024/coaches/903?lang=en&region=us"
    },
    {
      "$ref": "http://sports.core.api.espn.com/v2/sports/hockey/leagues/nhl/seasons/2024/coaches/323?lang=en&region=us"
    },
    {
      "$ref": "http://sports.core.api.espn.com/v2/sports/hockey/leagues/nhl/seasons/2024/coaches/946?lang=en&region=us"
    },
    {
      "$ref": "http://sports.core.api.espn.com/v2/sports/hockey/leagues/nhl/seasons/2024/coaches/903?lang=en&region=us"
    },
    {
      "$ref": "http://sports.core.api.espn.com/v2/sports/hockey/leagues/nhl/seasons/2024/coaches/2073049?lang=en&region=us"
    },
    {
      "$ref": "http://sports.core.api.espn.com/v2/sports/hockey/leagues/nhl/seasons/2024/coaches/5215614?lang=en&region=us"
    },
    {
      "$ref": "http://sports.core.api.espn.com/v2/sports/hockey/leagues/nhl/seasons/2024/coaches/1087?lang=en&region=us"
    },
    {
      "$ref": "http://sports.core.api.espn.com/v2/sports/hockey/leagues/nhl/seasons/2024/coaches/3025723?lang=en&region=us"
    },
    {
      "$ref": "http://sports.core.api.espn.com/v2/sports/hockey/leagues/nhl/seasons/2024/coaches/67?lang=en&region=us"
    },
    {
      "$ref": "http://sports.core.api.espn.com/v2/sports/hockey/leagues/nhl/seasons/2024/coaches/946?lang=en&region=us"
    },
    {
      "$ref": "http://sports.core.api.espn.com/v2/sports/hockey/leagues/nhl/seasons/2024/coaches/4873586?lang=en&region=us"
    },
    {
      "$ref": "http://sports.core.api.espn.com/v2/sports/hockey/leagues/nhl/seasons/2024/coaches/3041181?lang=en&region=us"
    },
    {
      "$ref": "http://sports.core.api.espn.com/v2/sports/hockey/leagues/nhl/seasons/2024/coaches/2018289?lang=en&region=us"
    }
  ]
}