{
  "count": 32,
  "pageIndex": 1,
  "pageSize": 25,
  "pageCount": 2,
  "items": [
    {
      "$ref": "http://sports.core.api.espn.com/v2/sports/football/leagues/nfl/seasons/2024/coaches/17751?lang=en&region=us"
    },
    {
      "$ref": "http://sports.core.api.espn.com/v2/sports/football/leagues/nfl/seasons/2024/coaches/2333612?lang=en&region=us"
    },
    {
      "$ref": "http://sports.core.api.espn.com/v2/sports/football/leagues/nfl/seasons/2024/coaches/17587?lang=en&region=us"
    },
    {
      "$ref": "http://sports.core.api.espn.com/v2/sports/football/leagues/nfl/seasons/2024/coaches/2552857?lang=en&region=us"
    },
    {
      "$ref": "http://sports.core.api.espn.com/v2/sports/football/leagues/nfl/seasons/2024/coaches/17762?lang=en&region=us"
    },
    {
      "$ref": "http://sports.core.api.espn.com/v2/sports/football/leagues/nfl/seasons/2024/coaches/2180177?lang=en&region=us"
    },
    {
      "$ref": "http://sports.core.api.espn.com/v2/sports/football/leagues/nfl/seasons/2024/coaches/2184471?lang=en&region=us"
    },
    {
      "$ref": "http://sports.core.api.espn.com/v2/sports/football/leagues/nfl/seasons/2024/coaches/4408695?lang=en&region=us"
    },
    {
      "$ref": "http://sports.core.api.espn.com/v2/sports/football/leagues/nfl/seasons/2024/coaches/17530?lang=en&region=us"
    },
    {
      "$ref": "http://sports.core.api.espn.com/v2/sports/football/leagues/nfl/seasons/2024/coaches/17567?lang=en&region=us"
    },
    {
      "$ref": "http://sports.core.api.espn.com/v2/sports/football/leagues/nfl/seasons/2024/coaches/1832?lang=en&region=us"
    },
    {
      "$ref": "http://sports.core.api.espn.com/v2/sports/football/leagues/nfl/seasons/2024/coaches/4082797?lang=en&region=us"
    },
    {
      "$ref": "http://sports.core.api.espn.com/v2/sports/football/leagues/nfl/seasons/2024/coaches/9619?lang=en&region=us"
    },
    {
      "$ref": "http://sports.core.api.espn.com/v2/sports/football/leagues/nfl/seasons/2024/coaches/2126648?lang=en&region=us"
    },
    {
      "$ref": "http://sports.core.api.espn.com/v2/sports/football/leagues/nfl/seasons/2024/coaches/2161829?lang=en&region=us"
    },
    {
      "$ref": "http://sports.core.api.espn.com/v2/sports/football/leagues/nfl/seasons/2024/coaches/17553?lang=en&region=us"
    },
    {
      "$ref": "http://sports.core.api.espn.com/v2/sports/football/leagues/nfl/seasons/2024/coaches/27?lang=en&region=us"
    },
    {
      "$ref": "http://sports.core.api.espn.com/v2/sports/football/leagues/nfl/seasons/2024/coaches/2499338?lang=en&region=us"
    },
    {
      "$ref": "http://sports.core.api.espn.com/v2/sports/football/leagues/nfl/seasons/2024/coaches/17596?lang=en&region=us"
    },
    {
      "$ref": "http://sports.core.api.espn.com/v2/sports/football/leagues/nfl/seasons/2024/coaches/4712737?lang=en&region=us"
    },
    {
      "$ref": "http://sports.core.api.espn.com/v2/sports/football/leagues/nfl/seasons/2024/coaches/2146711?lang=en&region=us"
    },
    {
      "$ref": "http://sports.core.api.espn.com/v2/sports/football/leagues/nfl/seasons/2024/coaches/1257?lang=en&region=us"
    },
    {
      "$ref": "http://sports.core.api.espn.com/v2/sports/football/leagues/nfl/seasons/2024/coaches/14882?lang=en&region=us"
    },
    {
      "$ref": "http://sports.core.api.espn.com/v2/sports/football/leagues/nfl/seasons/2024/coaches/2333487?lang=en&region=us"
    },
    {
      "$ref": "http://sports.core.api.espn.com/v2/sports/football/leagues/nfl/seasons/2024/coaches/558?lang=en&region=us"
    }
  ]
}
