{
  "count": 335,
  "pageIndex": 1,
  "pageSize": 25,
  "pageCount": 14,
  "items": [
    {
      "$ref": "http://sports.core.api.espn.com/v2/sports/football/leagues/nfl/events/401547639?lang=en&region=us"
    },
    {
      "$ref": "http://sports.core.api.espn.com/v2/sports/football/leagues/nfl/events/401547644?lang=en&region=us"
    },
    {
      "$ref": "http://sports.core.api.espn.com/v2/sports/football/leagues/nfl/events/401547641?lang=en&region=us"
    },
    {
      "$ref": "http://sports.core.api.espn.com/v2/sports/football/leagues/nfl/events/401547642?lang=en&region=us"
    },
    {
      "$ref": "http://sports.core.api.espn.com/v2/sports/football/leagues/nfl/events/401547652?lang=en&region=us"
    },
    {
      "$ref": "http://sports.core.api.espn.com/v2/sports/football/leagues/nfl/events/401547648?lang=en&region=us"
    },
    {
      "$ref": "http://sports.core.api.espn.com/v2/sports/football/leagues/nfl/events/401547649?lang=en&region=us"
    },
    {
      "$ref": "http://sports.core.api.espn.com/v2/sports/football/leagues/nfl/events/401547640?lang=en&region=us"
    },
    {
      "$ref": "http://sports.core.api.espn.com/v2/sports/football/leagues/nfl/events/401547643?lang=en&region=us"
    },
    {
      "$ref": "http://sports.core.api.espn.com/v2/sports/football/leagues/nfl/events/401547646?lang=en&region=us"
    },
    {
      "$ref": "http://sports.core.api.espn.com/v2/sports/football/leagues/nfl/events/401547650?lang=en&region=us"
    },
    {
      "$ref": "http://sports.core.api.espn.com/v2/sports/football/leagues/nfl/events/401547638?lang=en&region=us"
    },
    {
      "$ref": "http://sports.core.api.espn.com/v2/sports/football/leagues/nfl/events/401547645?lang=en&region=us"
    },
    {
      "$ref": "http://sports.core.api.espn.com/v2/sports/football/leagues/nfl/events/401547651?lang=en&region=us"
    },
    {
      "$ref": "http://sports.core.api.espn.com/v2/sports/football/leagues/nfl/events/401547653?lang=en&region=us"
    },
    {
      "$ref": "http://sports.core.api.espn.com/v2/sports/football/leagues/nfl/events/401547647?lang=en&region=us"
    },
    {
      "$ref": "http://sports.core.api.espn.com/v2/sports/football/leagues/nfl/events/401547749?lang=en&region=us"
    },
    {
      "$ref": "http://sports.core.api.espn.com/v2/sports/football/leagues/nfl/events/401547750?lang=en&region=us"
    },
    {
      "$ref": "http://sports.core.api.espn.com/v2/sports/football/leagues/nfl/events/401547752?lang=en&region=us"
    },
    {
      "$ref": "http://sports.core.api.espn.com/v2/sports/football/leagues/nfl/events/401547753?lang=en&region=us"
    },
    {
      "$ref": "http://sports.core.api.espn.com/v2/sports/football/leagues/nfl/events/401547751?lang=en&region=us"
    },
    {
      "$ref": "http://sports.core.api.espn.com/v2/sports/football/leagues/nfl/events/401547754?lang=en&region=us"
    },
    {
      "$ref": "http://sports.core.api.espn.com/v2/sports/football/leagues/nfl/events/401547755?lang=en&region=us"
    },
    {
      "$ref": "http://sports.core.api.espn.com/v2/sports/football/leagues/nfl/events/401547756?lang=en&region=us"
    },
    {
      "$ref": "http://sports.core.api.espn.com/v2/sports/football/leagues/nfl/events/401547757?lang=en&region=us"
    }
  ]
}