{
  "$ref": "http://sports.core.api.espn.com/v2/sports/golf/leagues/pga/seasons/2024/athletes/388/eventlog?lang=en&region=us",
  "leagues": {
    "eur": {
      "$ref": "http://sports.core.api.espn.com/v2/sports/golf/leagues/eur?lang=en&region=us"
    },
    "pga": {
      "$ref": "http://sports.core.api.espn.com/v2/sports/golf/leagues/pga?lang=en&region=us"
    }
  },
  "events": {
    "count": 26,
    "pageIndex": 1,
    "pageSize": 25,
    "pageCount": 2,
    "items": [
      {
        "played": true,
        "event": {
          "$ref": "http://sports.core.api.espn.com/v2/sports/golf/leagues/eur/events/401602809?lang=en&region=us"
        },
        "competition": {
          "$ref": "http://sports.core.api.espn.com/v2/sports/golf/leagues/eur/events/401602809/competitions/401602809?lang=en&region=us"
        },
        "competitor": {
          "$ref": "http://sports.core.api.espn.com/v2/sports/golf/leagues/eur/events/401602809/competitions/401602809/competitors/388?lang=en&region=us"
        },
        "statistics": {
          "$ref": "http://sports.core.api.espn.com/v2/sports/golf/leagues/eur/events/401602809/competitions/401602809/competitors/388/statistics/0?lang=en&region=us"
        },
        "league": "eur"
      },
      {
        "played": true,
        "event": {
          "$ref": "http://sports.core.api.espn.com/v2/sports/golf/leagues/eur/events/401602811?lang=en&region=us"
        },
        "competition": {
          "$ref": "http://sports.core.api.espn.com/v2/sports/golf/leagues/eur/events/401602811/competitions/401602811?lang=en&region=us"
        },
        "competitor": {
          "$ref": "http://sports.core.api.espn.com/v2/sports/golf/leagues/eur/events/401602811/competitions/401602811/competitors/388?lang=en&region=us"
        },
        "statistics": {
          "$ref": "http://sports.core.api.espn.com/v2/sports/golf/leagues/eur/events/401602811/competitions/401602811/competitors/388/statistics/0?lang=en&region=us"
        },
        "league": "eur"
      },
      {
        "played": true,
        "event": {
          "$ref": "http://sports.core.api.espn.com/v2/sports/golf/leagues/eur/events/401602816?lang=en&region=us"
        },
        "competition": {
          "$ref": "http://sports.core.api.espn.com/v2/sports/golf/leagues/eur/events/401602816/competitions/401602816?lang=en&region=us"
        },
        "competitor": {
          "$ref": "http://sports.core.api.espn.com/v2/sports/golf/leagues/eur/events/401602816/competitions/401602816/competitors/388?lang=en&region=us"
        },
        "statistics": {
          "$ref": "http://sports.core.api.espn.com/v2/sports/golf/leagues/eur/events/401602816/competitions/401602816/competitors/388/statistics/0?lang=en&region=us"
        },
        "league": "eur"
      },
      {
        "played": true,
        "event": {
          "$ref": "http://sports.core.api.espn.com/v2/sports/golf/leagues/pga/events/401580333?lang=en&region=us"
        },
        "competition": {
          "$ref": "http://sports.core.api.espn.com/v2/sports/golf/leagues/pga/events/401580333/competitions/401580333?lang=en&region=us"
        },
        "competitor": {
          "$ref": "http://sports.core.api.espn.com/v2/sports/golf/leagues/pga/events/401580333/competitions/401580333/competitors/388?lang=en&region=us"
        },
        "statistics": {
          "$ref": "http://sports.core.api.espn.com/v2/sports/golf/leagues/pga/events/401580333/competitions/401580333/competitors/388/statistics/0?lang=en&region=us"
        },
        "league": "pga"
      },
      {
        "played": true,
        "event": {
          "$ref": "http://sports.core.api.espn.com/v2/sports/golf/leagues/pga/events/401580334?lang=en&region=us"
        },
        "competition": {
          "$ref": "http://sports.core.api.espn.com/v2/sports/golf/leagues/pga/events/401580334/competitions/401580334?lang=en&region=us"
        },
        "competitor": {
          "$ref": "http://sports.core.api.espn.com/v2/sports/golf/leagues/pga/events/401580334/competitions/401580334/competitors/388?lang=en&region=us"
        },
        "statistics": {
          "$ref": "http://sports.core.api.espn.com/v2/sports/golf/leagues/pga/events/401580334/competitions/401580334/competitors/388/statistics/0?lang=en&region=us"
        },
        "league": "pga"
      },
      {
        "played": true,
        "event": {
          "$ref": "http://sports.core.api.espn.com/v2/sports/golf/leagues/pga/events/401580335?lang=en&region=us"
        },
        "competition": {
          "$ref": "http://sports.core.api.espn.com/v2/sports/golf/leagues/pga/events/401580335/competitions/401580335?lang=en&region=us"
        },
        "competitor": {
          "$ref": "http://sports.core.api.espn.com/v2/sports/golf/leagues/pga/events/401580335/competitions/401580335/competitors/388?lang=en&region=us"
        },
        "statistics": {
          "$ref": "http://sports.core.api.espn.com/v2/sports/golf/leagues/pga/events/401580335/competitions/401580335/competitors/388/statistics/0?lang=en&region=us"
        },
        "league": "pga"
      },
      {
        "played": true,
        "event": {
          "$ref": "http://sports.core.api.espn.com/v2/sports/golf/leagues/pga/events/401580338?lang=en&region=us"
        },
        "competition": {
          "$ref": "http://sports.core.api.espn.com/v2/sports/golf/leagues/pga/events/401580338/competitions/401580338?lang=en&region=us"
        },
        "competitor": {
          "$ref": "http://sports.core.api.espn.com/v2/sports/golf/leagues/pga/events/401580338/competitions/401580338/competitors/388?lang=en&region=us"
        },
        "statistics": {
          "$ref": "http://sports.core.api.espn.com/v2/sports/golf/leagues/pga/events/401580338/competitions/401580338/competitors/388/statistics/0?lang=en&region=us"
        },
        "league": "pga"
      },
      {
        "played": true,
        "event": {
          "$ref": "http://sports.core.api.espn.com/v2/sports/golf/leagues/pga/events/401580340?lang=en&region=us"
        },
        "competition": {
          "$ref": "http://sports.core.api.espn.com/v2/sports/golf/leagues/pga/events/401580340/competitions/401580340?lang=en&region=us"
        },
        "competitor": {
          "$ref": "http://sports.core.api.espn.com/v2/sports/golf/leagues/pga/events/401580340/competitions/401580340/competitors/388?lang=en&region=us"
        },
        "statistics": {
          "$ref": "http://sports.core.api.espn.com/v2/sports/golf/leagues/pga/events/401580340/competitions/401580340/competitors/388/statistics/0?lang=en&region=us"
        },
        "league": "pga"
      },
      {
        "played": true,
        "event": {
          "$ref": "http://sports.core.api.espn.com/v2/sports/golf/leagues/pga/events/401580343?lang=en&region=us"
        },
        "competition": {
          "$ref": "http://sports.core.api.espn.com/v2/sports/golf/leagues/pga/events/401580343/competitions/401580343?lang=en&region=us"
        },
        "competitor": {
          "$ref": "http://sports.core.api.espn.com/v2/sports/golf/leagues/pga/events/401580343/competitions/401580343/competitors/388?lang=en&region=us"
        },
        "statistics": {
          "$ref": "http://sports.core.api.espn.com/v2/sports/golf/leagues/pga/events/401580343/competitions/401580343/competitors/388/statistics/0?lang=en&region=us"
        },
        "league": "pga"
      },
      {
        "played": true,
        "event": {
          "$ref": "http://sports.core.api.espn.com/v2/sports/golf/leagues/pga/events/401580344?lang=en&region=us"
        },
        "competition": {
          "$ref": "http://sports.core.api.espn.com/v2/sports/golf/leagues/pga/events/401580344/competitions/401580344?lang=en&region=us"
        },
        "competitor": {
          "$ref": "http://sports.core.api.espn.com/v2/sports/golf/leagues/pga/events/401580344/competitions/401580344/competitors/388?lang=en&region=us"
        },
        "statistics": {
          "$ref": "http://sports.core.api.espn.com/v2/sports/golf/leagues/pga/events/401580344/competitions/401580344/competitors/388/statistics/0?lang=en&region=us"
        },
        "league": "pga"
      },
      {
        "played": true,
        "event": {
          "$ref": "http://sports.core.api.espn.com/v2/sports/golf/leagues/pga/events/401580348?lang=en&region=us"
        },
        "competition": {
          "$ref": "http://sports.core.api.espn.com/v2/sports/golf/leagues/pga/events/401580348/competitions/401580348?lang=en&region=us"
        },
        "competitor": {
          "$ref": "http://sports.core.api.espn.com/v2/sports/golf/leagues/pga/events/401580348/competitions/401580348/competitors/388?lang=en&region=us"
        },
        "statistics": {
          "$ref": "http://sports.core.api.espn.com/v2/sports/golf/leagues/pga/events/401580348/competitions/401580348/competitors/388/statistics/0?lang=en&region=us"
        },
        "league": "pga"
      },
      {
        "played": true,
        "event": {
          "$ref": "http://sports.core.api.espn.com/v2/sports/golf/leagues/pga/events/401580349?lang=en&region=us"
        },
        "competition": {
          "$ref": "http://sports.core.api.espn.com/v2/sports/golf/leagues/pga/events/401580349/competitions/401580349?lang=en&region=us"
        },
        "competitor": {
          "$ref": "http://sports.core.api.espn.com/v2/sports/golf/leagues/pga/events/401580349/competitions/401580349/competitors/388?lang=en&region=us"
        },
        "statistics": {
          "$ref": "http://sports.core.api.espn.com/v2/sports/golf/leagues/pga/events/401580349/competitions/401580349/competitors/388/statistics/0?lang=en&region=us"
        },
        "league": "pga"
      },
      {
        "played": true,
        "event": {
          "$ref": "http://sports.core.api.espn.com/v2/sports/golf/leagues/pga/events/401580351?lang=en&region=us"
        },
        "competition": {
          "$ref": "http://sports.core.api.espn.com/v2/sports/golf/leagues/pga/events/401580351/competitions/401580351?lang=en&region=us"
        },
        "competitor": {
          "$ref": "http://sports.core.api.espn.com/v2/sports/golf/leagues/pga/events/401580351/competitions/401580351/competitors/388?lang=en&region=us"
        },
        "statistics": {
          "$ref": "http://sports.core.api.espn.com/v2/sports/golf/leagues/pga/events/401580351/competitions/401580351/competitors/388/statistics/0?lang=en&region=us"
        },
        "league": "pga"
      },
      {
        "played": true,
        "event": {
          "$ref": "http://sports.core.api.espn.com/v2/sports/golf/leagues/pga/events/401580352?lang=en&region=us"
        },
        "competition": {
          "$ref": "http://sports.core.api.espn.com/v2/sports/golf/leagues/pga/events/401580352/competitions/401580352?lang=en&region=us"
        },
        "competitor": {
          "$ref": "http://sports.core.api.espn.com/v2/sports/golf/leagues/pga/events/401580352/competitions/401580352/competitors/388?lang=en&region=us"
        },
        "statistics": {
          "$ref": "http://sports.core.api.espn.com/v2/sports/golf/leagues/pga/events/401580352/competitions/401580352/competitors/388/statistics/0?lang=en&region=us"
        },
        "league": "pga"
      },
      {
        "played": true,
        "event": {
          "$ref": "http://sports.core.api.espn.com/v2/sports/golf/leagues/pga/events/401580353?lang=en&region=us"
        },
        "competition": {
          "$ref": "http://sports.core.api.espn.com/v2/sports/golf/leagues/pga/events/401580353/competitions/401580353?lang=en&region=us"
        },
        "competitor": {
          "$ref": "http://sports.core.api.espn.com/v2/sports/golf/leagues/pga/events/401580353/competitions/401580353/competitors/388?lang=en&region=us"
        },
        "statistics": {
          "$ref": "http://sports.core.api.espn.com/v2/sports/golf/leagues/pga/events/401580353/competitions/401580353/competitors/388/statistics/0?lang=en&region=us"
        },
        "league": "pga"
      },
      {
        "played": true,
        "event": {
          "$ref": "http://sports.core.api.espn.com/v2/sports/golf/leagues/pga/events/401580355?lang=en&region=us"
        },
        "competition": {
          "$ref": "http://sports.core.api.espn.com/v2/sports/golf/leagues/pga/events/401580355/competitions/401580355?lang=en&region=us"
        },
        "competitor": {
          "$ref": "http://sports.core.api.espn.com/v2/sports/golf/leagues/pga/events/401580355/competitions/401580355/competitors/388?lang=en&region=us"
        },
        "statistics": {
          "$ref": "http://sports.core.api.espn.com/v2/sports/golf/leagues/pga/events/401580355/competitions/401580355/competitors/388/statistics/0?lang=en&region=us"
        },
        "league": "pga"
      },
      {
        "played": true,
        "event": {
          "$ref": "http://sports.core.api.espn.com/v2/sports/golf/leagues/pga/events/401580356?lang=en&region=us"
        },
        "competition": {
          "$ref": "http://sports.core.api.espn.com/v2/sports/golf/leagues/pga/events/401580356/competitions/401580356?lang=en&region=us"
        },
        "competitor": {
          "$ref": "http://sports.core.api.espn.com/v2/sports/golf/leagues/pga/events/401580356/competitions/401580356/competitors/388?lang=en&region=us"
        },
        "statistics": {
          "$ref": "http://sports.core.api.espn.com/v2/sports/golf/leagues/pga/events/401580356/competitions/401580356/competitors/388/statistics/0?lang=en&region=us"
        },
        "league": "pga"
      },
      {
        "played": true,
        "event": {
          "$ref": "http://sports.core.api.espn.com/v2/sports/golf/leagues/pga/events/401580359?lang=en&region=us"
        },
        "competition": {
          "$ref": "http://sports.core.api.espn.com/v2/sports/golf/leagues/pga/events/401580359/competitions/401580359?lang=en&region=us"
        },
        "competitor": {
          "$ref": "http://sports.core.api.espn.com/v2/sports/golf/leagues/pga/events/401580359/competitions/401580359/competitors/388?lang=en&region=us"
        },
        "statistics": {
          "$ref": "http://sports.core.api.espn.com/v2/sports/golf/leagues/pga/events/401580359/competitions/401580359/competitors/388/statistics/0?lang=en&region=us"
        },
        "league": "pga"
      },
      {
        "played": true,
        "event": {
          "$ref": "http://sports.core.api.espn.com/v2/sports/golf/leagues/pga/events/401580360?lang=en&region=us"
        },
        "competition": {
          "$ref": "http://sports.core.api.espn.com/v2/sports/golf/leagues/pga/events/401580360/competitions/401580360?lang=en&region=us"
        },
        "competitor": {
          "$ref": "http://sports.core.api.espn.com/v2/sports/golf/leagues/pga/events/401580360/competitions/401580360/competitors/388?lang=en&region=us"
        },
        "statistics": {
          "$ref": "http://sports.core.api.espn.com/v2/sports/golf/leagues/pga/events/401580360/competitions/401580360/competitors/388/statistics/0?lang=en&region=us"
        },
        "league": "pga"
      },
      {
        "played": true,
        "event": {
          "$ref": "http://sports.core.api.espn.com/v2/sports/golf/leagues/pga/events/401580364?lang=en&region=us"
        },
        "competition": {
          "$ref": "http://sports.core.api.espn.com/v2/sports/golf/leagues/pga/events/401580364/competitions/401580364?lang=en&region=us"
        },
        "competitor": {
          "$ref": "http://sports.core.api.espn.com/v2/sports/golf/leagues/pga/events/401580364/competitions/401580364/competitors/388?lang=en&region=us"
        },
        "statistics": {
          "$ref": "http://sports.core.api.espn.com/v2/sports/golf/leagues/pga/events/401580364/competitions/401580364/competitors/388/statistics/0?lang=en&region=us"
        },
        "league": "pga"
      },
      {
        "played": true,
        "event": {
          "$ref": "http://sports.core.api.espn.com/v2/sports/golf/leagues/pga/events/401580365?lang=en&region=us"
        },
        "competition": {
          "$ref": "http://sports.core.api.espn.com/v2/sports/golf/leagues/pga/events/401580365/competitions/401580365?lang=en&region=us"
        },
        "competitor": {
          "$ref": "http://sports.core.api.espn.com/v2/sports/golf/leagues/pga/events/401580365/competitions/401580365/competitors/388?lang=en&region=us"
        },
        "statistics": {
          "$ref": "http://sports.core.api.espn.com/v2/sports/golf/leagues/pga/events/401580365/competitions/401580365/competitors/388/statistics/0?lang=en&region=us"
        },
        "league": "pga"
      },
      {
        "played": true,
        "event": {
          "$ref": "http://sports.core.api.espn.com/v2/sports/golf/leagues/pga/events/401580366?lang=en&region=us"
        },
        "competition": {
          "$ref": "http://sports.core.api.espn.com/v2/sports/golf/leagues/pga/events/401580366/competitions/401580366?lang=en&region=us"
        },
        "competitor": {
          "$ref": "http://sports.core.api.espn.com/v2/sports/golf/leagues/pga/events/401580366/competitions/401580366/competitors/388?lang=en&region=us"
        },
        "statistics": {
          "$ref": "http://sports.core.api.espn.com/v2/sports/golf/leagues/pga/events/401580366/competitions/401580366/competitors/388/statistics/0?lang=en&region=us"
        },
        "league": "pga"
      },
      {
        "played": true,
        "event": {
          "$ref": "http://sports.core.api.espn.com/v2/sports/golf/leagues/eur/events/401602837?lang=en&region=us"
        },
        "competition": {
          "$ref": "http://sports.core.api.espn.com/v2/sports/golf/leagues/eur/events/401602837/competitions/401602837?lang=en&region=us"
        },
        "competitor": {
          "$ref": "http://sports.core.api.espn.com/v2/sports/golf/leagues/eur/events/401602837/competitions/401602837/competitors/388?lang=en&region=us"
        },
        "statistics": {
          "$ref": "http://sports.core.api.espn.com/v2/sports/golf/leagues/eur/events/401602837/competitions/401602837/competitors/388/statistics/0?lang=en&region=us"
        },
        "league": "eur"
      },
      {
        "played": true,
        "event": {
          "$ref": "http://sports.core.api.espn.com/v2/sports/golf/leagues/pga/events/401656722?lang=en&region=us"
        },
        "league": "pga"
      },
      {
        "played": true,
        "event": {
          "$ref": "http://sports.core.api.espn.com/v2/sports/golf/leagues/eur/events/401602842?lang=en&region=us"
        },
        "competition": {
          "$ref": "http://sports.core.api.espn.com/v2/sports/golf/leagues/eur/events/401602842/competitions/401602842?lang=en&region=us"
        },
        "competitor": {
          "$ref": "http://sports.core.api.espn.com/v2/sports/golf/leagues/eur/events/401602842/competitions/401602842/competitors/388?lang=en&region=us"
        },
        "statistics": {
          "$ref": "http://sports.core.api.espn.com/v2/sports/golf/leagues/eur/events/401602842/competitions/401602842/competitors/388/statistics/0?lang=en&region=us"
        },
        "league": "eur"
      }
    ]
  }
}