{
  "$ref": "http://sports.core.api.espn.com/v2/sports/hockey/leagues/nhl/seasons/2024/athletes/3024816/eventlog?lang=en&region=us",
  "teams": {
    "5": {
      "team": {
        "$ref": "http://sports.core.api.espn.com/v2/sports/hockey/leagues/nhl/seasons/2024/teams/5?lang=en&region=us"
      },
      "id": "5"
    }
  },
  "events": {
    "count": 41,
    "pageIndex": 1,
    "pageSize": 25,
    "pageCount": 2,
    "items": [
      {
        "played": true,
        "event": {
          "$ref": "http://sports.core.api.espn.com/v2/sports/hockey/leagues/nhl/events/401559274?lang=en&region=us"
        },
        "competition": {
          "$ref": "http://sports.core.api.espn.com/v2/sports/hockey/leagues/nhl/events/401559274/competitions/401559274?lang=en&region=us"
        },
        "statistics": {
          "$ref": "http://sports.core.api.espn.com/v2/sports/hockey/leagues/nhl/events/401559274/competitions/401559274/competitors/5/roster/3024816/statistics/0?lang=en&region=us"
        },
        "teamId": "5"
      },
      {
        "played": true,
        "event": {
          "$ref": "http://sports.core.api.espn.com/v2/sports/hockey/leagues/nhl/events/401559285?lang=en&region=us"
        },
        "competition": {
          "$ref": "http://sports.core.api.espn.com/v2/sports/hockey/leagues/nhl/events/401559285/competitions/401559285?lang=en&region=us"
        },
        "statistics": {
          "$ref": "http://sports.core.api.espn.com/v2/sports/hockey/leagues/nhl/events/401559285/competitions/401559285/competitors/5/roster/3024816/statistics/0?lang=en&region=us"
        },
        "teamId": "5"
      },
      {
        "played": true,
        "event": {
          "$ref": "http://sports.core.api.espn.com/v2/sports/hockey/leagues/nhl/events/401559300?lang=en&region=us"
        },
        "competition": {
          "$ref": "http://sports.core.api.espn.com/v2/sports/hockey/leagues/nhl/events/401559300/competitions/401559300?lang=en&region=us"
        },
        "statistics": {
          "$ref": "http://sports.core.api.espn.com/v2/sports/hockey/leagues/nhl/events/401559300/competitions/401559300/competitors/5/roster/3024816/statistics/0?lang=en&region=us"
        },
        "teamId": "5"
      },
      {
        "played": true,
        "event": {
          "$ref": "http://sports.core.api.espn.com/v2/sports/hockey/leagues/nhl/events/401559315?lang=en&region=us"
        },
        "competition": {
          "$ref": "http://sports.core.api.espn.com/v2/sports/hockey/leagues/nhl/events/401559315/competitions/401559315?lang=en&region=us"
        },
        "statistics": {
          "$ref": "http://sports.core.api.espn.com/v2/sports/hockey/leagues/nhl/events/401559315/competitions/401559315/competitors/5/roster/3024816/statistics/0?lang=en&region=us"
        },
        "teamId": "5"
      },
      {
        "played": true,
        "event": {
          "$ref": "http://sports.core.api.espn.com/v2/sports/hockey/leagues/nhl/events/401559326?lang=en&region=us"
        },
        "competition": {
          "$ref": "http://sports.core.api.espn.com/v2/sports/hockey/leagues/nhl/events/401559326/competitions/401559326?lang=en&region=us"
        },
        "statistics": {
          "$ref": "http://sports.core.api.espn.com/v2/sports/hockey/leagues/nhl/events/401559326/competitions/401559326/competitors/5/roster/3024816/statistics/0?lang=en&region=us"
        },
        "teamId": "5"
      },
      {
        "played": true,
        "event": {
          "$ref": "http://sports.core.api.espn.com/v2/sports/hockey/leagues/nhl/events/401559337?lang=en&region=us"
        },
        "competition": {
          "$ref": "http://sports.core.api.espn.com/v2/sports/hockey/leagues/nhl/events/401559337/competitions/401559337?lang=en&region=us"
        },
        "statistics": {
          "$ref": "http://sports.core.api.espn.com/v2/sports/hockey/leagues/nhl/events/401559337/competitions/401559337/competitors/5/roster/3024816/statistics/0?lang=en&region=us"
        },
        "teamId": "5"
      },
      {
        "played": true,
        "event": {
          "$ref": "http://sports.core.api.espn.com/v2/sports/hockey/leagues/nhl/events/401559354?lang=en&region=us"
        },
        "competition": {
          "$ref": "http://sports.core.api.espn.com/v2/sports/hockey/leagues/nhl/events/401559354/competitions/401559354?lang=en&region=us"
        },
        "statistics": {
          "$ref": "http://sports.core.api.espn.com/v2/sports/hockey/leagues/nhl/events/401559354/competitions/401559354/competitors/5/roster/3024816/statistics/0?lang=en&region=us"
        },
        "teamId": "5"
      },
      {
        "played": true,
        "event": {
          "$ref": "http://sports.core.api.espn.com/v2/sports/hockey/leagues/nhl/events/401559368?lang=en&region=us"
        },
        "competition": {
          "$ref": "http://sports.core.api.espn.com/v2/sports/hockey/leagues/nhl/events/401559368/competitions/401559368?lang=en&region=us"
        },
        "statistics": {
          "$ref": "http://sports.core.api.espn.com/v2/sports/hockey/leagues/nhl/events/401559368/competitions/401559368/competitors/5/roster/3024816/statistics/0?lang=en&region=us"
        },
        "teamId": "5"
      },
      {
        "played": true,
        "event": {
          "$ref": "http://sports.core.api.espn.com/v2/sports/hockey/leagues/nhl/events/401559381?lang=en&region=us"
        },
        "competition": {
          "$ref": "http://sports.core.api.espn.com/v2/sports/hockey/leagues/nhl/events/401559381/competitions/401559381?lang=en&region=us"
        },
        "statistics": {
          "$ref": "http://sports.core.api.espn.com/v2/sports/hockey/leagues/nhl/events/401559381/competitions/401559381/competitors/5/roster/3024816/statistics/0?lang=en&region=us"
        },
        "teamId": "5"
      },
      {
        "played": true,
        "event": {
          "$ref": "http://sports.core.api.espn.com/v2/sports/hockey/leagues/nhl/events/401559397?lang=en&region=us"
        },
        "competition": {
          "$ref": "http://sports.core.api.espn.com/v2/sports/hockey/leagues/nhl/events/401559397/competitions/401559397?lang=en&region=us"
        },
        "statistics": {
          "$ref": "http://sports.core.api.espn.com/v2/sports/hockey/leagues/nhl/events/401559397/competitions/401559397/competitors/5/roster/3024816/statistics/0?lang=en&region=us"
        },
        "teamId": "5"
      },
      {
        "played": false,
        "event": {
          "$ref": "http://sports.core.api.espn.com/v2/sports/hockey/leagues/nhl/events/401559416?lang=en&region=us"
        },
        "competition": {
          "$ref": "http://sports.core.api.espn.com/v2/sports/hockey/leagues/nhl/events/401559416/competitions/401559416?lang=en&region=us"
        },
        "teamId": "5"
      },
      {
        "played": true,
        "event": {
          "$ref": "http://sports.core.api.espn.com/v2/sports/hockey/leagues/nhl/events/401559428?lang=en&region=us"
        },
        "competition": {
          "$ref": "http://sports.core.api.espn.com/v2/sports/hockey/leagues/nhl/events/401559428/competitions/401559428?lang=en&region=us"
        },
        "statistics": {
          "$ref": "http://sports.core.api.espn.com/v2/sports/hockey/leagues/nhl/events/401559428/competitions/401559428/competitors/5/roster/3024816/statistics/0?lang=en&region=us"
        },
        "teamId": "5"
      },
      {
        "played": false,
        "event": {
          "$ref": "http://sports.core.api.espn.com/v2/sports/hockey/leagues/nhl/events/401559443?lang=en&region=us"
        },
        "competition": {
          "$ref": "http://sports.core.api.espn.com/v2/sports/hockey/leagues/nhl/events/401559443/competitions/401559443?lang=en&region=us"
        },
        "teamId": "5"
      },
      {
        "played": false,
        "event": {
          "$ref": "http://sports.core.api.espn.com/v2/sports/hockey/leagues/nhl/events/401555904?lang=en&region=us"
        },
        "competition": {
          "$ref": "http://sports.core.api.espn.com/v2/sports/hockey/leagues/nhl/events/401555904/competitions/401555904?lang=en&region=us"
        },
        "teamId": "5"
      },
      {
        "played": false,
        "event": {
          "$ref": "http://sports.core.api.espn.com/v2/sports/hockey/leagues/nhl/events/401555905?lang=en&region=us"
        },
        "competition": {
          "$ref": "http://sports.core.api.espn.com/v2/sports/hockey/leagues/nhl/events/401555905/competitions/401555905?lang=en&region=us"
        },
        "teamId": "5"
      },
      {
        "played": true,
        "event": {
          "$ref": "http://sports.core.api.espn.com/v2/sports/hockey/leagues/nhl/events/401559659?lang=en&region=us"
        },
        "competition": {
          "$ref": "http://sports.core.api.espn.com/v2/sports/hockey/leagues/nhl/events/401559659/competitions/401559659?lang=en&region=us"
        },
        "statistics": {
          "$ref": "http://sports.core.api.espn.com/v2/sports/hockey/leagues/nhl/events/401559659/competitions/401559659/competitors/5/roster/3024816/statistics/0?lang=en&region=us"
        },
        "teamId": "5"
      },
      {
        "played": true,
        "event": {
          "$ref": "http://sports.core.api.espn.com/v2/sports/hockey/leagues/nhl/events/401559664?lang=en&region=us"
        },
        "competition": {
          "$ref": "http://sports.core.api.espn.com/v2/sports/hockey/leagues/nhl/events/401559664/competitions/401559664?lang=en&region=us"
        },
        "statistics": {
          "$ref": "http://sports.core.api.espn.com/v2/sports/hockey/leagues/nhl/events/401559664/competitions/401559664/competitors/5/roster/3024816/statistics/0?lang=en&region=us"
        },
        "teamId": "5"
      },
      {
        "played": true,
        "event": {
          "$ref": "http://sports.core.api.espn.com/v2/sports/hockey/leagues/nhl/events/401559677?lang=en&region=us"
        },
        "competition": {
          "$ref": "http://sports.core.api.espn.com/v2/sports/hockey/leagues/nhl/events/401559677/competitions/401559677?lang=en&region=us"
        },
        "statistics": {
          "$ref": "http://sports.core.api.espn.com/v2/sports/hockey/leagues/nhl/events/401559677/competitions/401559677/competitors/5/roster/3024816/statistics/0?lang=en&region=us"
        },
        "teamId": "5"
      },
      {
        "played": true,
        "event": {
          "$ref": "http://sports.core.api.espn.com/v2/sports/hockey/leagues/nhl/events/401559694?lang=en&region=us"
        },
        "competition": {
          "$ref": "http://sports.core.api.espn.com/v2/sports/hockey/leagues/nhl/events/401559694/competitions/401559694?lang=en&region=us"
        },
        "statistics": {
          "$ref": "http://sports.core.api.espn.com/v2/sports/hockey/leagues/nhl/events/401559694/competitions/401559694/competitors/5/roster/3024816/statistics/0?lang=en&region=us"
        },
        "teamId": "5"
      },
      {
        "played": true,
        "event": {
          "$ref": "http://sports.core.api.espn.com/v2/sports/hockey/leagues/nhl/events/401559725?lang=en&region=us"
        },
        "competition": {
          "$ref": "http://sports.core.api.espn.com/v2/sports/hockey/leagues/nhl/events/401559725/competitions/401559725?lang=en&region=us"
        },
        "statistics": {
          "$ref": "http://sports.core.api.espn.com/v2/sports/hockey/leagues/nhl/events/401559725/competitions/401559725/competitors/5/roster/3024816/statistics/0?lang=en&region=us"
        },
        "teamId": "5"
      },
      {
        "played": false,
        "event": {
          "$ref": "http://sports.core.api.espn.com/v2/sports/hockey/leagues/nhl/events/401559739?lang=en&region=us"
        },
        "competition": {
          "$ref": "http://sports.core.api.espn.com/v2/sports/hockey/leagues/nhl/events/401559739/competitions/401559739?lang=en&region=us"
        },
        "teamId": "5"
      },
      {
        "played": false,
        "event": {
          "$ref": "http://sports.core.api.espn.com/v2/sports/hockey/leagues/nhl/events/401559746?lang=en&region=us"
        },
        "competition": {
          "$ref": "http://sports.core.api.espn.com/v2/sports/hockey/leagues/nhl/events/401559746/competitions/401559746?lang=en&region=us"
        },
        "teamId": "5"
      },
      {
        "played": true,
        "event": {
          "$ref": "http://sports.core.api.espn.com/v2/sports/hockey/leagues/nhl/events/401559765?lang=en&region=us"
        },
        "competition": {
          "$ref": "http://sports.core.api.espn.com/v2/sports/hockey/leagues/nhl/events/401559765/competitions/401559765?lang=en&region=us"
        },
        "statistics": {
          "$ref": "http://sports.core.api.espn.com/v2/sports/hockey/leagues/nhl/events/401559765/competitions/401559765/competitors/5/roster/3024816/statistics/0?lang=en&region=us"
        },
        "teamId": "5"
      },
      {
        "played": true,
        "event": {
          "$ref": "http://sports.core.api.espn.com/v2/sports/hockey/leagues/nhl/events/401559776?lang=en&region=us"
        },
        "competition": {
          "$ref": "http://sports.core.api.espn.com/v2/sports/hockey/leagues/nhl/events/401559776/competitions/401559776?lang=en&region=us"
        },
        "statistics": {
          "$ref": "http://sports.core.api.espn.com/v2/sports/hockey/leagues/nhl/events/401559776/competitions/401559776/competitors/5/roster/3024816/statistics/0?lang=en&region=us"
        },
        "teamId": "5"
      },
      {
        "played": true,
        "event": {
          "$ref": "http://sports.core.api.espn.com/v2/sports/hockey/leagues/nhl/events/401560274?lang=en&region=us"
        },
        "competition": {
          "$ref": "http://sports.core.api.espn.com/v2/sports/hockey/leagues/nhl/events/401560274/competitions/401560274?lang=en&region=us"
        },
        "statistics": {
          "$ref": "http://sports.core.api.espn.com/v2/sports/hockey/leagues/nhl/events/401560274/competitions/401560274/competitors/5/roster/3024816/statistics/0?lang=en&region=us"
        },
        "teamId": "5"
      }
    ]
  }
}