{"count":31,"pageIndex":1,"pageSize":25,"pageCount":2,"items":[{"$ref":"http://sports.core.api.espn.com/v2/sports/basketball/leagues/mens-college-basketball/seasons/2025/types/2/groups/46?lang=en&region=us"},{"$ref":"http://sports.core.api.espn.com/v2/sports/basketball/leagues/mens-college-basketball/seasons/2025/types/2/groups/1?lang=en&region=us"},{"$ref":"http://sports.core.api.espn.com/v2/sports/basketball/leagues/mens-college-basketball/seasons/2025/types/2/groups/62?lang=en&region=us"},{"$ref":"http://sports.core.api.espn.com/v2/sports/basketball/leagues/mens-college-basketball/seasons/2025/types/2/groups/3?lang=en&region=us"},{"$ref":"http://sports.core.api.espn.com/v2/sports/basketball/leagues/mens-college-basketball/seasons/2025/types/2/groups/2?lang=en&region=us"},{"$ref":"http://sports.core.api.espn.com/v2/sports/basketball/leagues/mens-college-basketball/seasons/2025/types/2/groups/8?lang=en&region=us"},{"$ref":"http://sports.core.api.espn.com/v2/sports/basketball/leagues/mens-college-basketball/seasons/2025/types/2/groups/4?lang=en&region=us"},{"$ref":"http://sports.core.api.espn.com/v2/sports/basketball/leagues/mens-college-basketball/seasons/2025/types/2/groups/5?lang=en&region=us"},{"$ref":"http://sports.core.api.espn.com/v2/sports/basketball/leagues/mens-college-basketball/seasons/2025/types/2/groups/6?lang=en&region=us"},{"$ref":"http://sports.core.api.espn.com/v2/sports/basketball/leagues/mens-college-basketball/seasons/2025/types/2/groups/7?lang=en&region=us"},{"$ref":"http://sports.core.api.espn.com/v2/sports/basketball/leagues/mens-college-basketball/seasons/2025/types/2/groups/9?lang=en&region=us"},{"$ref":"http://sports.core.api.espn.com/v2/sports/basketball/leagues/mens-college-basketball/seasons/2025/types/2/groups/10?lang=en&region=us"},{"$ref":"http://sports.core.api.espn.com/v2/sports/basketball/leagues/mens-college-basketball/seasons/2025/types/2/groups/11?lang=en&region=us"},{"$ref":"http://sports.core.api.espn.com/v2/sports/basketball/leagues/mens-college-basketball/seasons/2025/types/2/groups/45?lang=en&region=us"},{"$ref":"http://sports.core.api.espn.com/v2/sports/basketball/leagues/mens-college-basketball/seasons/2025/types/2/groups/12?lang=en&region=us"},{"$ref":"http://sports.core.api.espn.com/v2/sports/basketball/leagues/mens-college-basketball/seasons/2025/types/2/groups/13?lang=en&region=us"},{"$ref":"http://sports.core.api.espn.com/v2/sports/basketball/leagues/mens-college-basketball/seasons/2025/types/2/groups/14?lang=en&region=us"},{"$ref":"http://sports.core.api.espn.com/v2/sports/basketball/leagues/mens-college-basketball/seasons/2025/types/2/groups/16?lang=en&region=us"},{"$ref":"http://sports.core.api.espn.com/v2/sports/basketball/leagues/mens-college-basketball/seasons/2025/types/2/groups/18?lang=en&region=us"},{"$ref":"http://sports.core.api.espn.com/v2/sports/basketball/leagues/mens-college-basketball/seasons/2025/types/2/groups/44?lang=en&region=us"},{"$ref":"http://sports.core.api.espn.com/v2/sports/basketball/leagues/mens-college-basketball/seasons/2025/types/2/groups/19?lang=en&region=us"},{"$ref":"http://sports.core.api.espn.com/v2/sports/basketball/leagues/mens-college-basketball/seasons/2025/types/2/groups/20?lang=en&region=us"},{"$ref":"http://sports.core.api.espn.com/v2/sports/basketball/leagues/mens-college-basketball/seasons/2025/types/2/groups/22?lang=en&region=us"},{"$ref":"http://sports.core.api.espn.com/v2/sports/basketball/leagues/mens-college-basketball/seasons/2025/types/2/groups/23?lang=en&region=us"},{"$ref":"http://sports.core.api.espn.com/v2/sports/basketball/leagues/mens-college-basketball/seasons/2025/types/2/groups/24?lang=en&region=us"}]}