{"$ref":"http://sports.core.api.espn.com/v2/sports/baseball/leagues/mlb/events/401472463/competitions/401472463/plays?lang=en&region=us","count":569,"pageIndex":1,"pageSize":5,"pageCount":114,"items":[{"$ref":"http://sports.core.api.espn.com/v2/sports/baseball/leagues/mlb/events/401472463/competitions/401472463/plays/4014724630000000059?lang=en&region=us","id":"4014724630000000059","sequenceNumber":"1","type":{"id":"59","text":"Start Inning","type":"start-inning"},"text":"Top of the 1st inning","shortText":"Top of the 1st inning","alternativeText":"Top of the 1st inning","shortAlternativeText":"Top of the 1st inning","awayScore":0,"homeScore":0,"period":{"type":"Top","number":1,"displayValue":"1st Inning"},"valid":true,"scoringPlay":false,"priority":false,"scoreValue":0,"modified":"2023-07-19T16:41Z","team":{"$ref":"http://sports.core.api.espn.com/v2/sports/baseball/leagues/mlb/seasons/2023/teams/5?lang=en&region=us"},"wallclock":"2023-07-19T14:02:42Z","atBatId":"4014724630001","summaryType":"I","pitchCount":{"balls":0,"strikes":0},"resultCount":{"balls":0,"strikes":0},"awayErrors":0,"awayHits":0,"homeErrors":0,"homeHits":0,"outs":0,"rbiCount":0,"doublePlay":false,"triplePlay":false},{"$ref":"http://sports.core.api.espn.com/v2/sports/baseball/leagues/mlb/events/401472463/competitions/401472463/plays/4014724630001010001?lang=en&region=us","id":"4014724630001010001","sequenceNumber":"1","type":{"id":"1","text":"Start Batter/Pitcher","alternativeText":"Now at bat","type":"start-batterpitcher"},"text":"Rich Hill pitches to Steven Kwan","shortText":"Rich Hill pitches to Steven Kwan","alternativeText":"Rich Hill pitches to Steven Kwan","shortAlternativeText":"Rich Hill pitches to Steven Kwan","awayScore":0,"homeScore":0,"period":{"type":"Top","number":1,"displayValue":"1st Inning"},"valid":true,"scoringPlay":false,"priority":false,"scoreValue":0,"modified":"2023-07-19T16:39Z","team":{"$ref":"http://sports.core.api.espn.com/v2/sports/baseball/leagues/mlb/seasons/2023/teams/5?lang=en&region=us"},"participants":[{"athlete":{"$ref":"http://sports.core.api.espn.com/v2/sports/baseball/leagues/mlb/seasons/2023/athletes/6321?lang=en&region=us"},"statistics":{"$ref":"http://sports.core.api.espn.com/v2/sports/baseball/leagues/mlb/events/401472463/competitions/401472463/competitors/2/roster/6321/statistics/0?lang=en&region=us"},"order":1,"type":"pitcher"},{"athlete":{"$ref":"http://sports.core.api.espn.com/v2/sports/baseball/leagues/mlb/seasons/2023/athletes/41996?lang=en&region=us"},"position":{"$ref":"http://sports.core.api.espn.com/v2/sports/baseball/leagues/mlb/positions/7?lang=en&region=us"},"statistics":{"$ref":"http://sports.core.api.espn.com/v2/sports/baseball/leagues/mlb/events/401472463/competitions/401472463/competitors/5/roster/41996/statistics/0?lang=en&region=us"},"order":2,"type":"batter"}],"atBatId":"4014724630001","batOrder":1,"bats":{"type":"LEFT","abbreviation":"L","displayValue":"Left"},"pitches":{"type":"LEFT","abbreviation":"L","displayValue":"Left"},"summaryType":"A","pitchCount":{"balls":0,"strikes":0},"resultCount":{"balls":0,"strikes":0},"awayErrors":0,"awayHits":0,"homeErrors":0,"homeHits":0,"outs":1,"rbiCount":0,"doublePlay":false,"triplePlay":false},{"$ref":"http://sports.core.api.espn.com/v2/sports/baseball/leagues/mlb/events/401472463/competitions/401472463/plays/4014724630001020013?lang=en&region=us","id":"4014724630001020013","sequenceNumber":"2","type":{"id":"13","text":"Bunted Foul","abbreviation":"BF","alternativeText":"Out","type":"bunted-foul"},"text":"Pitch 1 : Strike 1 Bunted Foul","shortText":"Pitch 1 : Strike 1 Bunted Foul","alternativeText":"Pitch 1 : Strike 1 Bunted Foul","shortAlternativeText":"Strike Bunted Foul","awayScore":0,"homeScore":0,"period":{"type":"Top","number":1,"displayValue":"1st Inning"},"valid":true,"scoringPlay":false,"priority":false,"scoreValue":0,"modified":"2023-07-19T16:39Z","team":{"$ref":"http://sports.core.api.espn.com/v2/sports/baseball/leagues/mlb/seasons/2023/teams/23?lang=en&region=us"},"participants":[{"athlete":{"$ref":"http://sports.core.api.espn.com/v2/sports/baseball/leagues/mlb/seasons/2023/athletes/6321?lang=en&region=us"},"order":1,"type":"pitcher"},{"athlete":{"$ref":"http://sports.core.api.espn.com/v2/sports/baseball/leagues/mlb/seasons/2023/athletes/41996?lang=en&region=us"},"position":{"$ref":"http://sports.core.api.espn.com/v2/sports/baseball/leagues/mlb/positions/7?lang=en&region=us"},"order":2,"type":"batter"}],"atBatId":"4014724630001","batOrder":1,"bats":{"type":"LEFT","abbreviation":"L","displayValue":"Left"},"pitches":{"type":"LEFT","abbreviation":"L","displayValue":"Left"},"atBatPitchNumber":1,"pitchCoordinate":{"x":94,"y":148},"pitchType":{"id":"17","text":"Four-seam FB","abbreviation":"FF"},"pitchVelocity":87,"strikeType":"foul","hitCoordinate":{"x":124,"y":184},"summaryType":"P","pitchCount":{"balls":0,"strikes":0},"resultCount":{"balls":0,"strikes":1},"trajectory":"G","awayErrors":0,"awayHits":0,"homeErrors":0,"homeHits":0,"outs":1,"rbiCount":0,"doublePlay":false,"triplePlay":false},{"$ref":"http://sports.core.api.espn.com/v2/sports/baseball/leagues/mlb/events/401472463/competitions/401472463/plays/4014724630001030021?lang=en&region=us","id":"4014724630001030021","sequenceNumber":"3","type":{"id":"21","text":"Foul Ball","abbreviation":"F","type":"foul-ball"},"text":"Pitch 2 : Strike 2 Foul","shortText":"Pitch 2 : Strike 2 Foul","alternativeText":"Pitch 2 : Strike 2 Foul","shortAlternativeText":"Strike Foul","awayScore":0,"homeScore":0,"period":{"type":"Top","number":1,"displayValue":"1st Inning"},"valid":true,"scoringPlay":false,"priority":false,"scoreValue":0,"modified":"2023-07-19T16:39Z","team":{"$ref":"http://sports.core.api.espn.com/v2/sports/baseball/leagues/mlb/seasons/2023/teams/23?lang=en&region=us"},"participants":[{"athlete":{"$ref":"http://sports.core.api.espn.com/v2/sports/baseball/leagues/mlb/seasons/2023/athletes/6321?lang=en&region=us"},"order":1,"type":"pitcher"},{"athlete":{"$ref":"http://sports.core.api.espn.com/v2/sports/baseball/leagues/mlb/seasons/2023/athletes/41996?lang=en&region=us"},"position":{"$ref":"http://sports.core.api.espn.com/v2/sports/baseball/leagues/mlb/positions/7?lang=en&region=us"},"order":2,"type":"batter"}],"atBatId":"4014724630001","batOrder":1,"bats":{"type":"LEFT","abbreviation":"L","displayValue":"Left"},"pitches":{"type":"LEFT","abbreviation":"L","displayValue":"Left"},"atBatPitchNumber":2,"pitchCoordinate":{"x":153,"y":177},"pitchType":{"id":"4","text":"Curve","abbreviation":"CU"},"pitchVelocity":71,"strikeType":"foul","hitCoordinate":{"x":124,"y":184},"summaryType":"P","pitchCount":{"balls":0,"strikes":1},"resultCount":{"balls":0,"strikes":2},"trajectory":"G","awayErrors":0,"awayHits":0,"homeErrors":0,"homeHits":0,"outs":1,"rbiCount":0,"doublePlay":false,"triplePlay":false},{"$ref":"http://sports.core.api.espn.com/v2/sports/baseball/leagues/mlb/events/401472463/competitions/401472463/plays/4014724630001040005?lang=en&region=us","id":"4014724630001040005","sequenceNumber":"4","type":{"id":"5","text":"Ball","abbreviation":"B","alternativeText":"Walk","type":"ball"},"text":"Pitch 3 : Ball 1","shortText":"Pitch 3 : Ball 1","alternativeText":"Pitch 3 : Ball 1","shortAlternativeText":"Ball","awayScore":0,"homeScore":0,"period":{"type":"Top","number":1,"displayValue":"1st Inning"},"valid":true,"scoringPlay":false,"priority":false,"scoreValue":0,"modified":"2023-07-19T16:39Z","team":{"$ref":"http://sports.core.api.espn.com/v2/sports/baseball/leagues/mlb/seasons/2023/teams/23?lang=en&region=us"},"participants":[{"athlete":{"$ref":"http://sports.core.api.espn.com/v2/sports/baseball/leagues/mlb/seasons/2023/athletes/6321?lang=en&region=us"},"order":1,"type":"pitcher"},{"athlete":{"$ref":"http://sports.core.api.espn.com/v2/sports/baseball/leagues/mlb/seasons/2023/athletes/41996?lang=en&region=us"},"position":{"$ref":"http://sports.core.api.espn.com/v2/sports/baseball/leagues/mlb/positions/7?lang=en&region=us"},"order":2,"type":"batter"}],"atBatId":"4014724630001","batOrder":1,"bats":{"type":"LEFT","abbreviation":"L","displayValue":"Left"},"pitches":{"type":"LEFT","abbreviation":"L","displayValue":"Left"},"atBatPitchNumber":3,"pitchCoordinate":{"x":85,"y":177},"pitchType":{"id":"4","text":"Curve","abbreviation":"CU"},"pitchVelocity":72,"summaryType":"P","pitchCount":{"balls":0,"strikes":2},"resultCount":{"balls":1,"strikes":2},"trajectory":"G","awayErrors":0,"awayHits":0,"homeErrors":0,"homeHits":0,"outs":1,"rbiCount":0,"doublePlay":false,"triplePlay":false}]}