{"$ref":"http://sports.core.api.espn.com/v2/sports/basketball/leagues/nba/events/401584793/competitions/401584793/plays?lang=en&region=us","count":492,"pageIndex":1,"pageSize":5,"pageCount":99,"items":[{"$ref":"http://sports.core.api.espn.com/v2/sports/basketball/leagues/nba/events/401584793/competitions/401584793/plays/4015847934?lang=en&region=us","id":"4015847934","sequenceNumber":"4","type":{"id":"615","text":"Jumpball"},"text":"Jalen Duren vs. Brook Lopez (Cade Cunningham gains possession)","alternativeText":"Jalen Duren vs. Brook Lopez (Cade Cunningham gains possession)","awayScore":0,"homeScore":0,"period":{"number":1,"displayValue":"1st Quarter"},"clock":{"value":720.0,"displayValue":"12:00"},"valid":true,"scoringPlay":false,"priority":false,"scoreValue":0,"modified":"2023-11-09T01:10Z","team":{"$ref":"http://sports.core.api.espn.com/v2/sports/basketball/leagues/nba/seasons/2024/teams/8?lang=en&region=us"},"participants":[{"athlete":{"$ref":"http://sports.core.api.espn.com/v2/sports/basketball/leagues/nba/seasons/2024/athletes/4433621?lang=en&region=us"},"position":{"$ref":"http://sports.core.api.espn.com/v2/sports/basketball/leagues/nba/positions/9?lang=en&region=us"},"statistics":{"$ref":"http://sports.core.api.espn.com/v2/sports/basketball/leagues/nba/events/401584793/competitions/401584793/competitors/8/roster/4433621/statistics/0?lang=en&region=us"},"order":1},{"athlete":{"$ref":"http://sports.core.api.espn.com/v2/sports/basketball/leagues/nba/seasons/2024/athletes/3448?lang=en&region=us"},"position":{"$ref":"http://sports.core.api.espn.com/v2/sports/basketball/leagues/nba/positions/9?lang=en&region=us"},"statistics":{"$ref":"http://sports.core.api.espn.com/v2/sports/basketball/leagues/nba/events/401584793/competitions/401584793/competitors/15/roster/3448/statistics/0?lang=en&region=us"},"order":2},{"athlete":{"$ref":"http://sports.core.api.espn.com/v2/sports/basketball/leagues/nba/seasons/2024/athletes/4432166?lang=en&region=us"},"position":{"$ref":"http://sports.core.api.espn.com/v2/sports/basketball/leagues/nba/positions/1?lang=en&region=us"},"statistics":{"$ref":"http://sports.core.api.espn.com/v2/sports/basketball/leagues/nba/events/401584793/competitions/401584793/competitors/8/roster/4432166/statistics/0?lang=en&region=us"},"order":3}],"probability":{"$ref":"http://sports.core.api.espn.com/v2/sports/basketball/leagues/nba/events/401584793/competitions/401584793/probabilities/4015847934?lang=en&region=us"},"wallclock":"2023-11-09T01:10:45Z","shootingPlay":false,"coordinate":{"x":-214748340,"y":-214748365}},{"$ref":"http://sports.core.api.espn.com/v2/sports/basketball/leagues/nba/events/401584793/competitions/401584793/plays/4015847937?lang=en&region=us","id":"4015847937","sequenceNumber":"7","type":{"id":"130","text":"Floating Jump Shot"},"text":"Brook Lopez blocks Cade Cunningham 's 6-foot two point shot","shortText":"B. Lopez blocks C. Cunningham 's 6-foot two point shot","alternativeText":"Brook Lopez blocks Cade Cunningham 's 6-foot two point shot","shortAlternativeText":"B. Lopez blocks C. Cunningham 's 6-foot two point shot","awayScore":0,"homeScore":0,"period":{"number":1,"displayValue":"1st Quarter"},"clock":{"value":698.0,"displayValue":"11:38"},"valid":true,"scoringPlay":false,"priority":false,"scoreValue":0,"modified":"2023-11-09T01:11Z","team":{"$ref":"http://sports.core.api.espn.com/v2/sports/basketball/leagues/nba/seasons/2024/teams/8?lang=en&region=us"},"participants":[{"athlete":{"$ref":"http://sports.core.api.espn.com/v2/sports/basketball/leagues/nba/seasons/2024/athletes/4432166?lang=en&region=us"},"position":{"$ref":"http://sports.core.api.espn.com/v2/sports/basketball/leagues/nba/positions/1?lang=en&region=us"},"statistics":{"$ref":"http://sports.core.api.espn.com/v2/sports/basketball/leagues/nba/events/401584793/competitions/401584793/competitors/8/roster/4432166/statistics/0?lang=en&region=us"},"order":1,"type":"shooter"},{"athlete":{"$ref":"http://sports.core.api.espn.com/v2/sports/basketball/leagues/nba/seasons/2024/athletes/3448?lang=en&region=us"},"position":{"$ref":"http://sports.core.api.espn.com/v2/sports/basketball/leagues/nba/positions/9?lang=en&region=us"},"statistics":{"$ref":"http://sports.core.api.espn.com/v2/sports/basketball/leagues/nba/events/401584793/competitions/401584793/competitors/15/roster/3448/statistics/0?lang=en&region=us"},"order":3,"type":"blocker"}],"probability":{"$ref":"http://sports.core.api.espn.com/v2/sports/basketball/leagues/nba/events/401584793/competitions/401584793/probabilities/4015847937?lang=en&region=us"},"wallclock":"2023-11-09T01:11:01Z","shootingPlay":true,"coordinate":{"x":29,"y":6}},{"$ref":"http://sports.core.api.espn.com/v2/sports/basketball/leagues/nba/events/401584793/competitions/401584793/plays/4015847939?lang=en&region=us","id":"4015847939","sequenceNumber":"9","type":{"id":"155","text":"Defensive Rebound"},"text":"Malik Beasley defensive rebound","shortText":"M. Beasley defensive rebound","alternativeText":"Malik Beasley defensive rebound","shortAlternativeText":"M. Beasley defensive rebound","awayScore":0,"homeScore":0,"period":{"number":1,"displayValue":"1st Quarter"},"clock":{"value":693.0,"displayValue":"11:33"},"valid":true,"scoringPlay":false,"priority":false,"scoreValue":0,"modified":"2023-11-09T01:11Z","team":{"$ref":"http://sports.core.api.espn.com/v2/sports/basketball/leagues/nba/seasons/2024/teams/15?lang=en&region=us"},"participants":[{"athlete":{"$ref":"http://sports.core.api.espn.com/v2/sports/basketball/leagues/nba/seasons/2024/athletes/3907822?lang=en&region=us"},"position":{"$ref":"http://sports.core.api.espn.com/v2/sports/basketball/leagues/nba/positions/2?lang=en&region=us"},"statistics":{"$ref":"http://sports.core.api.espn.com/v2/sports/basketball/leagues/nba/events/401584793/competitions/401584793/competitors/8/roster/3907822/statistics/0?lang=en&region=us"},"order":1,"type":"rebounder"}],"probability":{"$ref":"http://sports.core.api.espn.com/v2/sports/basketball/leagues/nba/events/401584793/competitions/401584793/probabilities/4015847939?lang=en&region=us"},"wallclock":"2023-11-09T01:11:06Z","shootingPlay":false,"coordinate":{"x":29,"y":6}},{"$ref":"http://sports.core.api.espn.com/v2/sports/basketball/leagues/nba/events/401584793/competitions/401584793/plays/40158479310?lang=en&region=us","id":"40158479310","sequenceNumber":"10","type":{"id":"129","text":"Running Finger Roll Layup"},"text":"Malik Beasley makes two point shot","shortText":"M. Beasley makes two point shot","alternativeText":"Malik Beasley makes two point shot","shortAlternativeText":"M. Beasley makes two point shot","awayScore":0,"homeScore":2,"period":{"number":1,"displayValue":"1st Quarter"},"clock":{"value":692.0,"displayValue":"11:32"},"valid":true,"scoringPlay":true,"priority":false,"scoreValue":2,"modified":"2023-11-09T01:11Z","team":{"$ref":"http://sports.core.api.espn.com/v2/sports/basketball/leagues/nba/seasons/2024/teams/15?lang=en&region=us"},"participants":[{"athlete":{"$ref":"http://sports.core.api.espn.com/v2/sports/basketball/leagues/nba/seasons/2024/athletes/3907822?lang=en&region=us"},"position":{"$ref":"http://sports.core.api.espn.com/v2/sports/basketball/leagues/nba/positions/2?lang=en&region=us"},"statistics":{"$ref":"http://sports.core.api.espn.com/v2/sports/basketball/leagues/nba/events/401584793/competitions/401584793/competitors/8/roster/3907822/statistics/0?lang=en&region=us"},"order":1,"type":"shooter"}],"probability":{"$ref":"http://sports.core.api.espn.com/v2/sports/basketball/leagues/nba/events/401584793/competitions/401584793/probabilities/40158479310?lang=en&region=us"},"wallclock":"2023-11-09T01:11:08Z","shootingPlay":true,"coordinate":{"x":27,"y":5}},{"$ref":"http://sports.core.api.espn.com/v2/sports/basketball/leagues/nba/events/401584793/competitions/401584793/plays/40158479312?lang=en&region=us","id":"40158479312","sequenceNumber":"12","type":{"id":"131","text":"Pullup Jump Shot"},"text":"Killian Hayes misses 14-foot pullup jump shot","shortText":"K. Hayes misses 14-foot pullup jump shot","alternativeText":"Killian Hayes misses 14-foot pullup jump shot","shortAlternativeText":"K. Hayes misses 14-foot pullup jump shot","awayScore":0,"homeScore":2,"period":{"number":1,"displayValue":"1st Quarter"},"clock":{"value":682.0,"displayValue":"11:22"},"valid":true,"scoringPlay":false,"priority":false,"scoreValue":0,"modified":"2023-11-09T01:11Z","team":{"$ref":"http://sports.core.api.espn.com/v2/sports/basketball/leagues/nba/seasons/2024/teams/8?lang=en&region=us"},"participants":[{"athlete":{"$ref":"http://sports.core.api.espn.com/v2/sports/basketball/leagues/nba/seasons/2024/athletes/4683024?lang=en&region=us"},"position":{"$ref":"http://sports.core.api.espn.com/v2/sports/basketball/leagues/nba/positions/3?lang=en&region=us"},"statistics":{"$ref":"http://sports.core.api.espn.com/v2/sports/basketball/leagues/nba/events/401584793/competitions/401584793/competitors/17/roster/4683024/statistics/0?lang=en&region=us"},"order":1,"type":"shooter"}],"probability":{"$ref":"http://sports.core.api.espn.com/v2/sports/basketball/leagues/nba/events/401584793/competitions/401584793/probabilities/40158479312?lang=en&region=us"},"wallclock":"2023-11-09T01:11:24Z","shootingPlay":true,"coordinate":{"x":23,"y":15}}]}