{"count":70,"pageIndex":1,"pageSize":25,"pageCount":3,"items":[{"$ref":"http://sports.core.api.espn.com/v2/sports/football/leagues/nfl/seasons/2025/athletes/4426502/injuries/598153?lang=en&region=us"},{"$ref":"http://sports.core.api.espn.com/v2/sports/football/leagues/nfl/seasons/2025/athletes/4572380/injuries/598050?lang=en&region=us"},{"$ref":"http://sports.core.api.espn.com/v2/sports/football/leagues/nfl/seasons/2025/athletes/4430482/injuries/598049?lang=en&region=us"},{"$ref":"http://sports.core.api.espn.com/v2/sports/football/leagues/nfl/seasons/2025/athletes/4693369/injuries/597917?lang=en&region=us"},{"$ref":"http://sports.core.api.espn.com/v2/sports/football/leagues/nfl/seasons/2025/athletes/4431194/injuries/597815?lang=en&region=us"},{"$ref":"http://sports.core.api.espn.com/v2/sports/football/leagues/nfl/seasons/2025/athletes/4431005/injuries/597791?lang=en&region=us"},{"$ref":"http://sports.core.api.espn.com/v2/sports/football/leagues/nfl/seasons/2025/athletes/5081394/injuries/597715?lang=en&region=us"},{"$ref":"http://sports.core.api.espn.com/v2/sports/football/leagues/nfl/seasons/2025/athletes/4685597/injuries/597704?lang=en&region=us"},{"$ref":"http://sports.core.api.espn.com/v2/sports/football/leagues/nfl/seasons/2025/athletes/14880/injuries/597667?lang=en&region=us"},{"$ref":"http://sports.core.api.espn.com/v2/sports/football/leagues/nfl/seasons/2025/athletes/3120590/injuries/597657?lang=en&region=us"},{"$ref":"http://sports.core.api.espn.com/v2/sports/football/leagues/nfl/seasons/2025/athletes/4567111/injuries/597626?lang=en&region=us"},{"$ref":"http://sports.core.api.espn.com/v2/sports/football/leagues/nfl/seasons/2025/athletes/3052170/injuries/597612?lang=en&region=us"},{"$ref":"http://sports.core.api.espn.com/v2/sports/football/leagues/nfl/seasons/2025/athletes/4374045/injuries/597520?lang=en&region=us"},{"$ref":"http://sports.core.api.espn.com/v2/sports/football/leagues/nfl/seasons/2025/athletes/4034948/injuries/597460?lang=en&region=us"},{"$ref":"http://sports.core.api.espn.com/v2/sports/football/leagues/nfl/seasons/2025/athletes/3061612/injuries/597458?lang=en&region=us"},{"$ref":"http://sports.core.api.espn.com/v2/sports/football/leagues/nfl/seasons/2025/athletes/4040613/injuries/597438?lang=en&region=us"},{"$ref":"http://sports.core.api.espn.com/v2/sports/football/leagues/nfl/seasons/2025/athletes/3116726/injuries/597407?lang=en&region=us"},{"$ref":"http://sports.core.api.espn.com/v2/sports/football/leagues/nfl/seasons/2025/athletes/4262197/injuries/597406?lang=en&region=us"},{"$ref":"http://sports.core.api.espn.com/v2/sports/football/leagues/nfl/seasons/2025/athletes/3059620/injuries/597369?lang=en&region=us"},{"$ref":"http://sports.core.api.espn.com/v2/sports/football/leagues/nfl/seasons/2025/athletes/3059839/injuries/597308?lang=en&region=us"},{"$ref":"http://sports.core.api.espn.com/v2/sports/football/leagues/nfl/seasons/2025/athletes/3047876/injuries/597226?lang=en&region=us"},{"$ref":"http://sports.core.api.espn.com/v2/sports/football/leagues/nfl/seasons/2025/athletes/3050916/injuries/597209?lang=en&region=us"},{"$ref":"http://sports.core.api.espn.com/v2/sports/football/leagues/nfl/seasons/2025/athletes/3895841/injuries/597168?lang=en&region=us"},{"$ref":"http://sports.core.api.espn.com/v2/sports/football/leagues/nfl/seasons/2025/athletes/4037626/injuries/597135?lang=en&region=us"},{"$ref":"http://sports.core.api.espn.com/v2/sports/football/leagues/nfl/seasons/2025/athletes/16713/injuries/597012?lang=en&region=us"}]}