{
  "count": 32,
  "pageIndex": 1,
  "pageSize": 25,
  "pageCount": 2,
  "firstItem": {
    "athlete": [
      "$ref"
    ],
    "event": [
      "$ref"
    ],
    "season": [
      "$ref"
    ],
    "splits": [
      "abbreviation",
      "categories",
      "id",
      "name"
    ],
    "team": [
      "$ref"
    ]
  }
}
