{"$ref":"http://sports.core.api.espn.com/v2/sports/hockey/leagues/nhl/events/401559593/competitions/401559593/plays?lang=en&region=us","count":314,"pageIndex":1,"pageSize":5,"pageCount":63,"items":[{"$ref":"http://sports.core.api.espn.com/v2/sports/hockey/leagues/nhl/events/401559593/competitions/401559593/plays/401559593000000090?lang=en&region=us","id":"401559593000000090","sequenceNumber":"2","type":{"id":"518","text":"Period Start","abbreviation":"period-start"},"text":"Start of 1st Period","shortText":"Start of 1st Period","alternativeText":"Start of 1st Period","shortAlternativeText":"Start of 1st Period","awayScore":0,"homeScore":0,"period":{"number":1,"displayValue":"1st"},"clock":{"value":0.0,"displayValue":"0:00"},"scoringPlay":false,"priority":false,"scoreValue":0,"modified":"2024-02-08T17:57Z","wallclock":"2023-12-03T00:08:43Z","shootingPlay":true,"isPenalty":false},{"$ref":"http://sports.core.api.espn.com/v2/sports/hockey/leagues/nhl/events/401559593/competitions/401559593/plays/401559593000000080?lang=en&region=us","id":"401559593000000080","sequenceNumber":"3","type":{"id":"502","text":"Face Off","abbreviation":"faceoff"},"text":"Jordan Staal faceoff won against Casey Mittelstadt","shortText":"Jordan Staal faceoff won against Casey Mittelstadt","alternativeText":"Jordan Staal faceoff won against Casey Mittelstadt","shortAlternativeText":"Jordan Staal faceoff won against Casey Mittelstadt","awayScore":0,"homeScore":0,"period":{"number":1,"displayValue":"1st"},"clock":{"value":0.0,"displayValue":"0:00"},"scoringPlay":false,"priority":false,"scoreValue":0,"modified":"2024-02-08T17:57Z","team":{"$ref":"http://sports.core.api.espn.com/v2/sports/hockey/leagues/nhl/seasons/2024/teams/7?lang=en&region=us"},"participants":[{"playerId":3541,"athlete":{"$ref":"http://sports.core.api.espn.com/v2/sports/hockey/leagues/nhl/seasons/2024/athletes/3541?lang=en&region=us"},"position":{"$ref":"http://sports.core.api.espn.com/v2/sports/hockey/leagues/nhl/positions/1?lang=en&region=us"},"statistics":{"$ref":"http://sports.core.api.espn.com/v2/sports/hockey/leagues/nhl/events/401559593/competitions/401559593/competitors/7/roster/3541/statistics/0?lang=en&region=us"},"order":1,"type":"face-off-winner","ytdGoals":2},{"playerId":4233575,"athlete":{"$ref":"http://sports.core.api.espn.com/v2/sports/hockey/leagues/nhl/seasons/2024/athletes/4233575?lang=en&region=us"},"position":{"$ref":"http://sports.core.api.espn.com/v2/sports/hockey/leagues/nhl/positions/1?lang=en&region=us"},"statistics":{"$ref":"http://sports.core.api.espn.com/v2/sports/hockey/leagues/nhl/events/401559593/competitions/401559593/competitors/2/roster/4233575/statistics/0?lang=en&region=us"},"order":2,"ytdAssists":16}],"wallclock":"2023-12-03T00:08:43Z","shootingPlay":true,"personnel":{"$ref":"http://sports.core.api.espn.com/v2/sports/hockey/leagues/nhl/events/401559593/competitions/401559593/plays/401559593000000080/personnel?lang=en&region=us"},"strength":{"id":"701","text":"Even Strength","abbreviation":"even-strength"},"isPenalty":false},{"$ref":"http://sports.core.api.espn.com/v2/sports/hockey/leagues/nhl/events/401559593/competitions/401559593/plays/401559593000000100?lang=en&region=us","id":"401559593000000100","sequenceNumber":"4","type":{"id":"506","text":"Shot","abbreviation":"shot-on-goal"},"text":"Jesper Fast Wrist Shot saved by Eric Comrie","shortText":"Jesper Fast Wrist Shot saved by Eric Comrie","alternativeText":"Jesper Fast Wrist Shot saved by Eric Comrie","shortAlternativeText":"Jesper Fast Wrist Shot saved by Eric Comrie","awayScore":0,"homeScore":0,"period":{"number":1,"displayValue":"1st"},"clock":{"value":11.0,"displayValue":"0:11"},"scoringPlay":false,"priority":false,"scoreValue":0,"modified":"2024-02-08T17:57Z","team":{"$ref":"http://sports.core.api.espn.com/v2/sports/hockey/leagues/nhl/seasons/2024/teams/7?lang=en&region=us"},"participants":[{"playerId":2590847,"athlete":{"$ref":"http://sports.core.api.espn.com/v2/sports/hockey/leagues/nhl/seasons/2024/athletes/2590847?lang=en&region=us"},"position":{"$ref":"http://sports.core.api.espn.com/v2/sports/hockey/leagues/nhl/positions/3?lang=en&region=us"},"statistics":{"$ref":"http://sports.core.api.espn.com/v2/sports/hockey/leagues/nhl/events/401559593/competitions/401559593/competitors/7/roster/2590847/statistics/0?lang=en&region=us"},"order":1,"type":"shooter","ytdGoals":2},{"playerId":3042057,"athlete":{"$ref":"http://sports.core.api.espn.com/v2/sports/hockey/leagues/nhl/seasons/2024/athletes/3042057?lang=en&region=us"},"position":{"$ref":"http://sports.core.api.espn.com/v2/sports/hockey/leagues/nhl/positions/5?lang=en&region=us"},"statistics":{"$ref":"http://sports.core.api.espn.com/v2/sports/hockey/leagues/nhl/events/401559593/competitions/401559593/competitors/2/roster/3042057/statistics/0?lang=en&region=us"},"order":2,"type":"saver","ytdAssists":0}],"wallclock":"2023-12-03T00:08:54Z","shootingPlay":true,"personnel":{"$ref":"http://sports.core.api.espn.com/v2/sports/hockey/leagues/nhl/events/401559593/competitions/401559593/plays/401559593000000100/personnel?lang=en&region=us"},"coordinate":{"x":-87,"y":5},"strength":{"id":"701","text":"Even Strength","abbreviation":"even-strength"},"isPenalty":false},{"$ref":"http://sports.core.api.espn.com/v2/sports/hockey/leagues/nhl/events/401559593/competitions/401559593/plays/401559593000002510?lang=en&region=us","id":"401559593000002510","sequenceNumber":"5","type":{"id":"506","text":"Shot","abbreviation":"shot-on-goal"},"text":"Jesper Fast Backhand saved by Eric Comrie","shortText":"Jesper Fast Backhand saved by Eric Comrie","alternativeText":"Jesper Fast Backhand saved by Eric Comrie","shortAlternativeText":"Jesper Fast Backhand saved by Eric Comrie","awayScore":0,"homeScore":0,"period":{"number":1,"displayValue":"1st"},"clock":{"value":12.0,"displayValue":"0:12"},"scoringPlay":false,"priority":false,"scoreValue":0,"modified":"2024-02-08T17:57Z","team":{"$ref":"http://sports.core.api.espn.com/v2/sports/hockey/leagues/nhl/seasons/2024/teams/7?lang=en&region=us"},"participants":[{"playerId":2590847,"athlete":{"$ref":"http://sports.core.api.espn.com/v2/sports/hockey/leagues/nhl/seasons/2024/athletes/2590847?lang=en&region=us"},"position":{"$ref":"http://sports.core.api.espn.com/v2/sports/hockey/leagues/nhl/positions/3?lang=en&region=us"},"statistics":{"$ref":"http://sports.core.api.espn.com/v2/sports/hockey/leagues/nhl/events/401559593/competitions/401559593/competitors/7/roster/2590847/statistics/0?lang=en&region=us"},"order":1,"type":"shooter","ytdGoals":2},{"playerId":3042057,"athlete":{"$ref":"http://sports.core.api.espn.com/v2/sports/hockey/leagues/nhl/seasons/2024/athletes/3042057?lang=en&region=us"},"position":{"$ref":"http://sports.core.api.espn.com/v2/sports/hockey/leagues/nhl/positions/5?lang=en&region=us"},"statistics":{"$ref":"http://sports.core.api.espn.com/v2/sports/hockey/leagues/nhl/events/401559593/competitions/401559593/competitors/2/roster/3042057/statistics/0?lang=en&region=us"},"order":2,"type":"saver","ytdAssists":0}],"wallclock":"2023-12-03T00:08:55Z","shootingPlay":true,"personnel":{"$ref":"http://sports.core.api.espn.com/v2/sports/hockey/leagues/nhl/events/401559593/competitions/401559593/plays/401559593000002510/personnel?lang=en&region=us"},"coordinate":{"x":-86,"y":4},"strength":{"id":"701","text":"Even Strength","abbreviation":"even-strength"},"isPenalty":false},{"$ref":"http://sports.core.api.espn.com/v2/sports/hockey/leagues/nhl/events/401559593/competitions/401559593/plays/401559593000001010?lang=en&region=us","id":"401559593000001010","sequenceNumber":"6","type":{"id":"516","text":"Stoppage","abbreviation":"stoppage"},"text":"Puck Frozen - Goalie","shortText":"Puck Frozen - Goalie","alternativeText":"Puck Frozen - Goalie","shortAlternativeText":"Puck Frozen - Goalie","awayScore":0,"homeScore":0,"period":{"number":1,"displayValue":"1st"},"clock":{"value":14.0,"displayValue":"0:14"},"scoringPlay":false,"priority":false,"scoreValue":0,"modified":"2024-02-08T17:57Z","wallclock":"2023-12-03T00:08:56Z","shootingPlay":true,"personnel":{"$ref":"http://sports.core.api.espn.com/v2/sports/hockey/leagues/nhl/events/401559593/competitions/401559593/plays/401559593000001010/personnel?lang=en&region=us"},"coordinate":{"x":-87,"y":4},"isPenalty":false}]}