{
  "athletes": [
    {
      "id": "2966",
      "displayName": "Luis Ortiz",
      "firstName": "Luis",
      "lastName": "Ortiz",
      "weight": 230.0,
      "height": 75.0,
      "age": 29,
      "team": {
        "id": "22",
        "displayName": "Philadelphia Phillies",
        "abbreviation": "PHI"
      },
      "jersey": "56",
      "position": {
        "abbreviation": "RP"
      },
      "draft": {
        "round": 1,
        "year": 2014,
        "selection": 30
      },
      "status": {
        "type": "injured60"
      },
      "alternateIds": {
        "mlbam": "656814",
        "sdr": "3111874"
      },
      "injuries": [
        {
          "id": "-143087",
          "status": "Day-To-Day",
          "date": "2025-03-27T20:20:00+00:00",
          "type": {
            "id": "6",
            "description": "day-to-day"
          },
          "details": {
            "type": "Elbow",
            "returnDate": "2025-09-01"
          }
        }
      ]
    },
    {
      "id": "4781",
      "displayName": "Dom Chiti",
      "firstName": "Dom",
      "lastName": "Chiti",
      "position": {
        "abbreviation": "UN"
      },
      "status": {
        "type": "active"
      },
      "alternateIds": {
        "sdr": "4781"
      },
      "injuries": []
    },
    {
      "id": "4826",
      "displayName": "Randy Knorr",
      "firstName": "Randy",
      "lastName": "Knorr",
      "position": {
        "abbreviation": "UN"
      },
      "status": {
        "type": "active"
      },
      "alternateIds": {
        "sdr": "4826"
      },
      "injuries": []
    },
    {
      "id": "4867",
      "displayName": "Brian Snitker",
      "firstName": "Brian",
      "lastName": "Snitker",
      "age": 69,
      "position": {
        "abbreviation": "UN"
      },
      "status": {
        "type": "active"
      },
      "alternateIds": {
        "sdr": "4867"
      },
      "injuries": []
    },
    {
      "id": "4953",
      "displayName": "Ed Sedar",
      "firstName": "Ed",
      "lastName": "Sedar",
      "position": {
        "abbreviation": "UN"
      },
      "status": {
        "type": "active"
      },
      "alternateIds": {
        "sdr": "4953"
      },
      "injuries": []
    },
    {
      "id": "5192",
      "displayName": "Oliver Perez",
      "firstName": "Oliver",
      "lastName": "Perez",
      "weight": 225.0,
      "height": 75.0,
      "age": 43,
      "team": {
        "id": "29",
        "displayName": "Arizona Diamondbacks",
        "abbreviation": "ARI"
      },
      "jersey": "59",
      "position": {
        "abbreviation": "RP"
      },
      "status": {
        "type": "free-agent"
      },
      "alternateIds": {
        "mlbam": "424144",
        "sdr": "12306"
      },
      "injuries": []
    },
    {
      "id": "5403",
      "displayName": "Adam Wainwright",
      "firstName": "Adam",
      "lastName": "Wainwright",
      "weight": 230.0,
      "height": 79.0,
      "age": 43,
      "team": {
        "id": "24",
        "displayName": "St. Louis Cardinals",
        "abbreviation": "STL"
      },
      "jersey": "50",
      "position": {
        "abbreviation": "SP"
      },
      "draft": {
        "round": 1,
        "year": 2000,
        "selection": 29
      },
      "status": {
        "type": "free-agent"
      },
      "alternateIds": {
        "mlbam": "425794",
        "sdr": "2084867"
      },
      "injuries": []
    },
    {
      "id": "5544",
      "displayName": "Miguel Cabrera",
      "firstName": "Miguel",
      "lastName": "Cabrera",
      "weight": 267.0,
      "height": 76.0,
      "age": 42,
      "team": {
        "id": "6",
        "displayName": "Detroit Tigers",
        "abbreviation": "DET"
      },
      "jersey": "24",
      "position": {
        "abbreviation": "DH"
      },
      "status": {
        "type": "free-agent"
      },
      "alternateIds": {
        "mlbam": "408234",
        "sdr": "2073162"
      },
      "injuries": []
    },
    {
      "id": "5883",
      "displayName": "Zack Greinke",
      "firstName": "Zack",
      "lastName": "Greinke",
      "weight": 200.0,
      "height": 74.0,
      "age": 41,
      "team": {
        "id": "7",
        "displayName": "Kansas City Royals",
        "abbreviation": "KC"
      },
      "jersey": "23",
      "position": {
        "abbreviation": "SP"
      },
      "draft": {
        "round": 1,
        "year": 2002,
        "selection": 6
      },
      "status": {
        "type": "free-agent"
      },
      "alternateIds": {
        "mlbam": "425844",
        "sdr": "2122687"
      },
      "injuries": []
    },
    {
      "id": "5917",
      "displayName": "Scott Kazmir",
      "firstName": "Scott",
      "lastName": "Kazmir",
      "weight": 195.0,
      "height": 72.0,
      "age": 41,
      "team": {
        "id": "26",
        "displayName": "San Francisco Giants",
        "abbreviation": "SF"
      },
      "jersey": "16",
      "position": {
        "abbreviation": "SP"
      },
      "draft": {
        "round": 1,
        "year": 2002,
        "selection": 15
      },
      "status": {
        "type": "free-agent"
      },
      "alternateIds": {
        "mlbam": "431148",
        "sdr": "2150705"
      },
      "injuries": []
    },
    {
      "id": "6021",
      "displayName": "Jose Castro",
      "firstName": "Jose",
      "lastName": "Castro",
      "position": {
        "abbreviation": "UN"
      },
      "status": {
        "type": "active"
      },
      "alternateIds": {
        "sdr": "6021"
      },
      "injuries": []
    },
    {
      "id": "6204",
      "displayName": "Robinson Cano",
      "firstName": "Robinson",
      "lastName": "Cano",
      "weight": 210.0,
      "height": 72.0,
      "age": 42,
      "team": {
        "id": "15",
        "displayName": "Atlanta Braves",
        "abbreviation": "ATL"
      },
      "jersey": "22",
      "position": {
        "abbreviation": "2B"
      },
      "status": {
        "type": "free-agent"
      },
      "alternateIds": {
        "mlbam": "429664",
        "sdr": "2084670"
      },
      "injuries": []
    },
    {
      "id": "6280",
      "displayName": "Ervin Santana",
      "firstName": "Ervin",
      "lastName": "Santana",
      "weight": 175.0,
      "height": 74.0,
      "age": 42,
      "team": {
        "id": "7",
        "displayName": "Kansas City Royals",
        "abbreviation": "KC"
      },
      "jersey": "54",
      "position": {
        "abbreviation": "SP"
      },
      "status": {
        "type": "free-agent"
      },
      "alternateIds": {
        "mlbam": "429722",
        "sdr": "2130430"
      },
      "injuries": []
    },
    {
      "id": "6321",
      "displayName": "Rich Hill",
      "firstName": "Rich",
      "lastName": "Hill",
      "weight": 220.0,
      "height": 77.0,
      "age": 45,
      "team": {
        "id": "2",
        "displayName": "Boston Red Sox",
        "abbreviation": "BOS"
      },
      "jersey": "44",
      "position": {
        "abbreviation": "RP"
      },
      "draft": {
        "round": 4,
        "year": 2002,
        "selection": 112
      },
      "status": {
        "type": "free-agent"
      },
      "alternateIds": {
        "mlbam": "448179",
        "sdr": "2178457"
      },
      "injuries": []
    },
    {
      "id": "6389",
      "displayName": "Ryan Zimmerman",
      "firstName": "Ryan",
      "lastName": "Zimmerman",
      "weight": 215.0,
      "height": 75.0,
      "age": 40,
      "team": {
        "id": "20",
        "displayName": "Washington Nationals",
        "abbreviation": "WSH"
      },
      "jersey": "11",
      "position": {
        "abbreviation": "1B"
      },
      "draft": {
        "round": 1,
        "year": 2005,
        "selection": 4
      },
      "status": {
        "type": "free-agent"
      },
      "alternateIds": {
        "mlbam": "475582",
        "sdr": "2152806"
      },
      "injuries": []
    },
    {
      "id": "6455",
      "displayName": "Cameron Maybin",
      "firstName": "Cameron",
      "lastName": "Maybin",
      "weight": 215.0,
      "height": 75.0,
      "age": 38,
      "team": {
        "id": "21",
        "displayName": "New York Mets",
        "abbreviation": "NYM"
      },
      "jersey": "15",
      "position": {
        "abbreviation": "LF"
      },
      "draft": {
        "round": 1,
        "year": 2005,
        "selection": 10
      },
      "status": {
        "type": "free-agent"
      },
      "alternateIds": {
        "mlbam": "457727",
        "sdr": "2249263"
      },
      "injuries": []
    },
    {
      "id": "6470",
      "displayName": "Yusmeiro Petit",
      "firstName": "Yusmeiro",
      "lastName": "Petit",
      "weight": 252.0,
      "height": 73.0,
      "age": 40,
      "team": {
        "id": "25",
        "displayName": "San Diego Padres",
        "abbreviation": "SD"
      },
      "jersey": "36",
      "position": {
        "abbreviation": "P"
      },
      "status": {
        "type": "free-agent"
      },
      "alternateIds": {
        "mlbam": "433589",
        "sdr": "2154700"
      },
      "injuries": []
    },
    {
      "id": "6472",
      "displayName": "Anibal Sanchez",
      "firstName": "Anibal",
      "lastName": "Sanchez",
      "weight": 207.0,
      "height": 72.0,
      "age": 41,
      "team": {
        "id": "20",
        "displayName": "Washington Nationals",
        "abbreviation": "WSH"
      },
      "jersey": "19",
      "position": {
        "abbreviation": "SP"
      },
      "status": {
        "type": "free-agent"
      },
      "alternateIds": {
        "mlbam": "434671",
        "sdr": "2171496"
      },
      "injuries": []
    },
    {
      "id": "10276",
      "displayName": "Toby Rumfield",
      "firstName": "Toby",
      "lastName": "Rumfield",
      "weight": 190.0,
      "height": 75.0,
      "age": 52,
      "position": {
        "abbreviation": "UN"
      },
      "status": {
        "type": "active"
      },
      "alternateIds": {
        "mlbam": "437280",
        "sdr": "10276"
      },
      "injuries": []
    },
    {
      "id": "10566",
      "displayName": "Juan Tolentino",
      "firstName": "Juan",
      "lastName": "Tolentino",
      "weight": 175.0,
      "height": 72.0,
      "age": 49,
      "position": {
        "abbreviation": "UN"
      },
      "status": {
        "type": "active"
      },
      "alternateIds": {
        "mlbam": "463976",
        "sdr": "10566"
      },
      "injuries": []
    },
    {
      "id": "10630",
      "displayName": "Jose Garcia",
      "firstName": "Jose",
      "lastName": "Garcia",
      "weight": 195.0,
      "height": 75.0,
      "age": 47,
      "position": {
        "abbreviation": "UN"
      },
      "status": {
        "type": "active"
      },
      "alternateIds": {
        "mlbam": "440058",
        "sdr": "10630"
      },
      "injuries": []
    },
    {
      "id": "12193",
      "displayName": "Steve Woodward",
      "firstName": "Steve",
      "lastName": "Woodward",
      "weight": 200.0,
      "height": 71.0,
      "position": {
        "abbreviation": "UN"
      },
      "status": {
        "type": "active"
      },
      "alternateIds": {
        "mlbam": "459694",
        "sdr": "12193"
      },
      "injuries": []
    },
    {
      "id": "12563",
      "displayName": "Tony Shelby",
      "firstName": "Tony",
      "lastName": "Shelby",
      "weight": 230.0,
      "height": 75.0,
      "position": {
        "abbreviation": "UN"
      },
      "status": {
        "type": "active"
      },
      "alternateIds": {
        "mlbam": "438613",
        "sdr": "12563"
      },
      "injuries": []
    },
    {
      "id": "28487",
      "displayName": "Jon Lester",
      "firstName": "Jon",
      "lastName": "Lester",
      "weight": 249.0,
      "height": 76.0,
      "age": 41,
      "team": {
        "id": "24",
        "displayName": "St. Louis Cardinals",
        "abbreviation": "STL"
      },
      "jersey": "31",
      "position": {
        "abbreviation": "SP"
      },
      "draft": {
        "round": 2,
        "year": 2002,
        "selection": 57
      },
      "status": {
        "type": "free-agent"
      },
      "alternateIds": {
        "mlbam": "452657",
        "sdr": "2178408"
      },
      "injuries": []
    },
    {
      "id": "28563",
      "displayName": "Andrew Miller",
      "firstName": "Andrew",
      "lastName": "Miller",
      "weight": 200.0,
      "height": 79.0,
      "age": 40,
      "team": {
        "id": "24",
        "displayName": "St. Louis Cardinals",
        "abbreviation": "STL"
      },
      "jersey": "21",
      "position": {
        "abbreviation": "RP"
      },
      "draft": {
        "round": 1,
        "year": 2006,
        "selection": 6
      },
      "status": {
        "type": "free-agent"
      },
      "alternateIds": {
        "mlbam": "453192",
        "sdr": "2153652"
      },
      "injuries": []
    },
    {
      "id": "28617",
      "displayName": "Drew Anderson",
      "firstName": "Drew",
      "lastName": "Anderson",
      "weight": 195.0,
      "height": 74.0,
      "age": 43,
      "team": {
        "id": "8",
        "displayName": "Milwaukee Brewers",
        "abbreviation": "MIL"
      },
      "jersey": "63",
      "position": {
        "abbreviation": "UN"
      },
      "draft": {
        "round": 21,
        "year": 2012,
        "selection": 668
      },
      "status": {
        "type": "active"
      },
      "alternateIds": {
        "mlbam": "623454",
        "sdr": "2086514"
      },
      "injuries": []
    },
    {
      "id": "28671",
      "displayName": "Asdrubal Cabrera",
      "firstName": "Asdrubal",
      "lastName": "Cabrera",
      "weight": 205.0,
      "height": 72.0,
      "age": 39,
      "team": {
        "id": "17",
        "displayName": "Cincinnati Reds",
        "abbreviation": "CIN"
      },
      "jersey": "3",
      "position": {
        "abbreviation": "3B"
      },
      "status": {
        "type": "free-agent"
      },
      "alternateIds": {
        "mlbam": "452678",
        "sdr": "2200020"
      },
      "injuries": []
    },
    {
      "id": "28688",
      "displayName": "Joakim Soria",
      "firstName": "Joakim",
      "lastName": "Soria",
      "weight": 208.0,
      "height": 75.0,
      "age": 41,
      "team": {
        "id": "14",
        "displayName": "Toronto Blue Jays",
        "abbreviation": "TOR"
      },
      "jersey": "28",
      "position": {
        "abbreviation": "RP"
      },
      "status": {
        "type": "free-agent"
      },
      "alternateIds": {
        "mlbam": "465657",
        "sdr": "2245279"
      },
      "injuries": []
    },
    {
      "id": "28694",
      "displayName": "Tyler Clippard",
      "firstName": "Tyler",
      "lastName": "Clippard",
      "weight": 200.0,
      "height": 75.0,
      "age": 40,
      "team": {
        "id": "20",
        "displayName": "Washington Nationals",
        "abbreviation": "WSH"
      },
      "jersey": "39",
      "position": {
        "abbreviation": "RP"
      },
      "draft": {
        "round": 9,
        "year": 2003,
        "selection": 274
      },
      "status": {
        "type": "free-agent"
      },
      "alternateIds": {
        "mlbam": "461325",
        "sdr": "2264283"
      },
      "injuries": []
    },
    {
      "id": "28701",
      "displayName": "Andrew McCutchen",
      "firstName": "Andrew",
      "lastName": "McCutchen",
      "weight": 190.0,
      "height": 70.0,
      "age": 38,
      "team": {
        "id": "23",
        "displayName": "Pittsburgh Pirates",
        "abbreviation": "PIT"
      },
      "jersey": "22",
      "position": {
        "abbreviation": "RF"
      },
      "draft": {
        "round": 1,
        "year": 2005,
        "selection": 11
      },
      "status": {
        "type": "active"
      },
      "alternateIds": {
        "mlbam": "457705",
        "sdr": "2208546"
      },
      "injuries": []
    },
    {
      "id": "28729",
      "displayName": "Joe Smith",
      "firstName": "Joe",
      "lastName": "Smith",
      "weight": 211.0,
      "height": 74.0,
      "age": 41,
      "team": {
        "id": "9",
        "displayName": "Minnesota Twins",
        "abbreviation": "MIN"
      },
      "jersey": "38",
      "position": {
        "abbreviation": "RP"
      },
      "draft": {
        "round": 3,
        "year": 2006,
        "selection": 94
      },
      "status": {
        "type": "free-agent"
      },
      "alternateIds": {
        "mlbam": "501925",
        "sdr": "2225107"
      },
      "injuries": []
    },
    {
      "id": "28817",
      "displayName": "J.A. Happ",
      "firstName": "J.A.",
      "lastName": "Happ",
      "weight": 205.0,
      "height": 77.0,
      "age": 42,
      "team": {
        "id": "24",
        "displayName": "St. Louis Cardinals",
        "abbreviation": "STL"
      },
      "jersey": "34",
      "position": {
        "abbreviation": "SP"
      },
      "draft": {
        "round": 3,
        "year": 2004,
        "selection": 92
      },
      "status": {
        "type": "free-agent"
      },
      "alternateIds": {
        "mlbam": "457918",
        "sdr": "2179450"
      },
      "injuries": []
    },
    {
      "id": "28864",
      "displayName": "Ian Kennedy",
      "firstName": "Ian",
      "lastName": "Kennedy",
      "weight": 210.0,
      "height": 72.0,
      "age": 40,
      "team": {
        "id": "13",
        "displayName": "Texas Rangers",
        "abbreviation": "TEX"
      },
      "jersey": "21",
      "position": {
        "abbreviation": "RP"
      },
      "draft": {
        "round": 1,
        "year": 2006,
        "selection": 21
      },
      "status": {
        "type": "free-agent"
      },
      "alternateIds": {
        "mlbam": "453178",
        "sdr": "2274296"
      },
      "injuries": []
    },
    {
      "id": "28867",
      "displayName": "Wladimir Balentien",
      "firstName": "Wladimir",
      "lastName": "Balentien",
      "weight": 220.0,
      "height": 74.0,
      "age": 40,
      "team": {
        "id": "17",
        "displayName": "Cincinnati Reds",
        "abbreviation": "CIN"
      },
      "jersey": "25",
      "position": {
        "abbreviation": "OF"
      },
      "status": {
        "type": "free-agent"
      },
      "alternateIds": {
        "mlbam": "434605",
        "sdr": "2159658"
      },
      "injuries": []
    },
    {
      "id": "28957",
      "displayName": "Wade Davis",
      "firstName": "Wade",
      "lastName": "Davis",
      "weight": 227.0,
      "height": 77.0,
      "age": 39,
      "team": {
        "id": "7",
        "displayName": "Kansas City Royals",
        "abbreviation": "KC"
      },
      "jersey": "71",
      "position": {
        "abbreviation": "RP"
      },
      "draft": {
        "round": 3,
        "year": 2004,
        "selection": 75
      },
      "status": {
        "type": "free-agent"
      },
      "alternateIds": {
        "mlbam": "451584",
        "sdr": "2299476"
      },
      "injuries": []
    },
    {
      "id": "28958",
      "displayName": "David Price",
      "firstName": "David",
      "lastName": "Price",
      "weight": 215.0,
      "height": 77.0,
      "age": 39,
      "team": {
        "id": "19",
        "displayName": "Los Angeles Dodgers",
        "abbreviation": "LAD"
      },
      "jersey": "33",
      "position": {
        "abbreviation": "RP"
      },
      "draft": {
        "round": 1,
        "year": 2007,
        "selection": 1
      },
      "status": {
        "type": "free-agent"
      },
      "alternateIds": {
        "mlbam": "456034",
        "sdr": "2275635"
      },
      "injuries": []
    },
    {
      "id": "28959",
      "displayName": "Jake McGee",
      "firstName": "Jake",
      "lastName": "McGee",
      "weight": 229.0,
      "height": 76.0,
      "age": 38,
      "team": {
        "id": "20",
        "displayName": "Washington Nationals",
        "abbreviation": "WSH"
      },
      "jersey": "47",
      "position": {
        "abbreviation": "RP"
      },
      "draft": {
        "round": 5,
        "year": 2004,
        "selection": 135
      },
      "status": {
        "type": "free-agent"
      },
      "alternateIds": {
        "mlbam": "459429",
        "sdr": "2299480"
      },
      "injuries": []
    },
    {
      "id": "28963",
      "displayName": "Clayton Kershaw",
      "firstName": "Clayton",
      "lastName": "Kershaw",
      "weight": 225.0,
      "height": 76.0,
      "age": 37,
      "team": {
        "id": "19",
        "displayName": "Los Angeles Dodgers",
        "abbreviation": "LAD"
      },
      "jersey": "22",
      "position": {
        "abbreviation": "SP"
      },
      "draft": {
        "round": 1,
        "year": 2006,
        "selection": 7
      },
      "status": {
        "type": "active"
      },
      "alternateIds": {
        "mlbam": "477132",
        "sdr": "2300538"
      },
      "injuries": []
    },
    {
      "id": "28968",
      "displayName": "Carlos Carrasco",
      "firstName": "Carlos",
      "lastName": "Carrasco",
      "weight": 224.0,
      "height": 76.0,
      "age": 38,
      "team": {
        "id": "10",
        "displayName": "New York Yankees",
        "abbreviation": "NYY"
      },
      "jersey": "59",
      "position": {
        "abbreviation": "SP"
      },
      "status": {
        "type": "active"
      },
      "alternateIds": {
        "mlbam": "471911",
        "sdr": "2291980"
      },
      "injuries": []
    },
    {
      "id": "28976",
      "displayName": "Max Scherzer",
      "firstName": "Max",
      "lastName": "Scherzer",
      "weight": 208.0,
      "height": 75.0,
      "age": 40,
      "team": {
        "id": "14",
        "displayName": "Toronto Blue Jays",
        "abbreviation": "TOR"
      },
      "jersey": "31",
      "position": {
        "abbreviation": "SP"
      },
      "draft": {
        "round": 1,
        "year": 2006,
        "selection": 11
      },
      "status": {
        "type": "injured60"
      },
      "alternateIds": {
        "mlbam": "453286",
        "sdr": "2304101"
      },
      "injuries": [
        {
          "id": "965692",
          "status": "60-Day-IL",
          "date": "2025-05-30T19:45:00+00:00",
          "type": {
            "id": "11",
            "description": "60-day IL"
          },
          "details": {
            "type": "Thumb",
            "returnDate": "2025-06-17"
          }
        }
      ]
    },
    {
      "id": "29081",
      "displayName": "Darren O'Day",
      "firstName": "Darren",
      "lastName": "O'Day",
      "weight": 220.0,
      "height": 76.0,
      "age": 42,
      "team": {
        "id": "15",
        "displayName": "Atlanta Braves",
        "abbreviation": "ATL"
      },
      "jersey": "56",
      "position": {
        "abbreviation": "RP"
      },
      "status": {
        "type": "free-agent"
      },
      "alternateIds": {
        "mlbam": "503285",
        "sdr": "2263218"
      },
      "injuries": []
    },
    {
      "id": "29155",
      "displayName": "Charlie Morton",
      "firstName": "Charlie",
      "lastName": "Morton",
      "weight": 215.0,
      "height": 77.0,
      "age": 41,
      "team": {
        "id": "1",
        "displayName": "Baltimore Orioles",
        "abbreviation": "BAL"
      },
      "jersey": "50",
      "position": {
        "abbreviation": "SP"
      },
      "draft": {
        "round": 3,
        "year": 2002,
        "selection": 95
      },
      "status": {
        "type": "active"
      },
      "alternateIds": {
        "mlbam": "450203",
        "sdr": "2288108"
      },
      "injuries": []
    },
    {
      "id": "29172",
      "displayName": "David Robertson",
      "firstName": "David",
      "lastName": "Robertson",
      "weight": 195.0,
      "height": 71.0,
      "age": 40,
      "jersey": "37",
      "position": {
        "abbreviation": "RP"
      },
      "draft": {
        "round": 17,
        "year": 2006,
        "selection": 524
      },
      "status": {
        "type": "free-agent"
      },
      "alternateIds": {
        "mlbam": "502085",
        "sdr": "2307857"
      },
      "injuries": []
    },
    {
      "id": "29174",
      "displayName": "Brett Gardner",
      "firstName": "Brett",
      "lastName": "Gardner",
      "weight": 195.0,
      "height": 71.0,
      "age": 41,
      "team": {
        "id": "10",
        "displayName": "New York Yankees",
        "abbreviation": "NYY"
      },
      "jersey": "11",
      "position": {
        "abbreviation": "CF"
      },
      "draft": {
        "round": 3,
        "year": 2005,
        "selection": 109
      },
      "status": {
        "type": "free-agent"
      },
      "alternateIds": {
        "mlbam": "458731",
        "sdr": "2154208"
      },
      "injuries": []
    },
    {
      "id": "29211",
      "displayName": "Sean Kazmar Jr.",
      "firstName": "Sean",
      "lastName": "Kazmar Jr.",
      "weight": 185.0,
      "height": 70.0,
      "age": 40,
      "team": {
        "id": "15",
        "displayName": "Atlanta Braves",
        "abbreviation": "ATL"
      },
      "jersey": "53",
      "position": {
        "abbreviation": "SS"
      },
      "draft": {
        "round": 5,
        "year": 2004,
        "selection": 132
      },
      "status": {
        "type": "free-agent"
      },
      "alternateIds": {
        "mlbam": "453527",
        "sdr": "2310054"
      },
      "injuries": []
    },
    {
      "id": "29238",
      "displayName": "Wade LeBlanc",
      "firstName": "Wade",
      "lastName": "LeBlanc",
      "weight": 205.0,
      "height": 75.0,
      "age": 40,
      "team": {
        "id": "24",
        "displayName": "St. Louis Cardinals",
        "abbreviation": "STL"
      },
      "jersey": "49",
      "position": {
        "abbreviation": "RP"
      },
      "draft": {
        "round": 2,
        "year": 2006,
        "selection": 61
      },
      "status": {
        "type": "free-agent"
      },
      "alternateIds": {
        "mlbam": "453281",
        "sdr": "2300110"
      },
      "injuries": []
    },
    {
      "id": "29252",
      "displayName": "Dexter Fowler",
      "firstName": "Dexter",
      "lastName": "Fowler",
      "weight": 195.0,
      "height": 77.0,
      "age": 39,
      "team": {
        "id": "3",
        "displayName": "Los Angeles Angels",
        "abbreviation": "LAA"
      },
      "jersey": "25",
      "position": {
        "abbreviation": "RF"
      },
      "draft": {
        "round": 14,
        "year": 2004,
        "selection": 410
      },
      "status": {
        "type": "free-agent"
      },
      "alternateIds": {
        "mlbam": "451594",
        "sdr": "2309880"
      },
      "injuries": []
    },
    {
      "id": "29330",
      "displayName": "Andrew Romine",
      "firstName": "Andrew",
      "lastName": "Romine",
      "weight": 190.0,
      "height": 73.0,
      "age": 39,
      "team": {
        "id": "16",
        "displayName": "Chicago Cubs",
        "abbreviation": "CHC"
      },
      "jersey": "24",
      "position": {
        "abbreviation": "SS"
      },
      "draft": {
        "round": 5,
        "year": 2007,
        "selection": 178
      },
      "status": {
        "type": "free-agent"
      },
      "alternateIds": {
        "mlbam": "461865",
        "sdr": "2179404"
      },
      "injuries": []
    },
    {
      "id": "29436",
      "displayName": "Drew Butera",
      "firstName": "Drew",
      "lastName": "Butera",
      "weight": 212.0,
      "height": 73.0,
      "age": 41,
      "team": {
        "id": "3",
        "displayName": "Los Angeles Angels",
        "abbreviation": "LAA"
      },
      "jersey": "16",
      "position": {
        "abbreviation": "C"
      },
      "draft": {
        "round": 5,
        "year": 2005,
        "selection": 149
      },
      "status": {
        "type": "free-agent"
      },
      "alternateIds": {
        "mlbam": "460077",
        "sdr": "2153147"
      },
      "injuries": []
    },
    {
      "id": "29446",
      "displayName": "Mark Melancon",
      "firstName": "Mark",
      "lastName": "Melancon",
      "weight": 215.0,
      "height": 73.0,
      "age": 40,
      "team": {
        "id": "29",
        "displayName": "Arizona Diamondbacks",
        "abbreviation": "ARI"
      },
      "jersey": "34",
      "position": {
        "abbreviation": "RP"
      },
      "draft": {
        "round": 9,
        "year": 2006,
        "selection": 284
      },
      "status": {
        "type": "free-agent"
      },
      "alternateIds": {
        "mlbam": "453343",
        "sdr": "2153228"
      },
      "injuries": []
    }
  ],
  "count": 6630,
  "pageIndex": 1,
  "pageSize": 50,
  "pageCount": 133
}