{"athletes":[{"id":"4432932","firstName":"Max","lastName":"Abmas","displayName":"Max Abmas","weight":175.0,"height":72.0,"age":24,"team":{"id":"26","abbreviation":"UTAH","displayName":"Utah Jazz"},"jersey":"30","position":{"abbreviation":"G"},"status":{"type":"free-agent"},"alternateIds":{"sdr":"4432932"}},{"id":"4431679","firstName":"Precious","lastName":"Achiuwa","displayName":"Precious Achiuwa","weight":243.0,"height":80.0,"age":25,"team":{"id":"18","abbreviation":"NY","displayName":"New York Knicks"},"jersey":"5","position":{"abbreviation":"PF"},"draft":{"round":1,"year":2020,"selection":20},"status":{"type":"active"},"alternateIds":{"sdr":"4431679"}},{"id":"2991235","firstName":"Steven","lastName":"Adams","displayName":"Steven Adams","weight":265.0,"height":83.0,"age":31,"team":{"id":"10","abbreviation":"HOU","displayName":"Houston Rockets"},"jersey":"12","position":{"abbreviation":"C"},"draft":{"round":1,"year":2013,"selection":12},"status":{"type":"active"},"alternateIds":{"sdr":"2991235"}},{"id":"4066261","firstName":"Bam","lastName":"Adebayo","displayName":"Bam Adebayo","weight":255.0,"height":81.0,"age":27,"team":{"id":"14","abbreviation":"MIA","displayName":"Miami Heat"},"jersey":"13","position":{"abbreviation":"C"},"draft":{"round":1,"year":2017,"selection":14},"status":{"type":"active"},"alternateIds":{"sdr":"4066261"}},{"id":"4397018","firstName":"Ochai","lastName":"Agbaji","displayName":"Ochai Agbaji","weight":215.0,"height":77.0,"age":25,"team":{"id":"28","abbreviation":"TOR","displayName":"Toronto Raptors"},"jersey":"30","position":{"abbreviation":"G"},"draft":{"round":1,"year":2022,"selection":14},"status":{"type":"active"},"alternateIds":{"sdr":"4397018"}},{"id":"5211981","firstName":"Melvin","lastName":"Ajinca","displayName":"Melvin Ajinca","weight":218.0,"height":80.0,"age":20,"team":{"id":"6","abbreviation":"DAL","displayName":"Dallas Mavericks"},"position":{"abbreviation":"G"},"draft":{"round":2,"year":2024,"selection":51},"status":{"type":"free-agent"},"alternateIds":{"sdr":"5211981"}},{"id":"4397072","firstName":"James","lastName":"Akinjo","displayName":"James Akinjo","weight":190.0,"height":73.0,"age":24,"team":{"id":"15","abbreviation":"MIL","displayName":"Milwaukee Bucks"},"jersey":"23","position":{"abbreviation":"G"},"status":{"type":"free-agent"},"alternateIds":{"sdr":"4397072"}},{"id":"4593125","firstName":"Santi","lastName":"Aldama","displayName":"Santi Aldama","weight":215.0,"height":84.0,"age":24,"team":{"id":"29","abbreviation":"MEM","displayName":"Memphis Grizzlies"},"jersey":"7","position":{"abbreviation":"PF"},"draft":{"round":1,"year":2021,"selection":30},"status":{"type":"active"},"alternateIds":{"sdr":"4593125"}},{"id":"4433268","firstName":"Trey","lastName":"Alexander","displayName":"Trey Alexander","weight":185.0,"height":76.0,"age":22,"team":{"id":"7","abbreviation":"DEN","displayName":"Denver Nuggets"},"jersey":"23","position":{"abbreviation":"G"},"status":{"type":"active"},"alternateIds":{"sdr":"4433268"}},{"id":"4278039","firstName":"Nickeil","lastName":"Alexander-Walker","displayName":"Nickeil Alexander-Walker","weight":205.0,"height":77.0,"age":26,"team":{"id":"16","abbreviation":"MIN","displayName":"Minnesota Timberwolves"},"jersey":"9","position":{"abbreviation":"SG"},"draft":{"round":1,"year":2019,"selection":17},"status":{"type":"active"},"alternateIds":{"sdr":"4278039"}}],"count":722,"pageIndex":1,"pageSize":10,"pageCount":73}