{
  "events": [
    {
      "id": "401695806",
      "date": "2025-06-03T22:40:00+00:00",
      "name": "Colorado Rockies at Miami Marlins",
      "shortName": "COL @ MIA",
      "competitions": [
        {
          "timeOfDay": "DAY",
          "duration": {
            "displayValue": "2:25"
          },
          "wasSuspended": false,
          "dataFormat": "API",
          "id": "401695806",
          "date": "2025-06-03T22:40:00+00:00",
          "competitors": [
            {
              "id": "28",
              "type": "team",
              "homeAway": "home",
              "team": {
                "id": "28",
                "abbreviation": "MIA",
                "displayName": "Miami Marlins",
                "location": "Miami",
                "name": "Marlins",
                "shortDisplayName": "Marlins",
                "color": "00a3e0",
                "alternateColor": "000000"
              },
              "order": 0,
              "winner": false,
              "score": {
                "hits": 6,
                "errors": 1,
                "displayValue": "2",
                "value": 2.0,
                "winner": false
              },
              "record": {
                "name": "overall",
                "displayName": "Record Year To Date",
                "displayValue": "23-36"
              },
              "displayOrder": 2
            },
            {
              "id": "27",
              "type": "team",
              "homeAway": "away",
              "team": {
                "id": "27",
                "abbreviation": "COL",
                "displayName": "Colorado Rockies",
                "location": "Colorado",
                "name": "Rockies",
                "shortDisplayName": "Rockies",
                "color": "33006f",
                "alternateColor": "000000"
              },
              "order": 1,
              "winner": true,
              "score": {
                "hits": 7,
                "errors": 0,
                "displayValue": "3",
                "value": 3.0,
                "winner": true
              },
              "record": {
                "name": "overall",
                "displayName": "Record Year To Date",
                "displayValue": "11-50"
              },
              "displayOrder": 1
            }
          ],
          "status": {
            "halfInning": 17,
            "type": {
              "id": "3",
              "name": "STATUS_FINAL",
              "state": "post",
              "completed": true,
              "description": "Final",
              "detail": "Final",
              "shortDetail": "Final"
            },
            "clock": 0.0,
            "displayClock": "0:00",
            "period": 9
          },
          "attendance": 7583,
          "neutralSite": false,
          "onWatchESPN": false,
          "wallclockAvailable": true,
          "highlightsAvailable": true,
          "notes": [],
          "format": {
            "regulation": {
              "periods": 9,
              "displayName": "Inning",
              "slug": "inning"
            }
          },
          "time": {
            "value": "2025-06-03T22:40:00+00:00",
            "timeValid": true,
            "displayValue": "6:40 ET"
          }
        }
      ],
      "timeValid": true
    },
    {
      "id": "401695807",
      "date": "2025-06-03T22:40:00+00:00",
      "name": "Houston Astros at Pittsburgh Pirates",
      "shortName": "HOU @ PIT",
      "competitions": [
        {
          "timeOfDay": "DAY",
          "duration": {
            "displayValue": "2:21"
          },
          "wasSuspended": false,
          "dataFormat": "API",
          "id": "401695807",
          "date": "2025-06-03T22:40:00+00:00",
          "competitors": [
            {
              "id": "23",
              "type": "team",
              "homeAway": "home",
              "team": {
                "id": "23",
                "abbreviation": "PIT",
                "displayName": "Pittsburgh Pirates",
                "location": "Pittsburgh",
                "name": "Pirates",
                "shortDisplayName": "Pirates",
                "color": "000000",
                "alternateColor": "fdb827"
              },
              "order": 0,
              "winner": false,
              "score": {
                "hits": 4,
                "errors": 1,
                "displayValue": "0",
                "value": 0.0,
                "winner": false
              },
              "record": {
                "name": "overall",
                "displayName": "Record Year To Date",
                "displayValue": "22-39"
              },
              "displayOrder": 2
            },
            {
              "id": "18",
              "type": "team",
              "homeAway": "away",
              "team": {
                "id": "18",
                "abbreviation": "HOU",
                "displayName": "Houston Astros",
                "location": "Houston",
                "name": "Astros",
                "shortDisplayName": "Astros",
                "color": "002d62",
                "alternateColor": "eb6e1f"
              },
              "order": 1,
              "winner": true,
              "score": {
                "hits": 5,
                "errors": 1,
                "displayValue": "3",
                "value": 3.0,
                "winner": true
              },
              "record": {
                "name": "overall",
                "displayName": "Record Year To Date",
                "displayValue": "33-27"
              },
              "displayOrder": 1
            }
          ],
          "status": {
            "halfInning": 17,
            "type": {
              "id": "3",
              "name": "STATUS_FINAL",
              "state": "post",
              "completed": true,
              "description": "Final",
              "detail": "Final",
              "shortDetail": "Final"
            },
            "clock": 0.0,
            "displayClock": "0:00",
            "period": 9
          },
          "attendance": 15891,
          "neutralSite": false,
          "onWatchESPN": false,
          "wallclockAvailable": true,
          "highlightsAvailable": true,
          "notes": [],
          "format": {
            "regulation": {
              "periods": 9,
              "displayName": "Inning",
              "slug": "inning"
            }
          },
          "time": {
            "value": "2025-06-03T22:40:00+00:00",
            "timeValid": true,
            "displayValue": "6:40 ET"
          }
        }
      ],
      "timeValid": true
    },
    {
      "id": "401695804",
      "date": "2025-06-03T22:45:00+00:00",
      "name": "Chicago Cubs at Washington Nationals",
      "shortName": "CHC @ WSH",
      "competitions": [
        {
          "timeOfDay": "DAY",
          "duration": {
            "displayValue": "2:35"
          },
          "wasSuspended": false,
          "dataFormat": "API",
          "id": "401695804",
          "date": "2025-06-03T22:45:00+00:00",
          "competitors": [
            {
              "id": "20",
              "type": "team",
              "homeAway": "home",
              "team": {
                "id": "20",
                "abbreviation": "WSH",
                "displayName": "Washington Nationals",
                "location": "Washington",
                "name": "Nationals",
                "shortDisplayName": "Nationals",
                "color": "ab0003",
                "alternateColor": "11225b"
              },
              "order": 0,
              "winner": false,
              "score": {
                "hits": 8,
                "errors": 0,
                "displayValue": "3",
                "value": 3.0,
                "winner": false
              },
              "record": {
                "name": "overall",
                "displayName": "Record Year To Date",
                "displayValue": "28-32"
              },
              "displayOrder": 2
            },
            {
              "id": "16",
              "type": "team",
              "homeAway": "away",
              "team": {
                "id": "16",
                "abbreviation": "CHC",
                "displayName": "Chicago Cubs",
                "location": "Chicago",
                "name": "Cubs",
                "shortDisplayName": "Cubs",
                "color": "0e3386",
                "alternateColor": "cc3433"
              },
              "order": 1,
              "winner": true,
              "score": {
                "hits": 9,
                "errors": 0,
                "displayValue": "8",
                "value": 8.0,
                "winner": true
              },
              "record": {
                "name": "overall",
                "displayName": "Record Year To Date",
                "displayValue": "38-22"
              },
              "displayOrder": 1
            }
          ],
          "status": {
            "halfInning": 17,
            "type": {
              "id": "3",
              "name": "STATUS_FINAL",
              "state": "post",
              "completed": true,
              "description": "Final",
              "detail": "Final",
              "shortDetail": "Final"
            },
            "clock": 0.0,
            "displayClock": "0:00",
            "period": 9
          },
          "attendance": 27702,
          "neutralSite": false,
          "onWatchESPN": false,
          "wallclockAvailable": true,
          "highlightsAvailable": true,
          "notes": [],
          "format": {
            "regulation": {
              "periods": 9,
              "displayName": "Inning",
              "slug": "inning"
            }
          },
          "time": {
            "value": "2025-06-03T22:45:00+00:00",
            "timeValid": true,
            "displayValue": "6:45 ET"
          }
        }
      ],
      "timeValid": true
    },
    {
      "id": "401695805",
      "date": "2025-06-03T23:05:00+00:00",
      "name": "Cleveland Guardians at New York Yankees",
      "shortName": "CLE @ NYY",
      "competitions": [
        {
          "timeOfDay": "DAY",
          "duration": {
            "displayValue": "2:39"
          },
          "wasSuspended": false,
          "dataFormat": "API",
          "id": "401695805",
          "date": "2025-06-03T23:05:00+00:00",
          "competitors": [
            {
              "id": "10",
              "type": "team",
              "homeAway": "home",
              "team": {
                "id": "10",
                "abbreviation": "NYY",
                "displayName": "New York Yankees",
                "location": "New York",
                "name": "Yankees",
                "shortDisplayName": "Yankees",
                "color": "132448",
                "alternateColor": "c4ced4"
              },
              "order": 0,
              "winner": true,
              "score": {
                "hits": 5,
                "errors": 0,
                "displayValue": "3",
                "value": 3.0,
                "winner": true
              },
              "record": {
                "name": "overall",
                "displayName": "Record Year To Date",
                "displayValue": "37-22"
              },
              "displayOrder": 2
            },
            {
              "id": "5",
              "type": "team",
              "homeAway": "away",
              "team": {
                "id": "5",
                "abbreviation": "CLE",
                "displayName": "Cleveland Guardians",
                "location": "Cleveland",
                "name": "Guardians",
                "shortDisplayName": "Guardians",
                "color": "002b5c",
                "alternateColor": "e31937"
              },
              "order": 1,
              "winner": false,
              "score": {
                "hits": 7,
                "errors": 1,
                "displayValue": "2",
                "value": 2.0,
                "winner": false
              },
              "record": {
                "name": "overall",
                "displayName": "Record Year To Date",
                "displayValue": "32-27"
              },
              "displayOrder": 1
            }
          ],
          "status": {
            "halfInning": 16,
            "type": {
              "id": "3",
              "name": "STATUS_FINAL",
              "state": "post",
              "completed": true,
              "description": "Final",
              "detail": "Final",
              "shortDetail": "Final"
            },
            "clock": 0.0,
            "displayClock": "0:00",
            "period": 9
          },
          "attendance": 40683,
          "neutralSite": false,
          "onWatchESPN": false,
          "wallclockAvailable": true,
          "highlightsAvailable": true,
          "notes": [],
          "format": {
            "regulation": {
              "periods": 9,
              "displayName": "Inning",
              "slug": "inning"
            }
          },
          "time": {
            "value": "2025-06-03T23:05:00+00:00",
            "timeValid": true,
            "displayValue": "7:05 ET"
          }
        }
      ],
      "timeValid": true
    },
    {
      "id": "401695809",
      "date": "2025-06-03T23:07:00+00:00",
      "name": "Philadelphia Phillies at Toronto Blue Jays",
      "shortName": "PHI @ TOR",
      "competitions": [
        {
          "timeOfDay": "DAY",
          "duration": {
            "displayValue": "2:46"
          },
          "wasSuspended": false,
          "dataFormat": "API",
          "id": "401695809",
          "date": "2025-06-03T23:07:00+00:00",
          "competitors": [
            {
              "id": "14",
              "type": "team",
              "homeAway": "home",
              "team": {
                "id": "14",
                "abbreviation": "TOR",
                "displayName": "Toronto Blue Jays",
                "location": "Toronto",
                "name": "Blue Jays",
                "shortDisplayName": "Blue Jays",
                "color": "134a8e",
                "alternateColor": "6cace5"
              },
              "order": 0,
              "winner": false,
              "score": {
                "hits": 5,
                "errors": 1,
                "displayValue": "3",
                "value": 3.0,
                "winner": false
              },
              "record": {
                "name": "overall",
                "displayName": "Record Year To Date",
                "displayValue": "31-29"
              },
              "displayOrder": 2
            },
            {
              "id": "22",
              "type": "team",
              "homeAway": "away",
              "team": {
                "id": "22",
                "abbreviation": "PHI",
                "displayName": "Philadelphia Phillies",
                "location": "Philadelphia",
                "name": "Phillies",
                "shortDisplayName": "Phillies",
                "color": "e81828",
                "alternateColor": "003278"
              },
              "order": 1,
              "winner": true,
              "score": {
                "hits": 11,
                "errors": 0,
                "displayValue": "8",
                "value": 8.0,
                "winner": true
              },
              "record": {
                "name": "overall",
                "displayName": "Record Year To Date",
                "displayValue": "37-23"
              },
              "displayOrder": 1
            }
          ],
          "status": {
            "halfInning": 17,
            "type": {
              "id": "3",
              "name": "STATUS_FINAL",
              "state": "post",
              "completed": true,
              "description": "Final",
              "detail": "Final",
              "shortDetail": "Final"
            },
            "clock": 0.0,
            "displayClock": "0:00",
            "period": 9
          },
          "attendance": 32632,
          "neutralSite": false,
          "onWatchESPN": false,
          "wallclockAvailable": true,
          "highlightsAvailable": true,
          "notes": [],
          "format": {
            "regulation": {
              "periods": 9,
              "displayName": "Inning",
              "slug": "inning"
            }
          },
          "time": {
            "value": "2025-06-03T23:07:00+00:00",
            "timeValid": true,
            "displayValue": "7:07 ET"
          }
        }
      ],
      "timeValid": true
    }
  ],
  "count": 15,
  "pageIndex": 1,
  "pageSize": 5,
  "pageCount": 3
}