{
  "events": [
    {
      "id": "401772510",
      "date": "2025-09-05T00:20:00+00:00",
      "name": "Dallas Cowboys at Philadelphia Eagles",
      "shortName": "DAL @ PHI",
      "competitions": [
        {
          "id": "401772510",
          "date": "2025-09-05T00:20:00+00:00",
          "competitors": [
            {
              "id": "21",
              "type": "team",
              "homeAway": "home",
              "team": {
                "id": "21",
                "abbreviation": "PHI",
                "displayName": "Philadelphia Eagles",
                "location": "Philadelphia",
                "name": "Eagles",
                "shortDisplayName": "Eagles",
                "color": "06424d",
                "alternateColor": "000000"
              },
              "order": 0,
              "score": {
                "displayValue": "0",
                "value": 0.0
              },
              "displayOrder": 2
            },
            {
              "id": "6",
              "type": "team",
              "homeAway": "away",
              "team": {
                "id": "6",
                "abbreviation": "DAL",
                "displayName": "Dallas Cowboys",
                "location": "Dallas",
                "name": "Cowboys",
                "shortDisplayName": "Cowboys",
                "color": "002a5c",
                "alternateColor": "b0b7bc"
              },
              "order": 1,
              "score": {
                "displayValue": "0",
                "value": 0.0
              },
              "displayOrder": 1
            }
          ],
          "status": {
            "type": {
              "id": "1",
              "name": "STATUS_SCHEDULED",
              "state": "pre",
              "completed": false,
              "description": "Scheduled",
              "detail": "Thu, September 4th at 8:20 PM EDT",
              "shortDetail": "9/4 - 8:20 PM EDT"
            },
            "clock": 0.0,
            "displayClock": "0:00",
            "period": 0
          },
          "attendance": 0,
          "dateValid": true,
          "neutralSite": false,
          "onWatchESPN": false,
          "wallclockAvailable": false,
          "highlightsAvailable": true,
          "notes": [],
          "format": {
            "regulation": {
              "periods": 4,
              "displayName": "Quarter",
              "slug": "quarter",
              "clock": 900.0
            },
            "overtime": {
              "periods": 1,
              "displayName": "sudden-death",
              "slug": "sudden-death",
              "clock": 600.0
            }
          },
          "hasDefensiveStats": false,
          "time": {
            "value": "2025-09-05T00:20:00+00:00",
            "timeValid": true,
            "displayValue": "8:20 ET"
          }
        }
      ],
      "timeValid": true
    },
    {
      "id": "401772714",
      "date": "2025-09-06T00:00:00+00:00",
      "name": "Kansas City Chiefs at Los Angeles Chargers",
      "shortName": "KC VS LAC",
      "competitions": [
        {
          "id": "401772714",
          "date": "2025-09-06T00:00:00+00:00",
          "competitors": [
            {
              "id": "24",
              "type": "team",
              "homeAway": "home",
              "team": {
                "id": "24",
                "abbreviation": "LAC",
                "displayName": "Los Angeles Chargers",
                "location": "Los Angeles",
                "name": "Chargers",
                "shortDisplayName": "Chargers",
                "color": "0080c6",
                "alternateColor": "ffc20e"
              },
              "order": 0,
              "score": {
                "displayValue": "0",
                "value": 0.0
              },
              "displayOrder": 2
            },
            {
              "id": "12",
              "type": "team",
              "homeAway": "away",
              "team": {
                "id": "12",
                "abbreviation": "KC",
                "displayName": "Kansas City Chiefs",
                "location": "Kansas City",
                "name": "Chiefs",
                "shortDisplayName": "Chiefs",
                "color": "e31837",
                "alternateColor": "ffb612"
              },
              "order": 1,
              "score": {
                "displayValue": "0",
                "value": 0.0
              },
              "displayOrder": 1
            }
          ],
          "status": {
            "type": {
              "id": "1",
              "name": "STATUS_SCHEDULED",
              "state": "pre",
              "completed": false,
              "description": "Scheduled",
              "detail": "Fri, September 5th at 8:00 PM EDT",
              "shortDetail": "9/5 - 8:00 PM EDT"
            },
            "clock": 0.0,
            "displayClock": "0:00",
            "period": 0
          },
          "attendance": 0,
          "dateValid": true,
          "neutralSite": true,
          "onWatchESPN": false,
          "wallclockAvailable": false,
          "highlightsAvailable": true,
          "notes": [
            {
              "type": "event",
              "headline": "NFL S\u00e3o Paulo Game"
            }
          ],
          "format": {
            "regulation": {
              "periods": 4,
              "displayName": "Quarter",
              "slug": "quarter",
              "clock": 900.0
            },
            "overtime": {
              "periods": 1,
              "displayName": "sudden-death",
              "slug": "sudden-death",
              "clock": 600.0
            }
          },
          "hasDefensiveStats": false,
          "time": {
            "value": "2025-09-06T00:00:00+00:00",
            "timeValid": true,
            "displayValue": "8 ET"
          }
        }
      ],
      "timeValid": true
    },
    {
      "id": "401772830",
      "date": "2025-09-07T17:00:00+00:00",
      "name": "Tampa Bay Buccaneers at Atlanta Falcons",
      "shortName": "TB @ ATL",
      "competitions": [
        {
          "id": "401772830",
          "date": "2025-09-07T17:00:00+00:00",
          "competitors": [
            {
              "id": "1",
              "type": "team",
              "homeAway": "home",
              "team": {
                "id": "1",
                "abbreviation": "ATL",
                "displayName": "Atlanta Falcons",
                "location": "Atlanta",
                "name": "Falcons",
                "shortDisplayName": "Falcons",
                "color": "a71930",
                "alternateColor": "000000"
              },
              "order": 0,
              "score": {
                "displayValue": "0",
                "value": 0.0
              },
              "displayOrder": 2
            },
            {
              "id": "27",
              "type": "team",
              "homeAway": "away",
              "team": {
                "id": "27",
                "abbreviation": "TB",
                "displayName": "Tampa Bay Buccaneers",
                "location": "Tampa Bay",
                "name": "Buccaneers",
                "shortDisplayName": "Buccaneers",
                "color": "bd1c36",
                "alternateColor": "3e3a35"
              },
              "order": 1,
              "score": {
                "displayValue": "0",
                "value": 0.0
              },
              "displayOrder": 1
            }
          ],
          "status": {
            "type": {
              "id": "1",
              "name": "STATUS_SCHEDULED",
              "state": "pre",
              "completed": false,
              "description": "Scheduled",
              "detail": "Sun, September 7th at 1:00 PM EDT",
              "shortDetail": "9/7 - 1:00 PM EDT"
            },
            "clock": 0.0,
            "displayClock": "0:00",
            "period": 0
          },
          "attendance": 0,
          "dateValid": true,
          "neutralSite": false,
          "onWatchESPN": false,
          "wallclockAvailable": false,
          "highlightsAvailable": true,
          "notes": [],
          "format": {
            "regulation": {
              "periods": 4,
              "displayName": "Quarter",
              "slug": "quarter",
              "clock": 900.0
            },
            "overtime": {
              "periods": 1,
              "displayName": "sudden-death",
              "slug": "sudden-death",
              "clock": 600.0
            }
          },
          "hasDefensiveStats": false,
          "time": {
            "value": "2025-09-07T17:00:00+00:00",
            "timeValid": true,
            "displayValue": "1 ET"
          }
        }
      ],
      "timeValid": true
    },
    {
      "id": "401772829",
      "date": "2025-09-07T17:00:00+00:00",
      "name": "Cincinnati Bengals at Cleveland Browns",
      "shortName": "CIN @ CLE",
      "competitions": [
        {
          "id": "401772829",
          "date": "2025-09-07T17:00:00+00:00",
          "competitors": [
            {
              "id": "5",
              "type": "team",
              "homeAway": "home",
              "team": {
                "id": "5",
                "abbreviation": "CLE",
                "displayName": "Cleveland Browns",
                "location": "Cleveland",
                "name": "Browns",
                "shortDisplayName": "Browns",
                "color": "472a08",
                "alternateColor": "ff3c00"
              },
              "order": 0,
              "score": {
                "displayValue": "0",
                "value": 0.0
              },
              "displayOrder": 2
            },
            {
              "id": "4",
              "type": "team",
              "homeAway": "away",
              "team": {
                "id": "4",
                "abbreviation": "CIN",
                "displayName": "Cincinnati Bengals",
                "location": "Cincinnati",
                "name": "Bengals",
                "shortDisplayName": "Bengals",
                "color": "fb4f14",
                "alternateColor": "000000"
              },
              "order": 1,
              "score": {
                "displayValue": "0",
                "value": 0.0
              },
              "displayOrder": 1
            }
          ],
          "status": {
            "type": {
              "id": "1",
              "name": "STATUS_SCHEDULED",
              "state": "pre",
              "completed": false,
              "description": "Scheduled",
              "detail": "Sun, September 7th at 1:00 PM EDT",
              "shortDetail": "9/7 - 1:00 PM EDT"
            },
            "clock": 0.0,
            "displayClock": "0:00",
            "period": 0
          },
          "attendance": 0,
          "dateValid": true,
          "neutralSite": false,
          "onWatchESPN": false,
          "wallclockAvailable": false,
          "highlightsAvailable": true,
          "notes": [],
          "format": {
            "regulation": {
              "periods": 4,
              "displayName": "Quarter",
              "slug": "quarter",
              "clock": 900.0
            },
            "overtime": {
              "periods": 1,
              "displayName": "sudden-death",
              "slug": "sudden-death",
              "clock": 600.0
            }
          },
          "hasDefensiveStats": false,
          "time": {
            "value": "2025-09-07T17:00:00+00:00",
            "timeValid": true,
            "displayValue": "1 ET"
          }
        }
      ],
      "timeValid": true
    },
    {
      "id": "401772719",
      "date": "2025-09-07T17:00:00+00:00",
      "name": "Miami Dolphins at Indianapolis Colts",
      "shortName": "MIA @ IND",
      "competitions": [
        {
          "id": "401772719",
          "date": "2025-09-07T17:00:00+00:00",
          "competitors": [
            {
              "id": "11",
              "type": "team",
              "homeAway": "home",
              "team": {
                "id": "11",
                "abbreviation": "IND",
                "displayName": "Indianapolis Colts",
                "location": "Indianapolis",
                "name": "Colts",
                "shortDisplayName": "Colts",
                "color": "003b75",
                "alternateColor": "ffffff"
              },
              "order": 0,
              "score": {
                "displayValue": "0",
                "value": 0.0
              },
              "displayOrder": 2
            },
            {
              "id": "15",
              "type": "team",
              "homeAway": "away",
              "team": {
                "id": "15",
                "abbreviation": "MIA",
                "displayName": "Miami Dolphins",
                "location": "Miami",
                "name": "Dolphins",
                "shortDisplayName": "Dolphins",
                "color": "008e97",
                "alternateColor": "fc4c02"
              },
              "order": 1,
              "score": {
                "displayValue": "0",
                "value": 0.0
              },
              "displayOrder": 1
            }
          ],
          "status": {
            "type": {
              "id": "1",
              "name": "STATUS_SCHEDULED",
              "state": "pre",
              "completed": false,
              "description": "Scheduled",
              "detail": "Sun, September 7th at 1:00 PM EDT",
              "shortDetail": "9/7 - 1:00 PM EDT"
            },
            "clock": 0.0,
            "displayClock": "0:00",
            "period": 0
          },
          "attendance": 0,
          "dateValid": true,
          "neutralSite": false,
          "onWatchESPN": false,
          "wallclockAvailable": false,
          "highlightsAvailable": true,
          "notes": [],
          "format": {
            "regulation": {
              "periods": 4,
              "displayName": "Quarter",
              "slug": "quarter",
              "clock": 900.0
            },
            "overtime": {
              "periods": 1,
              "displayName": "sudden-death",
              "slug": "sudden-death",
              "clock": 600.0
            }
          },
          "hasDefensiveStats": false,
          "time": {
            "value": "2025-09-07T17:00:00+00:00",
            "timeValid": true,
            "displayValue": "1 ET"
          }
        }
      ],
      "timeValid": true
    }
  ],
  "count": 16,
  "pageIndex": 1,
  "pageSize": 5,
  "pageCount": 4
}