{
  "athletes": [
    {
      "id": "2280",
      "displayName": "Patrice Bergeron",
      "firstName": "Patrice",
      "lastName": "Bergeron",
      "weight": 195.0,
      "height": 73.0,
      "age": 39,
      "team": {
        "id": "1",
        "displayName": "Boston Bruins",
        "abbreviation": "BOS"
      },
      "jersey": "37",
      "position": {
        "abbreviation": "C"
      },
      "draft": {
        "round": 2,
        "year": 2003,
        "selection": 45
      },
      "status": {
        "type": "free-agent"
      },
      "alternateIds": {
        "sdr": "2127170"
      },
      "injuries": []
    },
    {
      "id": "3343",
      "displayName": "David Krejci",
      "firstName": "David",
      "lastName": "Krejci",
      "weight": 188.0,
      "height": 72.0,
      "age": 39,
      "team": {
        "id": "1",
        "displayName": "Boston Bruins",
        "abbreviation": "BOS"
      },
      "jersey": "46",
      "position": {
        "abbreviation": "C"
      },
      "draft": {
        "round": 2,
        "year": 2004,
        "selection": 63
      },
      "status": {
        "type": "free-agent"
      },
      "alternateIds": {
        "sdr": "2229970"
      },
      "injuries": []
    },
    {
      "id": "4197199",
      "displayName": "Rem Pitlick",
      "firstName": "Rem",
      "lastName": "Pitlick",
      "weight": 196.0,
      "height": 71.0,
      "age": 28,
      "team": {
        "id": "4",
        "displayName": "Chicago Blackhawks",
        "abbreviation": "CHI"
      },
      "jersey": "20",
      "position": {
        "abbreviation": "C"
      },
      "draft": {
        "round": 3,
        "year": 2016,
        "selection": 76
      },
      "status": {
        "type": "free-agent"
      },
      "alternateIds": {
        "sdr": "4197199"
      },
      "injuries": []
    },
    {
      "id": "3988835",
      "displayName": "Nolan Stevens",
      "firstName": "Nolan",
      "lastName": "Stevens",
      "weight": 183.0,
      "height": 75.0,
      "age": 28,
      "team": {
        "id": "5",
        "displayName": "Detroit Red Wings",
        "abbreviation": "DET"
      },
      "position": {
        "abbreviation": "C"
      },
      "draft": {
        "round": 5,
        "year": 2016,
        "selection": 125
      },
      "status": {
        "type": "free-agent"
      },
      "alternateIds": {
        "sdr": "3988835"
      },
      "injuries": []
    },
    {
      "id": "4271837",
      "displayName": "Leon Gawanke",
      "firstName": "Leon",
      "lastName": "Gawanke",
      "weight": 186.0,
      "height": 73.0,
      "age": 26,
      "team": {
        "id": "18",
        "displayName": "San Jose Sharks",
        "abbreviation": "SJ"
      },
      "jersey": "26",
      "position": {
        "abbreviation": "D"
      },
      "draft": {
        "round": 5,
        "year": 2017,
        "selection": 136
      },
      "status": {
        "type": "free-agent"
      },
      "alternateIds": {
        "sdr": "4271837"
      },
      "injuries": []
    },
    {
      "id": "3666",
      "displayName": "Nicklas Backstrom",
      "firstName": "Nicklas",
      "lastName": "Backstrom",
      "weight": 202.0,
      "height": 73.0,
      "age": 37,
      "team": {
        "id": "23",
        "displayName": "Washington Capitals",
        "abbreviation": "WSH"
      },
      "jersey": "19",
      "position": {
        "abbreviation": "C"
      },
      "draft": {
        "round": 1,
        "year": 2006,
        "selection": 4
      },
      "status": {
        "type": "active"
      },
      "alternateIds": {
        "sdr": "2264258"
      },
      "injuries": []
    },
    {
      "id": "4894857",
      "displayName": "Hugo Alnefelt",
      "firstName": "Hugo",
      "lastName": "Alnefelt",
      "weight": 177.0,
      "height": 74.0,
      "age": 23,
      "team": {
        "id": "20",
        "displayName": "Tampa Bay Lightning",
        "abbreviation": "TB"
      },
      "jersey": "60",
      "position": {
        "abbreviation": "G"
      },
      "status": {
        "type": "free-agent"
      },
      "alternateIds": {
        "sdr": "4894857"
      },
      "injuries": []
    },
    {
      "id": "4565265",
      "displayName": "Vladislav Firstov",
      "firstName": "Vladislav",
      "lastName": "Firstov",
      "weight": 181.0,
      "height": 73.0,
      "age": 23,
      "team": {
        "id": "30",
        "displayName": "Minnesota Wild",
        "abbreviation": "MIN"
      },
      "jersey": "0",
      "position": {
        "abbreviation": "LW"
      },
      "draft": {
        "round": 2,
        "year": 2019,
        "selection": 42
      },
      "status": {
        "type": "free-agent"
      },
      "alternateIds": {
        "sdr": "4565265"
      },
      "injuries": []
    },
    {
      "id": "3780",
      "displayName": "Milan Lucic",
      "firstName": "Milan",
      "lastName": "Lucic",
      "weight": 236.0,
      "height": 75.0,
      "age": 36,
      "team": {
        "id": "1",
        "displayName": "Boston Bruins",
        "abbreviation": "BOS"
      },
      "jersey": "17",
      "position": {
        "abbreviation": "LW"
      },
      "draft": {
        "round": 2,
        "year": 2006,
        "selection": 50
      },
      "status": {
        "type": "free-agent"
      },
      "alternateIds": {
        "sdr": "2229971"
      },
      "injuries": []
    },
    {
      "id": "4392520",
      "displayName": "Oskar Steen",
      "firstName": "Oskar",
      "lastName": "Steen",
      "weight": 196.0,
      "height": 70.0,
      "age": 27,
      "team": {
        "id": "1",
        "displayName": "Boston Bruins",
        "abbreviation": "BOS"
      },
      "jersey": "62",
      "position": {
        "abbreviation": "C"
      },
      "draft": {
        "round": 6,
        "year": 2016,
        "selection": 165
      },
      "status": {
        "type": "free-agent"
      },
      "alternateIds": {
        "sdr": "4271994"
      },
      "injuries": []
    },
    {
      "id": "5211406",
      "displayName": "Adam Mechura",
      "firstName": "Adam",
      "lastName": "Mechura",
      "weight": 201.0,
      "height": 76.0,
      "age": 22,
      "team": {
        "id": "1",
        "displayName": "Boston Bruins",
        "abbreviation": "BOS"
      },
      "position": {
        "abbreviation": "C"
      },
      "status": {
        "type": "free-agent"
      },
      "alternateIds": {
        "sdr": "5211406"
      },
      "injuries": []
    },
    {
      "id": "4588217",
      "displayName": "Calle Sjalin",
      "firstName": "Calle",
      "lastName": "Sjalin",
      "weight": 179.0,
      "height": 73.0,
      "age": 25,
      "team": {
        "id": "2",
        "displayName": "Buffalo Sabres",
        "abbreviation": "BUF"
      },
      "jersey": "79",
      "position": {
        "abbreviation": "D"
      },
      "draft": {
        "round": 5,
        "year": 2017,
        "selection": 145
      },
      "status": {
        "type": "free-agent"
      },
      "alternateIds": {
        "sdr": "4588217"
      },
      "injuries": []
    },
    {
      "id": "4063268",
      "displayName": "Dillon Dube",
      "firstName": "Dillon",
      "lastName": "Dube",
      "weight": 185.0,
      "height": 71.0,
      "age": 26,
      "team": {
        "id": "3",
        "displayName": "Calgary Flames",
        "abbreviation": "CGY"
      },
      "jersey": "29",
      "position": {
        "abbreviation": "C"
      },
      "draft": {
        "round": 2,
        "year": 2016,
        "selection": 56
      },
      "status": {
        "type": "free-agent"
      },
      "alternateIds": {
        "sdr": "4063268"
      },
      "injuries": []
    },
    {
      "id": "4331584",
      "displayName": "Riley Damiani",
      "firstName": "Riley",
      "lastName": "Damiani",
      "weight": 161.0,
      "height": 70.0,
      "age": 25,
      "team": {
        "id": "3",
        "displayName": "Calgary Flames",
        "abbreviation": "CGY"
      },
      "jersey": "13",
      "position": {
        "abbreviation": "C"
      },
      "draft": {
        "round": 5,
        "year": 2018,
        "selection": 137
      },
      "status": {
        "type": "free-agent"
      },
      "alternateIds": {
        "sdr": "4331584"
      },
      "injuries": []
    },
    {
      "id": "4565283",
      "displayName": "Nikita Okhotiuk",
      "firstName": "Nikita",
      "lastName": "Okhotiuk",
      "weight": 195.0,
      "height": 73.0,
      "age": 24,
      "team": {
        "id": "3",
        "displayName": "Calgary Flames",
        "abbreviation": "CGY"
      },
      "jersey": "28",
      "position": {
        "abbreviation": "D"
      },
      "draft": {
        "round": 2,
        "year": 2019,
        "selection": 61
      },
      "status": {
        "type": "free-agent"
      },
      "alternateIds": {
        "sdr": "4565283"
      },
      "injuries": []
    },
    {
      "id": "4010739",
      "displayName": "Nikita Zaitsev",
      "firstName": "Nikita",
      "lastName": "Zaitsev",
      "weight": 192.0,
      "height": 74.0,
      "age": 33,
      "team": {
        "id": "4",
        "displayName": "Chicago Blackhawks",
        "abbreviation": "CHI"
      },
      "jersey": "22",
      "position": {
        "abbreviation": "D"
      },
      "status": {
        "type": "free-agent"
      },
      "alternateIds": {
        "sdr": "4010739"
      },
      "injuries": []
    },
    {
      "id": "4712026",
      "displayName": "Jerad Rosburg",
      "firstName": "Jerad",
      "lastName": "Rosburg",
      "weight": 200.0,
      "height": 73.0,
      "age": 28,
      "team": {
        "id": "9",
        "displayName": "Dallas Stars",
        "abbreviation": "DAL"
      },
      "jersey": "39",
      "position": {
        "abbreviation": "D"
      },
      "status": {
        "type": "free-agent"
      },
      "alternateIds": {
        "sdr": "4712026"
      },
      "injuries": []
    },
    {
      "id": "4895340",
      "displayName": "Artyom Grushnikov",
      "firstName": "Artyom",
      "lastName": "Grushnikov",
      "weight": 194.0,
      "height": 73.0,
      "age": 22,
      "team": {
        "id": "9",
        "displayName": "Dallas Stars",
        "abbreviation": "DAL"
      },
      "jersey": "59",
      "position": {
        "abbreviation": "D"
      },
      "status": {
        "type": "free-agent"
      },
      "alternateIds": {
        "sdr": "4895340"
      },
      "injuries": []
    },
    {
      "id": "2334912",
      "displayName": "Chris Wideman",
      "firstName": "Chris",
      "lastName": "Wideman",
      "weight": 180.0,
      "height": 70.0,
      "age": 35,
      "team": {
        "id": "10",
        "displayName": "Montreal Canadiens",
        "abbreviation": "MTL"
      },
      "jersey": "6",
      "position": {
        "abbreviation": "D"
      },
      "draft": {
        "round": 4,
        "year": 2009,
        "selection": 100
      },
      "status": {
        "type": "free-agent"
      },
      "alternateIds": {
        "sdr": "2334912"
      },
      "injuries": []
    },
    {
      "id": "4352799",
      "displayName": "Nicolas Beaudin",
      "firstName": "Nicolas",
      "lastName": "Beaudin",
      "weight": 168.0,
      "height": 71.0,
      "age": 25,
      "team": {
        "id": "10",
        "displayName": "Montreal Canadiens",
        "abbreviation": "MTL"
      },
      "jersey": "92",
      "position": {
        "abbreviation": "D"
      },
      "draft": {
        "round": 1,
        "year": 2018,
        "selection": 27
      },
      "status": {
        "type": "free-agent"
      },
      "alternateIds": {
        "sdr": "4352799"
      },
      "injuries": []
    },
    {
      "id": "4588742",
      "displayName": "Filip Cederqvist",
      "firstName": "Filip",
      "lastName": "Cederqvist",
      "weight": 196.0,
      "height": 75.0,
      "age": 24,
      "team": {
        "id": "10",
        "displayName": "Montreal Canadiens",
        "abbreviation": "MTL"
      },
      "jersey": "49",
      "position": {
        "abbreviation": "LW"
      },
      "status": {
        "type": "free-agent"
      },
      "alternateIds": {
        "sdr": "4588742"
      },
      "injuries": []
    },
    {
      "id": "4894369",
      "displayName": "Mattias Norlinder",
      "firstName": "Mattias",
      "lastName": "Norlinder",
      "weight": 179.0,
      "height": 71.0,
      "age": 25,
      "team": {
        "id": "10",
        "displayName": "Montreal Canadiens",
        "abbreviation": "MTL"
      },
      "jersey": "59",
      "position": {
        "abbreviation": "D"
      },
      "status": {
        "type": "free-agent"
      },
      "alternateIds": {
        "sdr": "4894369"
      },
      "injuries": []
    },
    {
      "id": "3067870",
      "displayName": "Chris Tierney",
      "firstName": "Chris",
      "lastName": "Tierney",
      "weight": 191.0,
      "height": 73.0,
      "age": 30,
      "team": {
        "id": "11",
        "displayName": "New Jersey Devils",
        "abbreviation": "NJ"
      },
      "jersey": "11",
      "position": {
        "abbreviation": "C"
      },
      "draft": {
        "round": 2,
        "year": 2012,
        "selection": 55
      },
      "status": {
        "type": "free-agent"
      },
      "alternateIds": {
        "sdr": "3067870"
      },
      "injuries": []
    },
    {
      "id": "3689",
      "displayName": "Cal Clutterbuck",
      "firstName": "Cal",
      "lastName": "Clutterbuck",
      "weight": 215.0,
      "height": 71.0,
      "age": 37,
      "team": {
        "id": "12",
        "displayName": "New York Islanders",
        "abbreviation": "NYI"
      },
      "jersey": "15",
      "position": {
        "abbreviation": "RW"
      },
      "draft": {
        "round": 3,
        "year": 2006,
        "selection": 72
      },
      "status": {
        "type": "free-agent"
      },
      "alternateIds": {
        "sdr": "2230316"
      },
      "injuries": []
    },
    {
      "id": "3652602",
      "displayName": "Karson Kuhlman",
      "firstName": "Karson",
      "lastName": "Kuhlman",
      "weight": 184.0,
      "height": 70.0,
      "age": 29,
      "team": {
        "id": "12",
        "displayName": "New York Islanders",
        "abbreviation": "NYI"
      },
      "jersey": "46",
      "position": {
        "abbreviation": "C"
      },
      "status": {
        "type": "free-agent"
      },
      "alternateIds": {
        "sdr": "3652602"
      },
      "injuries": []
    },
    {
      "id": "4233881",
      "displayName": "Robin Salo",
      "firstName": "Robin",
      "lastName": "Salo",
      "weight": 189.0,
      "height": 73.0,
      "age": 26,
      "team": {
        "id": "12",
        "displayName": "New York Islanders",
        "abbreviation": "NYI"
      },
      "jersey": "2",
      "position": {
        "abbreviation": "D"
      },
      "draft": {
        "round": 2,
        "year": 2017,
        "selection": 46
      },
      "status": {
        "type": "free-agent"
      },
      "alternateIds": {
        "sdr": "4233881"
      },
      "injuries": []
    },
    {
      "id": "4587814",
      "displayName": "Ruslan Iskhakov",
      "firstName": "Ruslan",
      "lastName": "Iskhakov",
      "weight": 152.0,
      "height": 68.0,
      "age": 24,
      "team": {
        "id": "12",
        "displayName": "New York Islanders",
        "abbreviation": "NYI"
      },
      "jersey": "37",
      "position": {
        "abbreviation": "C"
      },
      "status": {
        "type": "free-agent"
      },
      "alternateIds": {
        "sdr": "4378672"
      },
      "injuries": []
    },
    {
      "id": "3961",
      "displayName": "Blake Wheeler",
      "firstName": "Blake",
      "lastName": "Wheeler",
      "weight": 222.0,
      "height": 77.0,
      "age": 38,
      "team": {
        "id": "13",
        "displayName": "New York Rangers",
        "abbreviation": "NYR"
      },
      "jersey": "17",
      "position": {
        "abbreviation": "RW"
      },
      "draft": {
        "round": 1,
        "year": 2004,
        "selection": 5
      },
      "status": {
        "type": "free-agent"
      },
      "alternateIds": {
        "sdr": "2304463"
      },
      "injuries": []
    },
    {
      "id": "4927",
      "displayName": "Nick Bonino",
      "firstName": "Nick",
      "lastName": "Bonino",
      "weight": 198.0,
      "height": 73.0,
      "age": 37,
      "team": {
        "id": "13",
        "displayName": "New York Rangers",
        "abbreviation": "NYR"
      },
      "jersey": "12",
      "position": {
        "abbreviation": "C"
      },
      "draft": {
        "round": 6,
        "year": 2007,
        "selection": 173
      },
      "status": {
        "type": "free-agent"
      },
      "alternateIds": {
        "sdr": "2307976"
      },
      "injuries": []
    },
    {
      "id": "3042245",
      "displayName": "Dominik Kubalik",
      "firstName": "Dominik",
      "lastName": "Kubalik",
      "weight": 192.0,
      "height": 74.0,
      "age": 29,
      "team": {
        "id": "14",
        "displayName": "Ottawa Senators",
        "abbreviation": "OTT"
      },
      "jersey": "81",
      "position": {
        "abbreviation": "LW"
      },
      "draft": {
        "round": 7,
        "year": 2013,
        "selection": 191
      },
      "status": {
        "type": "free-agent"
      },
      "alternateIds": {
        "sdr": "3042245"
      },
      "injuries": []
    },
    {
      "id": "5175309",
      "displayName": "Tarun Fizer",
      "firstName": "Tarun",
      "lastName": "Fizer",
      "weight": 168.0,
      "height": 71.0,
      "age": 24,
      "team": {
        "id": "14",
        "displayName": "Ottawa Senators",
        "abbreviation": "OTT"
      },
      "jersey": "0",
      "position": {
        "abbreviation": "RW"
      },
      "status": {
        "type": "free-agent"
      },
      "alternateIds": {
        "sdr": "5175309"
      },
      "injuries": []
    },
    {
      "id": "5434",
      "displayName": "Ryan Johansen",
      "firstName": "Ryan",
      "lastName": "Johansen",
      "weight": 218.0,
      "height": 75.0,
      "age": 32,
      "team": {
        "id": "15",
        "displayName": "Philadelphia Flyers",
        "abbreviation": "PHI"
      },
      "jersey": "12",
      "position": {
        "abbreviation": "C"
      },
      "draft": {
        "round": 1,
        "year": 2010,
        "selection": 4
      },
      "status": {
        "type": "free-agent"
      },
      "alternateIds": {
        "sdr": "2524799"
      },
      "injuries": []
    },
    {
      "id": "3900147",
      "displayName": "Denis Gurianov",
      "firstName": "Denis",
      "lastName": "Gurianov",
      "weight": 205.0,
      "height": 75.0,
      "age": 27,
      "team": {
        "id": "15",
        "displayName": "Philadelphia Flyers",
        "abbreviation": "PHI"
      },
      "jersey": "15",
      "position": {
        "abbreviation": "RW"
      },
      "draft": {
        "round": 1,
        "year": 2015,
        "selection": 12
      },
      "status": {
        "type": "free-agent"
      },
      "alternateIds": {
        "sdr": "3900147"
      },
      "injuries": []
    },
    {
      "id": "4064582",
      "displayName": "Carter Hart",
      "firstName": "Carter",
      "lastName": "Hart",
      "weight": 196.0,
      "height": 74.0,
      "age": 26,
      "team": {
        "id": "15",
        "displayName": "Philadelphia Flyers",
        "abbreviation": "PHI"
      },
      "jersey": "79",
      "position": {
        "abbreviation": "G"
      },
      "draft": {
        "round": 2,
        "year": 2016,
        "selection": 48
      },
      "status": {
        "type": "free-agent"
      },
      "alternateIds": {
        "sdr": "4064582"
      },
      "injuries": []
    },
    {
      "id": "4081035",
      "displayName": "Victor Mete",
      "firstName": "Victor",
      "lastName": "Mete",
      "weight": 187.0,
      "height": 69.0,
      "age": 26,
      "team": {
        "id": "15",
        "displayName": "Philadelphia Flyers",
        "abbreviation": "PHI"
      },
      "jersey": "98",
      "position": {
        "abbreviation": "D"
      },
      "draft": {
        "round": 4,
        "year": 2016,
        "selection": 100
      },
      "status": {
        "type": "free-agent"
      },
      "alternateIds": {
        "sdr": "4081035"
      },
      "injuries": []
    },
    {
      "id": "2383",
      "displayName": "Jeff Carter",
      "firstName": "Jeff",
      "lastName": "Carter",
      "weight": 219.0,
      "height": 75.0,
      "age": 40,
      "team": {
        "id": "16",
        "displayName": "Pittsburgh Penguins",
        "abbreviation": "PIT"
      },
      "jersey": "77",
      "position": {
        "abbreviation": "C"
      },
      "draft": {
        "round": 1,
        "year": 2003,
        "selection": 11
      },
      "status": {
        "type": "free-agent"
      },
      "alternateIds": {
        "sdr": "2127136"
      },
      "injuries": []
    },
    {
      "id": "4268766",
      "displayName": "Dmitri Samorukov",
      "firstName": "Dmitri",
      "lastName": "Samorukov",
      "weight": 180.0,
      "height": 74.0,
      "age": 25,
      "team": {
        "id": "16",
        "displayName": "Pittsburgh Penguins",
        "abbreviation": "PIT"
      },
      "jersey": "53",
      "position": {
        "abbreviation": "D"
      },
      "draft": {
        "round": 3,
        "year": 2017,
        "selection": 84
      },
      "status": {
        "type": "free-agent"
      },
      "alternateIds": {
        "sdr": "4268766"
      },
      "injuries": []
    },
    {
      "id": "4867884",
      "displayName": "Karel Plasek",
      "firstName": "Karel",
      "lastName": "Plasek",
      "weight": 154.0,
      "height": 71.0,
      "age": 24,
      "team": {
        "id": "16",
        "displayName": "Pittsburgh Penguins",
        "abbreviation": "PIT"
      },
      "position": {
        "abbreviation": "C"
      },
      "status": {
        "type": "free-agent"
      },
      "alternateIds": {
        "sdr": "4867884"
      },
      "injuries": []
    },
    {
      "id": "5172968",
      "displayName": "Ludovic Waeber",
      "firstName": "Ludovic",
      "lastName": "Waeber",
      "weight": 176.0,
      "height": 73.0,
      "age": 28,
      "team": {
        "id": "16",
        "displayName": "Pittsburgh Penguins",
        "abbreviation": "PIT"
      },
      "jersey": "31",
      "position": {
        "abbreviation": "G"
      },
      "status": {
        "type": "free-agent"
      },
      "alternateIds": {
        "sdr": "5172968"
      },
      "injuries": []
    },
    {
      "id": "2975",
      "displayName": "Zach Parise",
      "firstName": "Zach",
      "lastName": "Parise",
      "weight": 195.0,
      "height": 71.0,
      "age": 40,
      "team": {
        "id": "17",
        "displayName": "Colorado Avalanche",
        "abbreviation": "COL"
      },
      "jersey": "9",
      "position": {
        "abbreviation": "LW"
      },
      "draft": {
        "round": 1,
        "year": 2003,
        "selection": 17
      },
      "status": {
        "type": "free-agent"
      },
      "alternateIds": {
        "sdr": "2127142"
      },
      "injuries": []
    },
    {
      "id": "3151772",
      "displayName": "Fredrik Olofsson",
      "firstName": "Fredrik",
      "lastName": "Olofsson",
      "weight": 190.0,
      "height": 74.0,
      "age": 29,
      "team": {
        "id": "17",
        "displayName": "Colorado Avalanche",
        "abbreviation": "COL"
      },
      "jersey": "22",
      "position": {
        "abbreviation": "LW"
      },
      "status": {
        "type": "free-agent"
      },
      "alternateIds": {
        "sdr": "3151772"
      },
      "injuries": []
    },
    {
      "id": "4587557",
      "displayName": "Ivan Prosvetov",
      "firstName": "Ivan",
      "lastName": "Prosvetov",
      "weight": 175.0,
      "height": 77.0,
      "age": 26,
      "team": {
        "id": "17",
        "displayName": "Colorado Avalanche",
        "abbreviation": "COL"
      },
      "jersey": "50",
      "position": {
        "abbreviation": "G"
      },
      "draft": {
        "round": 4,
        "year": 2018,
        "selection": 114
      },
      "status": {
        "type": "free-agent"
      },
      "alternateIds": {
        "sdr": "4587557"
      },
      "injuries": []
    },
    {
      "id": "4587936",
      "displayName": "Arvid Holm",
      "firstName": "Arvid",
      "lastName": "Holm",
      "weight": 213.0,
      "height": 76.0,
      "age": 26,
      "team": {
        "id": "17",
        "displayName": "Colorado Avalanche",
        "abbreviation": "COL"
      },
      "jersey": "31",
      "position": {
        "abbreviation": "G"
      },
      "status": {
        "type": "free-agent"
      },
      "alternateIds": {
        "sdr": "4587936"
      },
      "injuries": []
    },
    {
      "id": "4294800",
      "displayName": "Alexander Barabanov",
      "firstName": "Alexander",
      "lastName": "Barabanov",
      "weight": 195.0,
      "height": 70.0,
      "age": 27,
      "team": {
        "id": "18",
        "displayName": "San Jose Sharks",
        "abbreviation": "SJ"
      },
      "jersey": "94",
      "position": {
        "abbreviation": "LW"
      },
      "status": {
        "type": "free-agent"
      },
      "alternateIds": {
        "sdr": "4294800"
      },
      "injuries": []
    },
    {
      "id": "4352700",
      "displayName": "Filip Zadina",
      "firstName": "Filip",
      "lastName": "Zadina",
      "weight": 190.0,
      "height": 72.0,
      "age": 25,
      "team": {
        "id": "18",
        "displayName": "San Jose Sharks",
        "abbreviation": "SJ"
      },
      "jersey": "18",
      "position": {
        "abbreviation": "RW"
      },
      "draft": {
        "round": 1,
        "year": 2018,
        "selection": 6
      },
      "status": {
        "type": "free-agent"
      },
      "alternateIds": {
        "sdr": "4352700"
      },
      "injuries": []
    },
    {
      "id": "4894378",
      "displayName": "Jacob Peterson",
      "firstName": "Jacob",
      "lastName": "Peterson",
      "weight": 180.0,
      "height": 73.0,
      "age": 25,
      "team": {
        "id": "18",
        "displayName": "San Jose Sharks",
        "abbreviation": "SJ"
      },
      "jersey": "24",
      "position": {
        "abbreviation": "C"
      },
      "status": {
        "type": "free-agent"
      },
      "alternateIds": {
        "sdr": "4894378"
      },
      "injuries": []
    },
    {
      "id": "4894472",
      "displayName": "Beck Warm",
      "firstName": "Beck",
      "lastName": "Warm",
      "weight": 173.0,
      "height": 72.0,
      "age": 26,
      "team": {
        "id": "18",
        "displayName": "San Jose Sharks",
        "abbreviation": "SJ"
      },
      "jersey": "35",
      "position": {
        "abbreviation": "G"
      },
      "status": {
        "type": "free-agent"
      },
      "alternateIds": {
        "sdr": "4894472"
      },
      "injuries": []
    },
    {
      "id": "5218",
      "displayName": "Marco Scandella",
      "firstName": "Marco",
      "lastName": "Scandella",
      "weight": 212.0,
      "height": 75.0,
      "age": 35,
      "team": {
        "id": "19",
        "displayName": "St. Louis Blues",
        "abbreviation": "STL"
      },
      "jersey": "6",
      "position": {
        "abbreviation": "D"
      },
      "draft": {
        "round": 2,
        "year": 2008,
        "selection": 55
      },
      "status": {
        "type": "free-agent"
      },
      "alternateIds": {
        "sdr": "2323209"
      },
      "injuries": []
    },
    {
      "id": "3006",
      "displayName": "Mark Giordano",
      "firstName": "Mark",
      "lastName": "Giordano",
      "weight": 202.0,
      "height": 72.0,
      "age": 41,
      "team": {
        "id": "21",
        "displayName": "Toronto Maple Leafs",
        "abbreviation": "TOR"
      },
      "jersey": "55",
      "position": {
        "abbreviation": "D"
      },
      "status": {
        "type": "free-agent"
      },
      "alternateIds": {
        "sdr": "2141040"
      },
      "injuries": []
    },
    {
      "id": "4906",
      "displayName": "Jake Muzzin",
      "firstName": "Jake",
      "lastName": "Muzzin",
      "weight": 227.0,
      "height": 75.0,
      "age": 36,
      "team": {
        "id": "21",
        "displayName": "Toronto Maple Leafs",
        "abbreviation": "TOR"
      },
      "jersey": "8",
      "position": {
        "abbreviation": "D"
      },
      "draft": {
        "round": 5,
        "year": 2007,
        "selection": 141
      },
      "status": {
        "type": "free-agent"
      },
      "alternateIds": {
        "sdr": "2479242"
      },
      "injuries": []
    }
  ],
  "count": 980,
  "pageIndex": 1,
  "pageSize": 50,
  "pageCount": 20
}