{
  "count": 492,
  "pageIndex": 1,
  "pageSize": 25,
  "pageCount": 20,
  "items": [
    {
      "$ref": "http://sports.core.api.espn.com/v2/sports/basketball/leagues/nba/events/401584793/competitions/401584793/probabilities/4015847934?lang=en&region=us",
      "competition": {
        "$ref": "http://sports.core.api.espn.com/v2/sports/basketball/leagues/nba/events/401584793/competitions/401584793?lang=en&region=us"
      },
      "play": {
        "$ref": "http://sports.core.api.espn.com/v2/sports/basketball/leagues/nba/events/401584793/competitions/401584793/plays/4015847934?lang=en&region=us"
      },
      "homeTeam": {
        "$ref": "http://sports.core.api.espn.com/v2/sports/basketball/leagues/nba/seasons/2024/teams/15?lang=en&region=us"
      },
      "awayTeam": {
        "$ref": "http://sports.core.api.espn.com/v2/sports/basketball/leagues/nba/seasons/2024/teams/8?lang=en&region=us"
      },
      "tiePercentage": 0,
      "homeWinPercentage": 0.835,
      "awayWinPercentage": 0.16500000000000004,
      "lastModified": "2023-11-09T04:10Z",
      "sequenceNumber": "4",
      "source": {
        "id": "2",
        "description": "feed",
        "state": "full"
      }
    },
    {
      "$ref": "http://sports.core.api.espn.com/v2/sports/basketball/leagues/nba/events/401584793/competitions/401584793/probabilities/4015847937?lang=en&region=us",
      "competition": {
        "$ref": "http://sports.core.api.espn.com/v2/sports/basketball/leagues/nba/events/401584793/competitions/401584793?lang=en&region=us"
      },
      "play": {
        "$ref": "http://sports.core.api.espn.com/v2/sports/basketball/leagues/nba/events/401584793/competitions/401584793/plays/4015847937?lang=en&region=us"
      },
      "homeTeam": {
        "$ref": "http://sports.core.api.espn.com/v2/sports/basketball/leagues/nba/seasons/2024/teams/15?lang=en&region=us"
      },
      "awayTeam": {
        "$ref": "http://sports.core.api.espn.com/v2/sports/basketball/leagues/nba/seasons/2024/teams/8?lang=en&region=us"
      },
      "tiePercentage": 0,
      "homeWinPercentage": 0.841,
      "awayWinPercentage": 0.15900000000000003,
      "lastModified": "2023-11-09T04:11Z",
      "sequenceNumber": "7",
      "source": {
        "id": "2",
        "description": "feed",
        "state": "full"
      }
    },
    {
      "$ref": "http://sports.core.api.espn.com/v2/sports/basketball/leagues/nba/events/401584793/competitions/401584793/probabilities/4015847939?lang=en&region=us",
      "competition": {
        "$ref": "http://sports.core.api.espn.com/v2/sports/basketball/leagues/nba/events/401584793/competitions/401584793?lang=en&region=us"
      },
      "play": {
        "$ref": "http://sports.core.api.espn.com/v2/sports/basketball/leagues/nba/events/401584793/competitions/401584793/plays/4015847939?lang=en&region=us"
      },
      "homeTeam": {
        "$ref": "http://sports.core.api.espn.com/v2/sports/basketball/leagues/nba/seasons/2024/teams/15?lang=en&region=us"
      },
      "awayTeam": {
        "$ref": "http://sports.core.api.espn.com/v2/sports/basketball/leagues/nba/seasons/2024/teams/8?lang=en&region=us"
      },
      "tiePercentage": 0,
      "homeWinPercentage": 0.844,
      "awayWinPercentage": 0.15600000000000003,
      "lastModified": "2023-11-09T04:11Z",
      "sequenceNumber": "9",
      "source": {
        "id": "2",
        "description": "feed",
        "state": "full"
      }
    },
    {
      "$ref": "http://sports.core.api.espn.com/v2/sports/basketball/leagues/nba/events/401584793/competitions/401584793/probabilities/40158479310?lang=en&region=us",
      "competition": {
        "$ref": "http://sports.core.api.espn.com/v2/sports/basketball/leagues/nba/events/401584793/competitions/401584793?lang=en&region=us"
      },
      "play": {
        "$ref": "http://sports.core.api.espn.com/v2/sports/basketball/leagues/nba/events/401584793/competitions/401584793/plays/40158479310?lang=en&region=us"
      },
      "homeTeam": {
        "$ref": "http://sports.core.api.espn.com/v2/sports/basketball/leagues/nba/seasons/2024/teams/15?lang=en&region=us"
      },
      "awayTeam": {
        "$ref": "http://sports.core.api.espn.com/v2/sports/basketball/leagues/nba/seasons/2024/teams/8?lang=en&region=us"
      },
      "tiePercentage": 0,
      "homeWinPercentage": 0.858,
      "awayWinPercentage": 0.14200000000000002,
      "lastModified": "2023-11-09T04:11Z",
      "sequenceNumber": "10",
      "source": {
        "id": "2",
        "description": "feed",
        "state": "full"
      }
    },
    {
      "$ref": "http://sports.core.api.espn.com/v2/sports/basketball/leagues/nba/events/401584793/competitions/401584793/probabilities/40158479312?lang=en&region=us",
      "competition": {
        "$ref": "http://sports.core.api.espn.com/v2/sports/basketball/leagues/nba/events/401584793/competitions/401584793?lang=en&region=us"
      },
      "play": {
        "$ref": "http://sports.core.api.espn.com/v2/sports/basketball/leagues/nba/events/401584793/competitions/401584793/plays/40158479312?lang=en&region=us"
      },
      "homeTeam": {
        "$ref": "http://sports.core.api.espn.com/v2/sports/basketball/leagues/nba/seasons/2024/teams/15?lang=en&region=us"
      },
      "awayTeam": {
        "$ref": "http://sports.core.api.espn.com/v2/sports/basketball/leagues/nba/seasons/2024/teams/8?lang=en&region=us"
      },
      "tiePercentage": 0,
      "homeWinPercentage": 0.866,
      "awayWinPercentage": 0.134,
      "lastModified": "2023-11-09T04:11Z",
      "sequenceNumber": "12",
      "source": {
        "id": "2",
        "description": "feed",
        "state": "full"
      }
    },
    {
      "$ref": "http://sports.core.api.espn.com/v2/sports/basketball/leagues/nba/events/401584793/competitions/401584793/probabilities/40158479313?lang=en&region=us",
      "competition": {
        "$ref": "http://sports.core.api.espn.com/v2/sports/basketball/leagues/nba/events/401584793/competitions/401584793?lang=en&region=us"
      },
      "play": {
        "$ref": "http://sports.core.api.espn.com/v2/sports/basketball/leagues/nba/events/401584793/competitions/401584793/plays/40158479313?lang=en&region=us"
      },
      "homeTeam": {
        "$ref": "http://sports.core.api.espn.com/v2/sports/basketball/leagues/nba/seasons/2024/teams/15?lang=en&region=us"
      },
      "awayTeam": {
        "$ref": "http://sports.core.api.espn.com/v2/sports/basketball/leagues/nba/seasons/2024/teams/8?lang=en&region=us"
      },
      "tiePercentage": 0,
      "homeWinPercentage": 0.868,
      "awayWinPercentage": 0.132,
      "lastModified": "2023-11-09T04:11Z",
      "sequenceNumber": "13",
      "source": {
        "id": "2",
        "description": "feed",
        "state": "full"
      }
    },
    {
      "$ref": "http://sports.core.api.espn.com/v2/sports/basketball/leagues/nba/events/401584793/competitions/401584793/probabilities/40158479314?lang=en&region=us",
      "competition": {
        "$ref": "http://sports.core.api.espn.com/v2/sports/basketball/leagues/nba/events/401584793/competitions/401584793?lang=en&region=us"
      },
      "play": {
        "$ref": "http://sports.core.api.espn.com/v2/sports/basketball/leagues/nba/events/401584793/competitions/401584793/plays/40158479314?lang=en&region=us"
      },
      "homeTeam": {
        "$ref": "http://sports.core.api.espn.com/v2/sports/basketball/leagues/nba/seasons/2024/teams/15?lang=en&region=us"
      },
      "awayTeam": {
        "$ref": "http://sports.core.api.espn.com/v2/sports/basketball/leagues/nba/seasons/2024/teams/8?lang=en&region=us"
      },
      "tiePercentage": 0,
      "homeWinPercentage": 0.86,
      "awayWinPercentage": 0.14,
      "lastModified": "2023-11-09T04:11Z",
      "sequenceNumber": "14",
      "source": {
        "id": "2",
        "description": "feed",
        "state": "full"
      }
    },
    {
      "$ref": "http://sports.core.api.espn.com/v2/sports/basketball/leagues/nba/events/401584793/competitions/401584793/probabilities/40158479315?lang=en&region=us",
      "competition": {
        "$ref": "http://sports.core.api.espn.com/v2/sports/basketball/leagues/nba/events/401584793/competitions/401584793?lang=en&region=us"
      },
      "play": {
        "$ref": "http://sports.core.api.espn.com/v2/sports/basketball/leagues/nba/events/401584793/competitions/401584793/plays/40158479315?lang=en&region=us"
      },
      "homeTeam": {
        "$ref": "http://sports.core.api.espn.com/v2/sports/basketball/leagues/nba/seasons/2024/teams/15?lang=en&region=us"
      },
      "awayTeam": {
        "$ref": "http://sports.core.api.espn.com/v2/sports/basketball/leagues/nba/seasons/2024/teams/8?lang=en&region=us"
      },
      "tiePercentage": 0,
      "homeWinPercentage": 0.857,
      "awayWinPercentage": 0.14300000000000002,
      "lastModified": "2023-11-09T04:11Z",
      "sequenceNumber": "15",
      "source": {
        "id": "2",
        "description": "feed",
        "state": "full"
      }
    },
    {
      "$ref": "http://sports.core.api.espn.com/v2/sports/basketball/leagues/nba/events/401584793/competitions/401584793/probabilities/40158479316?lang=en&region=us",
      "competition": {
        "$ref": "http://sports.core.api.espn.com/v2/sports/basketball/leagues/nba/events/401584793/competitions/401584793?lang=en&region=us"
      },
      "play": {
        "$ref": "http://sports.core.api.espn.com/v2/sports/basketball/leagues/nba/events/401584793/competitions/401584793/plays/40158479316?lang=en&region=us"
      },
      "homeTeam": {
        "$ref": "http://sports.core.api.espn.com/v2/sports/basketball/leagues/nba/seasons/2024/teams/15?lang=en&region=us"
      },
      "awayTeam": {
        "$ref": "http://sports.core.api.espn.com/v2/sports/basketball/leagues/nba/seasons/2024/teams/8?lang=en&region=us"
      },
      "tiePercentage": 0,
      "homeWinPercentage": 0.841,
      "awayWinPercentage": 0.15900000000000003,
      "lastModified": "2023-11-09T04:11Z",
      "sequenceNumber": "16",
      "source": {
        "id": "2",
        "description": "feed",
        "state": "full"
      }
    },
    {
      "$ref": "http://sports.core.api.espn.com/v2/sports/basketball/leagues/nba/events/401584793/competitions/401584793/probabilities/40158479318?lang=en&region=us",
      "competition": {
        "$ref": "http://sports.core.api.espn.com/v2/sports/basketball/leagues/nba/events/401584793/competitions/401584793?lang=en&region=us"
      },
      "play": {
        "$ref": "http://sports.core.api.espn.com/v2/sports/basketball/leagues/nba/events/401584793/competitions/401584793/plays/40158479318?lang=en&region=us"
      },
      "homeTeam": {
        "$ref": "http://sports.core.api.espn.com/v2/sports/basketball/leagues/nba/seasons/2024/teams/15?lang=en&region=us"
      },
      "awayTeam": {
        "$ref": "http://sports.core.api.espn.com/v2/sports/basketball/leagues/nba/seasons/2024/teams/8?lang=en&region=us"
      },
      "tiePercentage": 0,
      "homeWinPercentage": 0.832,
      "awayWinPercentage": 0.16800000000000004,
      "lastModified": "2023-11-09T04:12Z",
      "sequenceNumber": "18",
      "source": {
        "id": "2",
        "description": "feed",
        "state": "full"
      }
    },
    {
      "$ref": "http://sports.core.api.espn.com/v2/sports/basketball/leagues/nba/events/401584793/competitions/401584793/probabilities/40158479319?lang=en&region=us",
      "competition": {
        "$ref": "http://sports.core.api.espn.com/v2/sports/basketball/leagues/nba/events/401584793/competitions/401584793?lang=en&region=us"
      },
      "play": {
        "$ref": "http://sports.core.api.espn.com/v2/sports/basketball/leagues/nba/events/401584793/competitions/401584793/plays/40158479319?lang=en&region=us"
      },
      "homeTeam": {
        "$ref": "http://sports.core.api.espn.com/v2/sports/basketball/leagues/nba/seasons/2024/teams/15?lang=en&region=us"
      },
      "awayTeam": {
        "$ref": "http://sports.core.api.espn.com/v2/sports/basketball/leagues/nba/seasons/2024/teams/8?lang=en&region=us"
      },
      "tiePercentage": 0,
      "homeWinPercentage": 0.829,
      "awayWinPercentage": 0.17100000000000004,
      "lastModified": "2023-11-09T04:12Z",
      "sequenceNumber": "19",
      "source": {
        "id": "2",
        "description": "feed",
        "state": "full"
      }
    },
    {
      "$ref": "http://sports.core.api.espn.com/v2/sports/basketball/leagues/nba/events/401584793/competitions/401584793/probabilities/40158479320?lang=en&region=us",
      "competition": {
        "$ref": "http://sports.core.api.espn.com/v2/sports/basketball/leagues/nba/events/401584793/competitions/401584793?lang=en&region=us"
      },
      "play": {
        "$ref": "http://sports.core.api.espn.com/v2/sports/basketball/leagues/nba/events/401584793/competitions/401584793/plays/40158479320?lang=en&region=us"
      },
      "homeTeam": {
        "$ref": "http://sports.core.api.espn.com/v2/sports/basketball/leagues/nba/seasons/2024/teams/15?lang=en&region=us"
      },
      "awayTeam": {
        "$ref": "http://sports.core.api.espn.com/v2/sports/basketball/leagues/nba/seasons/2024/teams/8?lang=en&region=us"
      },
      "tiePercentage": 0,
      "homeWinPercentage": 0.836,
      "awayWinPercentage": 0.16400000000000003,
      "lastModified": "2023-11-09T04:12Z",
      "sequenceNumber": "20",
      "source": {
        "id": "2",
        "description": "feed",
        "state": "full"
      }
    },
    {
      "$ref": "http://sports.core.api.espn.com/v2/sports/basketball/leagues/nba/events/401584793/competitions/401584793/probabilities/40158479322?lang=en&region=us",
      "competition": {
        "$ref": "http://sports.core.api.espn.com/v2/sports/basketball/leagues/nba/events/401584793/competitions/401584793?lang=en&region=us"
      },
      "play": {
        "$ref": "http://sports.core.api.espn.com/v2/sports/basketball/leagues/nba/events/401584793/competitions/401584793/plays/40158479322?lang=en&region=us"
      },
      "homeTeam": {
        "$ref": "http://sports.core.api.espn.com/v2/sports/basketball/leagues/nba/seasons/2024/teams/15?lang=en&region=us"
      },
      "awayTeam": {
        "$ref": "http://sports.core.api.espn.com/v2/sports/basketball/leagues/nba/seasons/2024/teams/8?lang=en&region=us"
      },
      "tiePercentage": 0,
      "homeWinPercentage": 0.827,
      "awayWinPercentage": 0.17300000000000004,
      "lastModified": "2023-11-09T04:12Z",
      "sequenceNumber": "22",
      "source": {
        "id": "2",
        "description": "feed",
        "state": "full"
      }
    },
    {
      "$ref": "http://sports.core.api.espn.com/v2/sports/basketball/leagues/nba/events/401584793/competitions/401584793/probabilities/40158479323?lang=en&region=us",
      "competition": {
        "$ref": "http://sports.core.api.espn.com/v2/sports/basketball/leagues/nba/events/401584793/competitions/401584793?lang=en&region=us"
      },
      "play": {
        "$ref": "http://sports.core.api.espn.com/v2/sports/basketball/leagues/nba/events/401584793/competitions/401584793/plays/40158479323?lang=en&region=us"
      },
      "homeTeam": {
        "$ref": "http://sports.core.api.espn.com/v2/sports/basketball/leagues/nba/seasons/2024/teams/15?lang=en&region=us"
      },
      "awayTeam": {
        "$ref": "http://sports.core.api.espn.com/v2/sports/basketball/leagues/nba/seasons/2024/teams/8?lang=en&region=us"
      },
      "tiePercentage": 0,
      "homeWinPercentage": 0.81,
      "awayWinPercentage": 0.18999999999999995,
      "lastModified": "2023-11-09T04:12Z",
      "sequenceNumber": "23",
      "source": {
        "id": "2",
        "description": "feed",
        "state": "full"
      }
    },
    {
      "$ref": "http://sports.core.api.espn.com/v2/sports/basketball/leagues/nba/events/401584793/competitions/401584793/probabilities/40158479325?lang=en&region=us",
      "competition": {
        "$ref": "http://sports.core.api.espn.com/v2/sports/basketball/leagues/nba/events/401584793/competitions/401584793?lang=en&region=us"
      },
      "play": {
        "$ref": "http://sports.core.api.espn.com/v2/sports/basketball/leagues/nba/events/401584793/competitions/401584793/plays/40158479325?lang=en&region=us"
      },
      "homeTeam": {
        "$ref": "http://sports.core.api.espn.com/v2/sports/basketball/leagues/nba/seasons/2024/teams/15?lang=en&region=us"
      },
      "awayTeam": {
        "$ref": "http://sports.core.api.espn.com/v2/sports/basketball/leagues/nba/seasons/2024/teams/8?lang=en&region=us"
      },
      "tiePercentage": 0,
      "homeWinPercentage": 0.797,
      "awayWinPercentage": 0.20299999999999996,
      "lastModified": "2023-11-09T04:13Z",
      "sequenceNumber": "25",
      "source": {
        "id": "2",
        "description": "feed",
        "state": "full"
      }
    },
    {
      "$ref": "http://sports.core.api.espn.com/v2/sports/basketball/leagues/nba/events/401584793/competitions/401584793/probabilities/40158479326?lang=en&region=us",
      "competition": {
        "$ref": "http://sports.core.api.espn.com/v2/sports/basketball/leagues/nba/events/401584793/competitions/401584793?lang=en&region=us"
      },
      "play": {
        "$ref": "http://sports.core.api.espn.com/v2/sports/basketball/leagues/nba/events/401584793/competitions/401584793/plays/40158479326?lang=en&region=us"
      },
      "homeTeam": {
        "$ref": "http://sports.core.api.espn.com/v2/sports/basketball/leagues/nba/seasons/2024/teams/15?lang=en&region=us"
      },
      "awayTeam": {
        "$ref": "http://sports.core.api.espn.com/v2/sports/basketball/leagues/nba/seasons/2024/teams/8?lang=en&region=us"
      },
      "tiePercentage": 0,
      "homeWinPercentage": 0.793,
      "awayWinPercentage": 0.20699999999999996,
      "lastModified": "2023-11-09T04:12Z",
      "sequenceNumber": "26",
      "source": {
        "id": "2",
        "description": "feed",
        "state": "full"
      }
    },
    {
      "$ref": "http://sports.core.api.espn.com/v2/sports/basketball/leagues/nba/events/401584793/competitions/401584793/probabilities/40158479327?lang=en&region=us",
      "competition": {
        "$ref": "http://sports.core.api.espn.com/v2/sports/basketball/leagues/nba/events/401584793/competitions/401584793?lang=en&region=us"
      },
      "play": {
        "$ref": "http://sports.core.api.espn.com/v2/sports/basketball/leagues/nba/events/401584793/competitions/401584793/plays/40158479327?lang=en&region=us"
      },
      "homeTeam": {
        "$ref": "http://sports.core.api.espn.com/v2/sports/basketball/leagues/nba/seasons/2024/teams/15?lang=en&region=us"
      },
      "awayTeam": {
        "$ref": "http://sports.core.api.espn.com/v2/sports/basketball/leagues/nba/seasons/2024/teams/8?lang=en&region=us"
      },
      "tiePercentage": 0,
      "homeWinPercentage": 0.804,
      "awayWinPercentage": 0.19599999999999995,
      "lastModified": "2023-11-09T04:12Z",
      "sequenceNumber": "27",
      "source": {
        "id": "2",
        "description": "feed",
        "state": "full"
      }
    },
    {
      "$ref": "http://sports.core.api.espn.com/v2/sports/basketball/leagues/nba/events/401584793/competitions/401584793/probabilities/40158479329?lang=en&region=us",
      "competition": {
        "$ref": "http://sports.core.api.espn.com/v2/sports/basketball/leagues/nba/events/401584793/competitions/401584793?lang=en&region=us"
      },
      "play": {
        "$ref": "http://sports.core.api.espn.com/v2/sports/basketball/leagues/nba/events/401584793/competitions/401584793/plays/40158479329?lang=en&region=us"
      },
      "homeTeam": {
        "$ref": "http://sports.core.api.espn.com/v2/sports/basketball/leagues/nba/seasons/2024/teams/15?lang=en&region=us"
      },
      "awayTeam": {
        "$ref": "http://sports.core.api.espn.com/v2/sports/basketball/leagues/nba/seasons/2024/teams/8?lang=en&region=us"
      },
      "tiePercentage": 0,
      "homeWinPercentage": 0.808,
      "awayWinPercentage": 0.19199999999999995,
      "lastModified": "2023-11-09T04:12Z",
      "sequenceNumber": "29",
      "source": {
        "id": "2",
        "description": "feed",
        "state": "full"
      }
    },
    {
      "$ref": "http://sports.core.api.espn.com/v2/sports/basketball/leagues/nba/events/401584793/competitions/401584793/probabilities/40158479330?lang=en&region=us",
      "competition": {
        "$ref": "http://sports.core.api.espn.com/v2/sports/basketball/leagues/nba/events/401584793/competitions/401584793?lang=en&region=us"
      },
      "play": {
        "$ref": "http://sports.core.api.espn.com/v2/sports/basketball/leagues/nba/events/401584793/competitions/401584793/plays/40158479330?lang=en&region=us"
      },
      "homeTeam": {
        "$ref": "http://sports.core.api.espn.com/v2/sports/basketball/leagues/nba/seasons/2024/teams/15?lang=en&region=us"
      },
      "awayTeam": {
        "$ref": "http://sports.core.api.espn.com/v2/sports/basketball/leagues/nba/seasons/2024/teams/8?lang=en&region=us"
      },
      "tiePercentage": 0,
      "homeWinPercentage": 0.837,
      "awayWinPercentage": 0.16300000000000003,
      "lastModified": "2023-11-09T04:13Z",
      "sequenceNumber": "30",
      "source": {
        "id": "2",
        "description": "feed",
        "state": "full"
      }
    },
    {
      "$ref": "http://sports.core.api.espn.com/v2/sports/basketball/leagues/nba/events/401584793/competitions/401584793/probabilities/40158479332?lang=en&region=us",
      "competition": {
        "$ref": "http://sports.core.api.espn.com/v2/sports/basketball/leagues/nba/events/401584793/competitions/401584793?lang=en&region=us"
      },
      "play": {
        "$ref": "http://sports.core.api.espn.com/v2/sports/basketball/leagues/nba/events/401584793/competitions/401584793/plays/40158479332?lang=en&region=us"
      },
      "homeTeam": {
        "$ref": "http://sports.core.api.espn.com/v2/sports/basketball/leagues/nba/seasons/2024/teams/15?lang=en&region=us"
      },
      "awayTeam": {
        "$ref": "http://sports.core.api.espn.com/v2/sports/basketball/leagues/nba/seasons/2024/teams/8?lang=en&region=us"
      },
      "tiePercentage": 0,
      "homeWinPercentage": 0.848,
      "awayWinPercentage": 0.15200000000000002,
      "lastModified": "2023-11-09T04:13Z",
      "sequenceNumber": "32",
      "source": {
        "id": "2",
        "description": "feed",
        "state": "full"
      }
    },
    {
      "$ref": "http://sports.core.api.espn.com/v2/sports/basketball/leagues/nba/events/401584793/competitions/401584793/probabilities/40158479333?lang=en&region=us",
      "competition": {
        "$ref": "http://sports.core.api.espn.com/v2/sports/basketball/leagues/nba/events/401584793/competitions/401584793?lang=en&region=us"
      },
      "play": {
        "$ref": "http://sports.core.api.espn.com/v2/sports/basketball/leagues/nba/events/401584793/competitions/401584793/plays/40158479333?lang=en&region=us"
      },
      "homeTeam": {
        "$ref": "http://sports.core.api.espn.com/v2/sports/basketball/leagues/nba/seasons/2024/teams/15?lang=en&region=us"
      },
      "awayTeam": {
        "$ref": "http://sports.core.api.espn.com/v2/sports/basketball/leagues/nba/seasons/2024/teams/8?lang=en&region=us"
      },
      "tiePercentage": 0,
      "homeWinPercentage": 0.852,
      "awayWinPercentage": 0.14800000000000002,
      "lastModified": "2023-11-09T04:13Z",
      "sequenceNumber": "33",
      "source": {
        "id": "2",
        "description": "feed",
        "state": "full"
      }
    },
    {
      "$ref": "http://sports.core.api.espn.com/v2/sports/basketball/leagues/nba/events/401584793/competitions/401584793/probabilities/40158479334?lang=en&region=us",
      "competition": {
        "$ref": "http://sports.core.api.espn.com/v2/sports/basketball/leagues/nba/events/401584793/competitions/401584793?lang=en&region=us"
      },
      "play": {
        "$ref": "http://sports.core.api.espn.com/v2/sports/basketball/leagues/nba/events/401584793/competitions/401584793/plays/40158479334?lang=en&region=us"
      },
      "homeTeam": {
        "$ref": "http://sports.core.api.espn.com/v2/sports/basketball/leagues/nba/seasons/2024/teams/15?lang=en&region=us"
      },
      "awayTeam": {
        "$ref": "http://sports.core.api.espn.com/v2/sports/basketball/leagues/nba/seasons/2024/teams/8?lang=en&region=us"
      },
      "tiePercentage": 0,
      "homeWinPercentage": 0.839,
      "awayWinPercentage": 0.16100000000000003,
      "lastModified": "2023-11-09T04:13Z",
      "sequenceNumber": "34",
      "source": {
        "id": "2",
        "description": "feed",
        "state": "full"
      }
    },
    {
      "$ref": "http://sports.core.api.espn.com/v2/sports/basketball/leagues/nba/events/401584793/competitions/401584793/probabilities/40158479335?lang=en&region=us",
      "competition": {
        "$ref": "http://sports.core.api.espn.com/v2/sports/basketball/leagues/nba/events/401584793/competitions/401584793?lang=en&region=us"
      },
      "play": {
        "$ref": "http://sports.core.api.espn.com/v2/sports/basketball/leagues/nba/events/401584793/competitions/401584793/plays/40158479335?lang=en&region=us"
      },
      "homeTeam": {
        "$ref": "http://sports.core.api.espn.com/v2/sports/basketball/leagues/nba/seasons/2024/teams/15?lang=en&region=us"
      },
      "awayTeam": {
        "$ref": "http://sports.core.api.espn.com/v2/sports/basketball/leagues/nba/seasons/2024/teams/8?lang=en&region=us"
      },
      "tiePercentage": 0,
      "homeWinPercentage": 0.834,
      "awayWinPercentage": 0.16600000000000004,
      "lastModified": "2023-11-09T04:13Z",
      "sequenceNumber": "35",
      "source": {
        "id": "2",
        "description": "feed",
        "state": "full"
      }
    },
    {
      "$ref": "http://sports.core.api.espn.com/v2/sports/basketball/leagues/nba/events/401584793/competitions/401584793/probabilities/40158479336?lang=en&region=us",
      "competition": {
        "$ref": "http://sports.core.api.espn.com/v2/sports/basketball/leagues/nba/events/401584793/competitions/401584793?lang=en&region=us"
      },
      "play": {
        "$ref": "http://sports.core.api.espn.com/v2/sports/basketball/leagues/nba/events/401584793/competitions/401584793/plays/40158479336?lang=en&region=us"
      },
      "homeTeam": {
        "$ref": "http://sports.core.api.espn.com/v2/sports/basketball/leagues/nba/seasons/2024/teams/15?lang=en&region=us"
      },
      "awayTeam": {
        "$ref": "http://sports.core.api.espn.com/v2/sports/basketball/leagues/nba/seasons/2024/teams/8?lang=en&region=us"
      },
      "tiePercentage": 0,
      "homeWinPercentage": 0.846,
      "awayWinPercentage": 0.15400000000000003,
      "lastModified": "2023-11-09T04:13Z",
      "sequenceNumber": "36",
      "source": {
        "id": "2",
        "description": "feed",
        "state": "full"
      }
    },
    {
      "$ref": "http://sports.core.api.espn.com/v2/sports/basketball/leagues/nba/events/401584793/competitions/401584793/probabilities/40158479337?lang=en&region=us",
      "competition": {
        "$ref": "http://sports.core.api.espn.com/v2/sports/basketball/leagues/nba/events/401584793/competitions/401584793?lang=en&region=us"
      },
      "play": {
        "$ref": "http://sports.core.api.espn.com/v2/sports/basketball/leagues/nba/events/401584793/competitions/401584793/plays/40158479337?lang=en&region=us"
      },
      "homeTeam": {
        "$ref": "http://sports.core.api.espn.com/v2/sports/basketball/leagues/nba/seasons/2024/teams/15?lang=en&region=us"
      },
      "awayTeam": {
        "$ref": "http://sports.core.api.espn.com/v2/sports/basketball/leagues/nba/seasons/2024/teams/8?lang=en&region=us"
      },
      "tiePercentage": 0,
      "homeWinPercentage": 0.85,
      "awayWinPercentage": 0.15000000000000002,
      "lastModified": "2023-11-09T04:13Z",
      "sequenceNumber": "37",
      "source": {
        "id": "2",
        "description": "feed",
        "state": "full"
      }
    }
  ]
}
