{
  "count": 187,
  "pageIndex": 1,
  "pageSize": 25,
  "pageCount": 8,
  "sampleItems": [
    {
      "$ref": "http://sports.core.api.espn.com/v2/sports/football/leagues/nfl/events/401547417/competitions/401547417/probabilities/4015474171?lang=en&region=us",
      "homeWinPercentage": 0.5168,
      "awayWinPercentage": 0.48319999999999996,
      "tiePercentage": 0.0,
      "sequenceNumber": "100",
      "secondsLeft": 0
    },
    {
      "$ref": "http://sports.core.api.espn.com/v2/sports/football/leagues/nfl/events/401547417/competitions/401547417/probabilities/40154741739?lang=en&region=us",
      "homeWinPercentage": 0.5223,
      "awayWinPercentage": 0.4777,
      "tiePercentage": 0.0,
      "sequenceNumber": "3900",
      "secondsLeft": 0
    },
    {
      "$ref": "http://sports.core.api.espn.com/v2/sports/football/leagues/nfl/events/401547417/competitions/401547417/probabilities/40154741755?lang=en&region=us",
      "homeWinPercentage": 0.4561,
      "awayWinPercentage": 0.5439,
      "tiePercentage": 0.0,
      "sequenceNumber": "5500",
      "secondsLeft": 0
    },
    {
      "$ref": "http://sports.core.api.espn.com/v2/sports/football/leagues/nfl/events/401547417/competitions/401547417/probabilities/40154741789?lang=en&region=us",
      "homeWinPercentage": 0.4782,
      "awayWinPercentage": 0.5218,
      "tiePercentage": 0.0,
      "sequenceNumber": "8900",
      "secondsLeft": 0
    },
    {
      "$ref": "http://sports.core.api.espn.com/v2/sports/football/leagues/nfl/events/401547417/competitions/401547417/probabilities/401547417111?lang=en&region=us",
      "homeWinPercentage": 0.4984,
      "awayWinPercentage": 0.5016,
      "tiePercentage": 0.0,
      "sequenceNumber": "11100",
      "secondsLeft": 0
    }
  ]
}