{
  "count": 187,
  "pageIndex": 1,
  "pageSize": 25,
  "pageCount": 8,
  "items": [
    {
      "$ref": "http://sports.core.api.espn.com/v2/sports/football/leagues/nfl/events/401547417/competitions/401547417/probabilities/4015474171?lang=en&region=us",
      "competition": {
        "$ref": "http://sports.core.api.espn.com/v2/sports/football/leagues/nfl/events/401547417/competitions/401547417?lang=en&region=us"
      },
      "play": {
        "$ref": "http://sports.core.api.espn.com/v2/sports/football/leagues/nfl/events/401547417/competitions/401547417/plays/4015474171?lang=en&region=us"
      },
      "homeTeam": {
        "$ref": "http://sports.core.api.espn.com/v2/sports/football/leagues/nfl/seasons/2023/teams/1?lang=en&region=us"
      },
      "awayTeam": {
        "$ref": "http://sports.core.api.espn.com/v2/sports/football/leagues/nfl/seasons/2023/teams/9?lang=en&region=us"
      },
      "tiePercentage": 0,
      "homeWinPercentage": 0.5168,
      "awayWinPercentage": 0.48319999999999996,
      "lastModified": "2023-09-17T22:24Z",
      "sequenceNumber": "100",
      "source": {
        "id": "2",
        "description": "feed",
        "state": "full"
      },
      "secondsLeft": 0
    },
    {
      "$ref": "http://sports.core.api.espn.com/v2/sports/football/leagues/nfl/events/401547417/competitions/401547417/probabilities/40154741739?lang=en&region=us",
      "competition": {
        "$ref": "http://sports.core.api.espn.com/v2/sports/football/leagues/nfl/events/401547417/competitions/401547417?lang=en&region=us"
      },
      "play": {
        "$ref": "http://sports.core.api.espn.com/v2/sports/football/leagues/nfl/events/401547417/competitions/401547417/plays/40154741739?lang=en&region=us"
      },
      "homeTeam": {
        "$ref": "http://sports.core.api.espn.com/v2/sports/football/leagues/nfl/seasons/2023/teams/1?lang=en&region=us"
      },
      "awayTeam": {
        "$ref": "http://sports.core.api.espn.com/v2/sports/football/leagues/nfl/seasons/2023/teams/9?lang=en&region=us"
      },
      "tiePercentage": 0,
      "homeWinPercentage": 0.5223,
      "awayWinPercentage": 0.4777,
      "lastModified": "2023-09-17T20:05Z",
      "sequenceNumber": "3900",
      "source": {
        "id": "2",
        "description": "feed",
        "state": "full"
      },
      "secondsLeft": 0
    },
    {
      "$ref": "http://sports.core.api.espn.com/v2/sports/football/leagues/nfl/events/401547417/competitions/401547417/probabilities/40154741755?lang=en&region=us",
      "competition": {
        "$ref": "http://sports.core.api.espn.com/v2/sports/football/leagues/nfl/events/401547417/competitions/401547417?lang=en&region=us"
      },
      "play": {
        "$ref": "http://sports.core.api.espn.com/v2/sports/football/leagues/nfl/events/401547417/competitions/401547417/plays/40154741755?lang=en&region=us"
      },
      "homeTeam": {
        "$ref": "http://sports.core.api.espn.com/v2/sports/football/leagues/nfl/seasons/2023/teams/1?lang=en&region=us"
      },
      "awayTeam": {
        "$ref": "http://sports.core.api.espn.com/v2/sports/football/leagues/nfl/seasons/2023/teams/9?lang=en&region=us"
      },
      "tiePercentage": 0,
      "homeWinPercentage": 0.4561,
      "awayWinPercentage": 0.5439,
      "lastModified": "2023-09-17T20:05Z",
      "sequenceNumber": "5500",
      "source": {
        "id": "2",
        "description": "feed",
        "state": "full"
      },
      "secondsLeft": 0
    },
    {
      "$ref": "http://sports.core.api.espn.com/v2/sports/football/leagues/nfl/events/401547417/competitions/401547417/probabilities/40154741789?lang=en&region=us",
      "competition": {
        "$ref": "http://sports.core.api.espn.com/v2/sports/football/leagues/nfl/events/401547417/competitions/401547417?lang=en&region=us"
      },
      "play": {
        "$ref": "http://sports.core.api.espn.com/v2/sports/football/leagues/nfl/events/401547417/competitions/401547417/plays/40154741789?lang=en&region=us"
      },
      "homeTeam": {
        "$ref": "http://sports.core.api.espn.com/v2/sports/football/leagues/nfl/seasons/2023/teams/1?lang=en&region=us"
      },
      "awayTeam": {
        "$ref": "http://sports.core.api.espn.com/v2/sports/football/leagues/nfl/seasons/2023/teams/9?lang=en&region=us"
      },
      "tiePercentage": 0,
      "homeWinPercentage": 0.4782,
      "awayWinPercentage": 0.5218,
      "lastModified": "2023-09-17T20:06Z",
      "sequenceNumber": "8900",
      "source": {
        "id": "2",
        "description": "feed",
        "state": "full"
      },
      "secondsLeft": 0
    },
    {
      "$ref": "http://sports.core.api.espn.com/v2/sports/football/leagues/nfl/events/401547417/competitions/401547417/probabilities/401547417111?lang=en&region=us",
      "competition": {
        "$ref": "http://sports.core.api.espn.com/v2/sports/football/leagues/nfl/events/401547417/competitions/401547417?lang=en&region=us"
      },
      "play": {
        "$ref": "http://sports.core.api.espn.com/v2/sports/football/leagues/nfl/events/401547417/competitions/401547417/plays/401547417111?lang=en&region=us"
      },
      "homeTeam": {
        "$ref": "http://sports.core.api.espn.com/v2/sports/football/leagues/nfl/seasons/2023/teams/1?lang=en&region=us"
      },
      "awayTeam": {
        "$ref": "http://sports.core.api.espn.com/v2/sports/football/leagues/nfl/seasons/2023/teams/9?lang=en&region=us"
      },
      "tiePercentage": 0,
      "homeWinPercentage": 0.4984,
      "awayWinPercentage": 0.5016,
      "lastModified": "2023-09-17T20:07Z",
      "sequenceNumber": "11100",
      "source": {
        "id": "2",
        "description": "feed",
        "state": "full"
      },
      "secondsLeft": 0
    },
    {
      "$ref": "http://sports.core.api.espn.com/v2/sports/football/leagues/nfl/events/401547417/competitions/401547417/probabilities/401547417134?lang=en&region=us",
      "competition": {
        "$ref": "http://sports.core.api.espn.com/v2/sports/football/leagues/nfl/events/401547417/competitions/401547417?lang=en&region=us"
      },
      "play": {
        "$ref": "http://sports.core.api.espn.com/v2/sports/football/leagues/nfl/events/401547417/competitions/401547417/plays/401547417134?lang=en&region=us"
      },
      "homeTeam": {
        "$ref": "http://sports.core.api.espn.com/v2/sports/football/leagues/nfl/seasons/2023/teams/1?lang=en&region=us"
      },
      "awayTeam": {
        "$ref": "http://sports.core.api.espn.com/v2/sports/football/leagues/nfl/seasons/2023/teams/9?lang=en&region=us"
      },
      "tiePercentage": 0,
      "homeWinPercentage": 0.4942,
      "awayWinPercentage": 0.5058,
      "lastModified": "2023-09-17T20:08Z",
      "sequenceNumber": "13400",
      "source": {
        "id": "2",
        "description": "feed",
        "state": "full"
      },
      "secondsLeft": 0
    },
    {
      "$ref": "http://sports.core.api.espn.com/v2/sports/football/leagues/nfl/events/401547417/competitions/401547417/probabilities/401547417158?lang=en&region=us",
      "competition": {
        "$ref": "http://sports.core.api.espn.com/v2/sports/football/leagues/nfl/events/401547417/competitions/401547417?lang=en&region=us"
      },
      "play": {
        "$ref": "http://sports.core.api.espn.com/v2/sports/football/leagues/nfl/events/401547417/competitions/401547417/plays/401547417158?lang=en&region=us"
      },
      "homeTeam": {
        "$ref": "http://sports.core.api.espn.com/v2/sports/football/leagues/nfl/seasons/2023/teams/1?lang=en&region=us"
      },
      "awayTeam": {
        "$ref": "http://sports.core.api.espn.com/v2/sports/football/leagues/nfl/seasons/2023/teams/9?lang=en&region=us"
      },
      "tiePercentage": 0,
      "homeWinPercentage": 0.5158,
      "awayWinPercentage": 0.48419999999999996,
      "lastModified": "2023-09-17T20:09Z",
      "sequenceNumber": "15800",
      "source": {
        "id": "2",
        "description": "feed",
        "state": "full"
      },
      "secondsLeft": 0
    },
    {
      "$ref": "http://sports.core.api.espn.com/v2/sports/football/leagues/nfl/events/401547417/competitions/401547417/probabilities/401547417181?lang=en&region=us",
      "competition": {
        "$ref": "http://sports.core.api.espn.com/v2/sports/football/leagues/nfl/events/401547417/competitions/401547417?lang=en&region=us"
      },
      "play": {
        "$ref": "http://sports.core.api.espn.com/v2/sports/football/leagues/nfl/events/401547417/competitions/401547417/plays/401547417181?lang=en&region=us"
      },
      "homeTeam": {
        "$ref": "http://sports.core.api.espn.com/v2/sports/football/leagues/nfl/seasons/2023/teams/1?lang=en&region=us"
      },
      "awayTeam": {
        "$ref": "http://sports.core.api.espn.com/v2/sports/football/leagues/nfl/seasons/2023/teams/9?lang=en&region=us"
      },
      "tiePercentage": 0,
      "homeWinPercentage": 0.5442,
      "awayWinPercentage": 0.4558,
      "lastModified": "2023-09-17T20:28Z",
      "sequenceNumber": "18100",
      "source": {
        "id": "2",
        "description": "feed",
        "state": "full"
      },
      "secondsLeft": 0
    },
    {
      "$ref": "http://sports.core.api.espn.com/v2/sports/football/leagues/nfl/events/401547417/competitions/401547417/probabilities/401547417211?lang=en&region=us",
      "competition": {
        "$ref": "http://sports.core.api.espn.com/v2/sports/football/leagues/nfl/events/401547417/competitions/401547417?lang=en&region=us"
      },
      "play": {
        "$ref": "http://sports.core.api.espn.com/v2/sports/football/leagues/nfl/events/401547417/competitions/401547417/plays/401547417211?lang=en&region=us"
      },
      "homeTeam": {
        "$ref": "http://sports.core.api.espn.com/v2/sports/football/leagues/nfl/seasons/2023/teams/1?lang=en&region=us"
      },
      "awayTeam": {
        "$ref": "http://sports.core.api.espn.com/v2/sports/football/leagues/nfl/seasons/2023/teams/9?lang=en&region=us"
      },
      "tiePercentage": 0,
      "homeWinPercentage": 0.5526,
      "awayWinPercentage": 0.4474,
      "lastModified": "2023-09-17T20:16Z",
      "sequenceNumber": "21100",
      "source": {
        "id": "2",
        "description": "feed",
        "state": "full"
      },
      "secondsLeft": 0
    },
    {
      "$ref": "http://sports.core.api.espn.com/v2/sports/football/leagues/nfl/events/401547417/competitions/401547417/probabilities/401547417220?lang=en&region=us",
      "competition": {
        "$ref": "http://sports.core.api.espn.com/v2/sports/football/leagues/nfl/events/401547417/competitions/401547417?lang=en&region=us"
      },
      "play": {
        "$ref": "http://sports.core.api.espn.com/v2/sports/football/leagues/nfl/events/401547417/competitions/401547417/plays/401547417220?lang=en&region=us"
      },
      "homeTeam": {
        "$ref": "http://sports.core.api.espn.com/v2/sports/football/leagues/nfl/seasons/2023/teams/1?lang=en&region=us"
      },
      "awayTeam": {
        "$ref": "http://sports.core.api.espn.com/v2/sports/football/leagues/nfl/seasons/2023/teams/9?lang=en&region=us"
      },
      "tiePercentage": 0,
      "homeWinPercentage": 0.5526,
      "awayWinPercentage": 0.4474,
      "lastModified": "2023-09-17T20:10Z",
      "sequenceNumber": "22000",
      "source": {
        "id": "2",
        "description": "feed",
        "state": "full"
      },
      "secondsLeft": 0
    },
    {
      "$ref": "http://sports.core.api.espn.com/v2/sports/football/leagues/nfl/events/401547417/competitions/401547417/probabilities/401547417229?lang=en&region=us",
      "competition": {
        "$ref": "http://sports.core.api.espn.com/v2/sports/football/leagues/nfl/events/401547417/competitions/401547417?lang=en&region=us"
      },
      "play": {
        "$ref": "http://sports.core.api.espn.com/v2/sports/football/leagues/nfl/events/401547417/competitions/401547417/plays/401547417229?lang=en&region=us"
      },
      "homeTeam": {
        "$ref": "http://sports.core.api.espn.com/v2/sports/football/leagues/nfl/seasons/2023/teams/1?lang=en&region=us"
      },
      "awayTeam": {
        "$ref": "http://sports.core.api.espn.com/v2/sports/football/leagues/nfl/seasons/2023/teams/9?lang=en&region=us"
      },
      "tiePercentage": 0,
      "homeWinPercentage": 0.5415,
      "awayWinPercentage": 0.4585,
      "lastModified": "2023-09-17T20:14Z",
      "sequenceNumber": "22900",
      "source": {
        "id": "2",
        "description": "feed",
        "state": "full"
      },
      "secondsLeft": 0
    },
    {
      "$ref": "http://sports.core.api.espn.com/v2/sports/football/leagues/nfl/events/401547417/competitions/401547417/probabilities/401547417261?lang=en&region=us",
      "competition": {
        "$ref": "http://sports.core.api.espn.com/v2/sports/football/leagues/nfl/events/401547417/competitions/401547417?lang=en&region=us"
      },
      "play": {
        "$ref": "http://sports.core.api.espn.com/v2/sports/football/leagues/nfl/events/401547417/competitions/401547417/plays/401547417261?lang=en&region=us"
      },
      "homeTeam": {
        "$ref": "http://sports.core.api.espn.com/v2/sports/football/leagues/nfl/seasons/2023/teams/1?lang=en&region=us"
      },
      "awayTeam": {
        "$ref": "http://sports.core.api.espn.com/v2/sports/football/leagues/nfl/seasons/2023/teams/9?lang=en&region=us"
      },
      "tiePercentage": 0,
      "homeWinPercentage": 0.5719,
      "awayWinPercentage": 0.42810000000000004,
      "lastModified": "2023-09-17T20:15Z",
      "sequenceNumber": "26100",
      "source": {
        "id": "2",
        "description": "feed",
        "state": "full"
      },
      "secondsLeft": 0
    },
    {
      "$ref": "http://sports.core.api.espn.com/v2/sports/football/leagues/nfl/events/401547417/competitions/401547417/probabilities/401547417283?lang=en&region=us",
      "competition": {
        "$ref": "http://sports.core.api.espn.com/v2/sports/football/leagues/nfl/events/401547417/competitions/401547417?lang=en&region=us"
      },
      "play": {
        "$ref": "http://sports.core.api.espn.com/v2/sports/football/leagues/nfl/events/401547417/competitions/401547417/plays/401547417283?lang=en&region=us"
      },
      "homeTeam": {
        "$ref": "http://sports.core.api.espn.com/v2/sports/football/leagues/nfl/seasons/2023/teams/1?lang=en&region=us"
      },
      "awayTeam": {
        "$ref": "http://sports.core.api.espn.com/v2/sports/football/leagues/nfl/seasons/2023/teams/9?lang=en&region=us"
      },
      "tiePercentage": 0,
      "homeWinPercentage": 0.5024,
      "awayWinPercentage": 0.49760000000000004,
      "lastModified": "2023-09-17T20:15Z",
      "sequenceNumber": "28300",
      "source": {
        "id": "2",
        "description": "feed",
        "state": "full"
      },
      "secondsLeft": 0
    },
    {
      "$ref": "http://sports.core.api.espn.com/v2/sports/football/leagues/nfl/events/401547417/competitions/401547417/probabilities/401547417310?lang=en&region=us",
      "competition": {
        "$ref": "http://sports.core.api.espn.com/v2/sports/football/leagues/nfl/events/401547417/competitions/401547417?lang=en&region=us"
      },
      "play": {
        "$ref": "http://sports.core.api.espn.com/v2/sports/football/leagues/nfl/events/401547417/competitions/401547417/plays/401547417310?lang=en&region=us"
      },
      "homeTeam": {
        "$ref": "http://sports.core.api.espn.com/v2/sports/football/leagues/nfl/seasons/2023/teams/1?lang=en&region=us"
      },
      "awayTeam": {
        "$ref": "http://sports.core.api.espn.com/v2/sports/football/leagues/nfl/seasons/2023/teams/9?lang=en&region=us"
      },
      "tiePercentage": 0,
      "homeWinPercentage": 0.5183,
      "awayWinPercentage": 0.4817,
      "lastModified": "2023-09-17T20:16Z",
      "sequenceNumber": "31000",
      "source": {
        "id": "2",
        "description": "feed",
        "state": "full"
      },
      "secondsLeft": 0
    },
    {
      "$ref": "http://sports.core.api.espn.com/v2/sports/football/leagues/nfl/events/401547417/competitions/401547417/probabilities/401547417334?lang=en&region=us",
      "competition": {
        "$ref": "http://sports.core.api.espn.com/v2/sports/football/leagues/nfl/events/401547417/competitions/401547417?lang=en&region=us"
      },
      "play": {
        "$ref": "http://sports.core.api.espn.com/v2/sports/football/leagues/nfl/events/401547417/competitions/401547417/plays/401547417334?lang=en&region=us"
      },
      "homeTeam": {
        "$ref": "http://sports.core.api.espn.com/v2/sports/football/leagues/nfl/seasons/2023/teams/1?lang=en&region=us"
      },
      "awayTeam": {
        "$ref": "http://sports.core.api.espn.com/v2/sports/football/leagues/nfl/seasons/2023/teams/9?lang=en&region=us"
      },
      "tiePercentage": 0,
      "homeWinPercentage": 0.5359,
      "awayWinPercentage": 0.46409999999999996,
      "lastModified": "2023-09-17T20:16Z",
      "sequenceNumber": "33400",
      "source": {
        "id": "2",
        "description": "feed",
        "state": "full"
      },
      "secondsLeft": 0
    },
    {
      "$ref": "http://sports.core.api.espn.com/v2/sports/football/leagues/nfl/events/401547417/competitions/401547417/probabilities/401547417356?lang=en&region=us",
      "competition": {
        "$ref": "http://sports.core.api.espn.com/v2/sports/football/leagues/nfl/events/401547417/competitions/401547417?lang=en&region=us"
      },
      "play": {
        "$ref": "http://sports.core.api.espn.com/v2/sports/football/leagues/nfl/events/401547417/competitions/401547417/plays/401547417356?lang=en&region=us"
      },
      "homeTeam": {
        "$ref": "http://sports.core.api.espn.com/v2/sports/football/leagues/nfl/seasons/2023/teams/1?lang=en&region=us"
      },
      "awayTeam": {
        "$ref": "http://sports.core.api.espn.com/v2/sports/football/leagues/nfl/seasons/2023/teams/9?lang=en&region=us"
      },
      "tiePercentage": 0,
      "homeWinPercentage": 0.5682,
      "awayWinPercentage": 0.43179999999999996,
      "lastModified": "2023-09-17T20:17Z",
      "sequenceNumber": "35600",
      "source": {
        "id": "2",
        "description": "feed",
        "state": "full"
      },
      "secondsLeft": 0
    },
    {
      "$ref": "http://sports.core.api.espn.com/v2/sports/football/leagues/nfl/events/401547417/competitions/401547417/probabilities/401547417376?lang=en&region=us",
      "competition": {
        "$ref": "http://sports.core.api.espn.com/v2/sports/football/leagues/nfl/events/401547417/competitions/401547417?lang=en&region=us"
      },
      "play": {
        "$ref": "http://sports.core.api.espn.com/v2/sports/football/leagues/nfl/events/401547417/competitions/401547417/plays/401547417376?lang=en&region=us"
      },
      "homeTeam": {
        "$ref": "http://sports.core.api.espn.com/v2/sports/football/leagues/nfl/seasons/2023/teams/1?lang=en&region=us"
      },
      "awayTeam": {
        "$ref": "http://sports.core.api.espn.com/v2/sports/football/leagues/nfl/seasons/2023/teams/9?lang=en&region=us"
      },
      "tiePercentage": 0,
      "homeWinPercentage": 0.5609,
      "awayWinPercentage": 0.43910000000000005,
      "lastModified": "2023-09-17T20:21Z",
      "sequenceNumber": "37600",
      "source": {
        "id": "2",
        "description": "feed",
        "state": "full"
      },
      "secondsLeft": 0
    },
    {
      "$ref": "http://sports.core.api.espn.com/v2/sports/football/leagues/nfl/events/401547417/competitions/401547417/probabilities/401547417386?lang=en&region=us",
      "competition": {
        "$ref": "http://sports.core.api.espn.com/v2/sports/football/leagues/nfl/events/401547417/competitions/401547417?lang=en&region=us"
      },
      "play": {
        "$ref": "http://sports.core.api.espn.com/v2/sports/football/leagues/nfl/events/401547417/competitions/401547417/plays/401547417386?lang=en&region=us"
      },
      "homeTeam": {
        "$ref": "http://sports.core.api.espn.com/v2/sports/football/leagues/nfl/seasons/2023/teams/1?lang=en&region=us"
      },
      "awayTeam": {
        "$ref": "http://sports.core.api.espn.com/v2/sports/football/leagues/nfl/seasons/2023/teams/9?lang=en&region=us"
      },
      "tiePercentage": 0,
      "homeWinPercentage": 0.5609,
      "awayWinPercentage": 0.43910000000000005,
      "lastModified": "2023-09-17T20:15Z",
      "sequenceNumber": "38600",
      "source": {
        "id": "2",
        "description": "feed",
        "state": "full"
      },
      "secondsLeft": 0
    },
    {
      "$ref": "http://sports.core.api.espn.com/v2/sports/football/leagues/nfl/events/401547417/competitions/401547417/probabilities/401547417396?lang=en&region=us",
      "competition": {
        "$ref": "http://sports.core.api.espn.com/v2/sports/football/leagues/nfl/events/401547417/competitions/401547417?lang=en&region=us"
      },
      "play": {
        "$ref": "http://sports.core.api.espn.com/v2/sports/football/leagues/nfl/events/401547417/competitions/401547417/plays/401547417396?lang=en&region=us"
      },
      "homeTeam": {
        "$ref": "http://sports.core.api.espn.com/v2/sports/football/leagues/nfl/seasons/2023/teams/1?lang=en&region=us"
      },
      "awayTeam": {
        "$ref": "http://sports.core.api.espn.com/v2/sports/football/leagues/nfl/seasons/2023/teams/9?lang=en&region=us"
      },
      "tiePercentage": 0,
      "homeWinPercentage": 0.5443,
      "awayWinPercentage": 0.4557,
      "lastModified": "2023-09-17T20:19Z",
      "sequenceNumber": "39600",
      "source": {
        "id": "2",
        "description": "feed",
        "state": "full"
      },
      "secondsLeft": 0
    },
    {
      "$ref": "http://sports.core.api.espn.com/v2/sports/football/leagues/nfl/events/401547417/competitions/401547417/probabilities/401547417430?lang=en&region=us",
      "competition": {
        "$ref": "http://sports.core.api.espn.com/v2/sports/football/leagues/nfl/events/401547417/competitions/401547417?lang=en&region=us"
      },
      "play": {
        "$ref": "http://sports.core.api.espn.com/v2/sports/football/leagues/nfl/events/401547417/competitions/401547417/plays/401547417430?lang=en&region=us"
      },
      "homeTeam": {
        "$ref": "http://sports.core.api.espn.com/v2/sports/football/leagues/nfl/seasons/2023/teams/1?lang=en&region=us"
      },
      "awayTeam": {
        "$ref": "http://sports.core.api.espn.com/v2/sports/football/leagues/nfl/seasons/2023/teams/9?lang=en&region=us"
      },
      "tiePercentage": 0,
      "homeWinPercentage": 0.5325,
      "awayWinPercentage": 0.4675,
      "lastModified": "2023-09-17T20:21Z",
      "sequenceNumber": "43000",
      "source": {
        "id": "2",
        "description": "feed",
        "state": "full"
      },
      "secondsLeft": 0
    },
    {
      "$ref": "http://sports.core.api.espn.com/v2/sports/football/leagues/nfl/events/401547417/competitions/401547417/probabilities/401547417453?lang=en&region=us",
      "competition": {
        "$ref": "http://sports.core.api.espn.com/v2/sports/football/leagues/nfl/events/401547417/competitions/401547417?lang=en&region=us"
      },
      "play": {
        "$ref": "http://sports.core.api.espn.com/v2/sports/football/leagues/nfl/events/401547417/competitions/401547417/plays/401547417453?lang=en&region=us"
      },
      "homeTeam": {
        "$ref": "http://sports.core.api.espn.com/v2/sports/football/leagues/nfl/seasons/2023/teams/1?lang=en&region=us"
      },
      "awayTeam": {
        "$ref": "http://sports.core.api.espn.com/v2/sports/football/leagues/nfl/seasons/2023/teams/9?lang=en&region=us"
      },
      "tiePercentage": 0,
      "homeWinPercentage": 0.587,
      "awayWinPercentage": 0.41300000000000003,
      "lastModified": "2023-09-17T20:33Z",
      "sequenceNumber": "45300",
      "source": {
        "id": "2",
        "description": "feed",
        "state": "full"
      },
      "secondsLeft": 0
    },
    {
      "$ref": "http://sports.core.api.espn.com/v2/sports/football/leagues/nfl/events/401547417/competitions/401547417/probabilities/401547417478?lang=en&region=us",
      "competition": {
        "$ref": "http://sports.core.api.espn.com/v2/sports/football/leagues/nfl/events/401547417/competitions/401547417?lang=en&region=us"
      },
      "play": {
        "$ref": "http://sports.core.api.espn.com/v2/sports/football/leagues/nfl/events/401547417/competitions/401547417/plays/401547417478?lang=en&region=us"
      },
      "homeTeam": {
        "$ref": "http://sports.core.api.espn.com/v2/sports/football/leagues/nfl/seasons/2023/teams/1?lang=en&region=us"
      },
      "awayTeam": {
        "$ref": "http://sports.core.api.espn.com/v2/sports/football/leagues/nfl/seasons/2023/teams/9?lang=en&region=us"
      },
      "tiePercentage": 0,
      "homeWinPercentage": 0.5916,
      "awayWinPercentage": 0.4084,
      "lastModified": "2023-09-17T20:33Z",
      "sequenceNumber": "47800",
      "source": {
        "id": "2",
        "description": "feed",
        "state": "full"
      },
      "secondsLeft": 0
    },
    {
      "$ref": "http://sports.core.api.espn.com/v2/sports/football/leagues/nfl/events/401547417/competitions/401547417/probabilities/401547417500?lang=en&region=us",
      "competition": {
        "$ref": "http://sports.core.api.espn.com/v2/sports/football/leagues/nfl/events/401547417/competitions/401547417?lang=en&region=us"
      },
      "play": {
        "$ref": "http://sports.core.api.espn.com/v2/sports/football/leagues/nfl/events/401547417/competitions/401547417/plays/401547417500?lang=en&region=us"
      },
      "homeTeam": {
        "$ref": "http://sports.core.api.espn.com/v2/sports/football/leagues/nfl/seasons/2023/teams/1?lang=en&region=us"
      },
      "awayTeam": {
        "$ref": "http://sports.core.api.espn.com/v2/sports/football/leagues/nfl/seasons/2023/teams/9?lang=en&region=us"
      },
      "tiePercentage": 0,
      "homeWinPercentage": 0.6051,
      "awayWinPercentage": 0.39490000000000003,
      "lastModified": "2023-09-17T20:33Z",
      "sequenceNumber": "50000",
      "source": {
        "id": "2",
        "description": "feed",
        "state": "full"
      },
      "secondsLeft": 0
    },
    {
      "$ref": "http://sports.core.api.espn.com/v2/sports/football/leagues/nfl/events/401547417/competitions/401547417/probabilities/401547417522?lang=en&region=us",
      "competition": {
        "$ref": "http://sports.core.api.espn.com/v2/sports/football/leagues/nfl/events/401547417/competitions/401547417?lang=en&region=us"
      },
      "play": {
        "$ref": "http://sports.core.api.espn.com/v2/sports/football/leagues/nfl/events/401547417/competitions/401547417/plays/401547417522?lang=en&region=us"
      },
      "homeTeam": {
        "$ref": "http://sports.core.api.espn.com/v2/sports/football/leagues/nfl/seasons/2023/teams/1?lang=en&region=us"
      },
      "awayTeam": {
        "$ref": "http://sports.core.api.espn.com/v2/sports/football/leagues/nfl/seasons/2023/teams/9?lang=en&region=us"
      },
      "tiePercentage": 0,
      "homeWinPercentage": 0.617,
      "awayWinPercentage": 0.383,
      "lastModified": "2023-09-17T20:24Z",
      "sequenceNumber": "52200",
      "source": {
        "id": "2",
        "description": "feed",
        "state": "full"
      },
      "secondsLeft": 0
    },
    {
      "$ref": "http://sports.core.api.espn.com/v2/sports/football/leagues/nfl/events/401547417/competitions/401547417/probabilities/401547417545?lang=en&region=us",
      "competition": {
        "$ref": "http://sports.core.api.espn.com/v2/sports/football/leagues/nfl/events/401547417/competitions/401547417?lang=en&region=us"
      },
      "play": {
        "$ref": "http://sports.core.api.espn.com/v2/sports/football/leagues/nfl/events/401547417/competitions/401547417/plays/401547417545?lang=en&region=us"
      },
      "homeTeam": {
        "$ref": "http://sports.core.api.espn.com/v2/sports/football/leagues/nfl/seasons/2023/teams/1?lang=en&region=us"
      },
      "awayTeam": {
        "$ref": "http://sports.core.api.espn.com/v2/sports/football/leagues/nfl/seasons/2023/teams/9?lang=en&region=us"
      },
      "tiePercentage": 0,
      "homeWinPercentage": 0.5826,
      "awayWinPercentage": 0.4174,
      "lastModified": "2023-09-17T20:24Z",
      "sequenceNumber": "54500",
      "source": {
        "id": "2",
        "description": "feed",
        "state": "full"
      },
      "secondsLeft": 0
    }
  ]
}
