{
  "count": 492,
  "pageIndex": 1,
  "pageSize": 25,
  "pageCount": 20,
  "sampleItems": [
    {
      "$ref": "http://sports.core.api.espn.com/v2/sports/basketball/leagues/nba/events/401584793/competitions/401584793/probabilities/4015847934?lang=en&region=us",
      "homeWinPercentage": 0.835,
      "awayWinPercentage": 0.16500000000000004,
      "tiePercentage": 0.0,
      "sequenceNumber": "4",
      "secondsLeft": null
    },
    {
      "$ref": "http://sports.core.api.espn.com/v2/sports/basketball/leagues/nba/events/401584793/competitions/401584793/probabilities/4015847937?lang=en&region=us",
      "homeWinPercentage": 0.841,
      "awayWinPercentage": 0.15900000000000003,
      "tiePercentage": 0.0,
      "sequenceNumber": "7",
      "secondsLeft": null
    },
    {
      "$ref": "http://sports.core.api.espn.com/v2/sports/basketball/leagues/nba/events/401584793/competitions/401584793/probabilities/4015847939?lang=en&region=us",
      "homeWinPercentage": 0.844,
      "awayWinPercentage": 0.15600000000000003,
      "tiePercentage": 0.0,
      "sequenceNumber": "9",
      "secondsLeft": null
    },
    {
      "$ref": "http://sports.core.api.espn.com/v2/sports/basketball/leagues/nba/events/401584793/competitions/401584793/probabilities/40158479310?lang=en&region=us",
      "homeWinPercentage": 0.858,
      "awayWinPercentage": 0.14200000000000002,
      "tiePercentage": 0.0,
      "sequenceNumber": "10",
      "secondsLeft": null
    },
    {
      "$ref": "http://sports.core.api.espn.com/v2/sports/basketball/leagues/nba/events/401584793/competitions/401584793/probabilities/40158479312?lang=en&region=us",
      "homeWinPercentage": 0.866,
      "awayWinPercentage": 0.134,
      "tiePercentage": 0.0,
      "sequenceNumber": "12",
      "secondsLeft": null
    }
  ]
}