{"count":1192,"pageIndex":1,"pageSize":25,"pageCount":48,"items":[{"$ref":"http://sports.core.api.espn.com/v2/sports/soccer/leagues/eng.1/athletes/4474?lang=en&region=us"},{"$ref":"http://sports.core.api.espn.com/v2/sports/soccer/leagues/eng.1/athletes/4564?lang=en&region=us"},{"$ref":"http://sports.core.api.espn.com/v2/sports/soccer/leagues/eng.1/athletes/4775?lang=en&region=us"},{"$ref":"http://sports.core.api.espn.com/v2/sports/soccer/leagues/eng.1/athletes/4946?lang=en&region=us"},{"$ref":"http://sports.core.api.espn.com/v2/sports/soccer/leagues/eng.1/athletes/6327?lang=en&region=us"},{"$ref":"http://sports.core.api.espn.com/v2/sports/soccer/leagues/eng.1/athletes/7441?lang=en&region=us"},{"$ref":"http://sports.core.api.espn.com/v2/sports/soccer/leagues/eng.1/athletes/8327?lang=en&region=us"},{"$ref":"http://sports.core.api.espn.com/v2/sports/soccer/leagues/eng.1/athletes/8507?lang=en&region=us"},{"$ref":"http://sports.core.api.espn.com/v2/sports/soccer/leagues/eng.1/athletes/9426?lang=en&region=us"},{"$ref":"http://sports.core.api.espn.com/v2/sports/soccer/leagues/eng.1/athletes/16040?lang=en&region=us"},{"$ref":"http://sports.core.api.espn.com/v2/sports/soccer/leagues/eng.1/athletes/17828?lang=en&region=us"},{"$ref":"http://sports.core.api.espn.com/v2/sports/soccer/leagues/eng.1/athletes/17861?lang=en&region=us"},{"$ref":"http://sports.core.api.espn.com/v2/sports/soccer/leagues/eng.1/athletes/20553?lang=en&region=us"},{"$ref":"http://sports.core.api.espn.com/v2/sports/soccer/leagues/eng.1/athletes/20975?lang=en&region=us"},{"$ref":"http://sports.core.api.espn.com/v2/sports/soccer/leagues/eng.1/athletes/26843?lang=en&region=us"},{"$ref":"http://sports.core.api.espn.com/v2/sports/soccer/leagues/eng.1/athletes/30116?lang=en&region=us"},{"$ref":"http://sports.core.api.espn.com/v2/sports/soccer/leagues/eng.1/athletes/30377?lang=en&region=us"},{"$ref":"http://sports.core.api.espn.com/v2/sports/soccer/leagues/eng.1/athletes/31810?lang=en&region=us"},{"$ref":"http://sports.core.api.espn.com/v2/sports/soccer/leagues/eng.1/athletes/32570?lang=en&region=us"},{"$ref":"http://sports.core.api.espn.com/v2/sports/soccer/leagues/eng.1/athletes/32572?lang=en&region=us"},{"$ref":"http://sports.core.api.espn.com/v2/sports/soccer/leagues/eng.1/athletes/37557?lang=en&region=us"},{"$ref":"http://sports.core.api.espn.com/v2/sports/soccer/leagues/eng.1/athletes/40192?lang=en&region=us"},{"$ref":"http://sports.core.api.espn.com/v2/sports/soccer/leagues/eng.1/athletes/41311?lang=en&region=us"},{"$ref":"http://sports.core.api.espn.com/v2/sports/soccer/leagues/eng.1/athletes/42250?lang=en&region=us"},{"$ref":"http://sports.core.api.espn.com/v2/sports/soccer/leagues/eng.1/athletes/42359?lang=en&region=us"}]}