{
  "count": 176,
  "pageIndex": 1,
  "pageSize": 10,
  "pageCount": 18,
  "items": [
    {
      "pick": {
        "person": {
          "id": "2329",
          "firstName": "Matt",
          "lastName": "Bowen",
          "displayName": "Matt Bowen",
          "headshot": {
            "href": "https://a.espncdn.com/i/columnists/full/bowen_matt.png",
            "alt": "Matt Bowen"
          }
        },
        "competition": {
          "$ref": "http://sports.core.api.espn.com/v2/sports/football/leagues/nfl/events/401671789/competitions/401671789?lang=en&region=us"
        },
        "competitor": {
          "$ref": "http://sports.core.api.espn.com/v2/sports/football/leagues/nfl/events/401671789/competitions/401671789/competitors/12?lang=en&region=us"
        },
        "correct": true
      },
      "weekRecord": {
        "displayValue": "15-1",
        "stats": [
          {
            "name": "win",
            "displayName": "Wins",
            "shortDisplayName": "W",
            "description": "Wins",
            "abbreviation": "W",
            "type": "win",
            "value": 15.0,
            "displayValue": "15"
          },
          {
            "name": "loss",
            "displayName": "Losses",
            "shortDisplayName": "L",
            "description": "Losses",
            "abbreviation": "L",
            "type": "loss",
            "value": 1.0,
            "displayValue": "1"
          }
        ],
        "season": {
          "$ref": "http://sports.core.api.espn.com/v2/sports/football/leagues/nfl/seasons/2024?lang=en&region=us"
        }
      }
    },
    {
      "pick": {
        "person": {
          "id": "2329",
          "firstName": "Matt",
          "lastName": "Bowen",
          "displayName": "Matt Bowen",
          "headshot": {
            "href": "https://a.espncdn.com/i/columnists/full/bowen_matt.png",
            "alt": "Matt Bowen"
          }
        },
        "competition": {
          "$ref": "http://sports.core.api.espn.com/v2/sports/football/leagues/nfl/events/401671805/competitions/401671805?lang=en&region=us"
        },
        "competitor": {
          "$ref": "http://sports.core.api.espn.com/v2/sports/football/leagues/nfl/events/401671805/competitions/401671805/competitors/21?lang=en&region=us"
        },
        "correct": true
      },
      "weekRecord": {
        "displayValue": "15-1",
        "stats": [
          {
            "name": "win",
            "displayName": "Wins",
            "shortDisplayName": "W",
            "description": "Wins",
            "abbreviation": "W",
            "type": "win",
            "value": 15.0,
            "displayValue": "15"
          },
          {
            "name": "loss",
            "displayName": "Losses",
            "shortDisplayName": "L",
            "description": "Losses",
            "abbreviation": "L",
            "type": "loss",
            "value": 1.0,
            "displayValue": "1"
          }
        ],
        "season": {
          "$ref": "http://sports.core.api.espn.com/v2/sports/football/leagues/nfl/seasons/2024?lang=en&region=us"
        }
      }
    },
    {
      "pick": {
        "person": {
          "id": "2329",
          "firstName": "Matt",
          "lastName": "Bowen",
          "displayName": "Matt Bowen",
          "headshot": {
            "href": "https://a.espncdn.com/i/columnists/full/bowen_matt.png",
            "alt": "Matt Bowen"
          }
        },
        "competition": {
          "$ref": "http://sports.core.api.espn.com/v2/sports/football/leagues/nfl/events/401671617/competitions/401671617?lang=en&region=us"
        },
        "competitor": {
          "$ref": "http://sports.core.api.espn.com/v2/sports/football/leagues/nfl/events/401671617/competitions/401671617/competitors/2?lang=en&region=us"
        },
        "correct": true
      },
      "weekRecord": {
        "displayValue": "15-1",
        "stats": [
          {
            "name": "win",
            "displayName": "Wins",
            "shortDisplayName": "W",
            "description": "Wins",
            "abbreviation": "W",
            "type": "win",
            "value": 15.0,
            "displayValue": "15"
          },
          {
            "name": "loss",
            "displayName": "Losses",
            "shortDisplayName": "L",
            "description": "Losses",
            "abbreviation": "L",
            "type": "loss",
            "value": 1.0,
            "displayValue": "1"
          }
        ],
        "season": {
          "$ref": "http://sports.core.api.espn.com/v2/sports/football/leagues/nfl/seasons/2024?lang=en&region=us"
        }
      }
    },
    {
      "pick": {
        "person": {
          "id": "2329",
          "firstName": "Matt",
          "lastName": "Bowen",
          "displayName": "Matt Bowen",
          "headshot": {
            "href": "https://a.espncdn.com/i/columnists/full/bowen_matt.png",
            "alt": "Matt Bowen"
          }
        },
        "competition": {
          "$ref": "http://sports.core.api.espn.com/v2/sports/football/leagues/nfl/events/401671628/competitions/401671628?lang=en&region=us"
        },
        "competitor": {
          "$ref": "http://sports.core.api.espn.com/v2/sports/football/leagues/nfl/events/401671628/competitions/401671628/competitors/4?lang=en&region=us"
        },
        "correct": true
      },
      "weekRecord": {
        "displayValue": "15-1",
        "stats": [
          {
            "name": "win",
            "displayName": "Wins",
            "shortDisplayName": "W",
            "description": "Wins",
            "abbreviation": "W",
            "type": "win",
            "value": 15.0,
            "displayValue": "15"
          },
          {
            "name": "loss",
            "displayName": "Losses",
            "shortDisplayName": "L",
            "description": "Losses",
            "abbreviation": "L",
            "type": "loss",
            "value": 1.0,
            "displayValue": "1"
          }
        ],
        "season": {
          "$ref": "http://sports.core.api.espn.com/v2/sports/football/leagues/nfl/seasons/2024?lang=en&region=us"
        }
      }
    },
    {
      "pick": {
        "person": {
          "id": "2329",
          "firstName": "Matt",
          "lastName": "Bowen",
          "displayName": "Matt Bowen",
          "headshot": {
            "href": "https://a.espncdn.com/i/columnists/full/bowen_matt.png",
            "alt": "Matt Bowen"
          }
        },
        "competition": {
          "$ref": "http://sports.core.api.espn.com/v2/sports/football/leagues/nfl/events/401671712/competitions/401671712?lang=en&region=us"
        },
        "competitor": {
          "$ref": "http://sports.core.api.espn.com/v2/sports/football/leagues/nfl/events/401671712/competitions/401671712/competitors/16?lang=en&region=us"
        },
        "correct": true
      },
      "weekRecord": {
        "displayValue": "15-1",
        "stats": [
          {
            "name": "win",
            "displayName": "Wins",
            "shortDisplayName": "W",
            "description": "Wins",
            "abbreviation": "W",
            "type": "win",
            "value": 15.0,
            "displayValue": "15"
          },
          {
            "name": "loss",
            "displayName": "Losses",
            "shortDisplayName": "L",
            "description": "Losses",
            "abbreviation": "L",
            "type": "loss",
            "value": 1.0,
            "displayValue": "1"
          }
        ],
        "season": {
          "$ref": "http://sports.core.api.espn.com/v2/sports/football/leagues/nfl/seasons/2024?lang=en&region=us"
        }
      }
    },
    {
      "pick": {
        "person": {
          "id": "2329",
          "firstName": "Matt",
          "lastName": "Bowen",
          "displayName": "Matt Bowen",
          "headshot": {
            "href": "https://a.espncdn.com/i/columnists/full/bowen_matt.png",
            "alt": "Matt Bowen"
          }
        },
        "competition": {
          "$ref": "http://sports.core.api.espn.com/v2/sports/football/leagues/nfl/events/401671719/competitions/401671719?lang=en&region=us"
        },
        "competitor": {
          "$ref": "http://sports.core.api.espn.com/v2/sports/football/leagues/nfl/events/401671719/competitions/401671719/competitors/3?lang=en&region=us"
        },
        "correct": true
      },
      "weekRecord": {
        "displayValue": "15-1",
        "stats": [
          {
            "name": "win",
            "displayName": "Wins",
            "shortDisplayName": "W",
            "description": "Wins",
            "abbreviation": "W",
            "type": "win",
            "value": 15.0,
            "displayValue": "15"
          },
          {
            "name": "loss",
            "displayName": "Losses",
            "shortDisplayName": "L",
            "description": "Losses",
            "abbreviation": "L",
            "type": "loss",
            "value": 1.0,
            "displayValue": "1"
          }
        ],
        "season": {
          "$ref": "http://sports.core.api.espn.com/v2/sports/football/leagues/nfl/seasons/2024?lang=en&region=us"
        }
      }
    },
    {
      "pick": {
        "person": {
          "id": "2329",
          "firstName": "Matt",
          "lastName": "Bowen",
          "displayName": "Matt Bowen",
          "headshot": {
            "href": "https://a.espncdn.com/i/columnists/full/bowen_matt.png",
            "alt": "Matt Bowen"
          }
        },
        "competition": {
          "$ref": "http://sports.core.api.espn.com/v2/sports/football/leagues/nfl/events/401671734/competitions/401671734?lang=en&region=us"
        },
        "competitor": {
          "$ref": "http://sports.core.api.espn.com/v2/sports/football/leagues/nfl/events/401671734/competitions/401671734/competitors/18?lang=en&region=us"
        },
        "correct": true
      },
      "weekRecord": {
        "displayValue": "15-1",
        "stats": [
          {
            "name": "win",
            "displayName": "Wins",
            "shortDisplayName": "W",
            "description": "Wins",
            "abbreviation": "W",
            "type": "win",
            "value": 15.0,
            "displayValue": "15"
          },
          {
            "name": "loss",
            "displayName": "Losses",
            "shortDisplayName": "L",
            "description": "Losses",
            "abbreviation": "L",
            "type": "loss",
            "value": 1.0,
            "displayValue": "1"
          }
        ],
        "season": {
          "$ref": "http://sports.core.api.espn.com/v2/sports/football/leagues/nfl/seasons/2024?lang=en&region=us"
        }
      }
    },
    {
      "pick": {
        "person": {
          "id": "2329",
          "firstName": "Matt",
          "lastName": "Bowen",
          "displayName": "Matt Bowen",
          "headshot": {
            "href": "https://a.espncdn.com/i/columnists/full/bowen_matt.png",
            "alt": "Matt Bowen"
          }
        },
        "competition": {
          "$ref": "http://sports.core.api.espn.com/v2/sports/football/leagues/nfl/events/401671744/competitions/401671744?lang=en&region=us"
        },
        "competitor": {
          "$ref": "http://sports.core.api.espn.com/v2/sports/football/leagues/nfl/events/401671744/competitions/401671744/competitors/23?lang=en&region=us"
        },
        "correct": true
      },
      "weekRecord": {
        "displayValue": "15-1",
        "stats": [
          {
            "name": "win",
            "displayName": "Wins",
            "shortDisplayName": "W",
            "description": "Wins",
            "abbreviation": "W",
            "type": "win",
            "value": 15.0,
            "displayValue": "15"
          },
          {
            "name": "loss",
            "displayName": "Losses",
            "shortDisplayName": "L",
            "description": "Losses",
            "abbreviation": "L",
            "type": "loss",
            "value": 1.0,
            "displayValue": "1"
          }
        ],
        "season": {
          "$ref": "http://sports.core.api.espn.com/v2/sports/football/leagues/nfl/seasons/2024?lang=en&region=us"
        }
      }
    },
    {
      "pick": {
        "person": {
          "id": "2329",
          "firstName": "Matt",
          "lastName": "Bowen",
          "displayName": "Matt Bowen",
          "headshot": {
            "href": "https://a.espncdn.com/i/columnists/full/bowen_matt.png",
            "alt": "Matt Bowen"
          }
        },
        "competition": {
          "$ref": "http://sports.core.api.espn.com/v2/sports/football/leagues/nfl/events/401671849/competitions/401671849?lang=en&region=us"
        },
        "competitor": {
          "$ref": "http://sports.core.api.espn.com/v2/sports/football/leagues/nfl/events/401671849/competitions/401671849/competitors/15?lang=en&region=us"
        },
        "correct": true
      },
      "weekRecord": {
        "displayValue": "15-1",
        "stats": [
          {
            "name": "win",
            "displayName": "Wins",
            "shortDisplayName": "W",
            "description": "Wins",
            "abbreviation": "W",
            "type": "win",
            "value": 15.0,
            "displayValue": "15"
          },
          {
            "name": "loss",
            "displayName": "Losses",
            "shortDisplayName": "L",
            "description": "Losses",
            "abbreviation": "L",
            "type": "loss",
            "value": 1.0,
            "displayValue": "1"
          }
        ],
        "season": {
          "$ref": "http://sports.core.api.espn.com/v2/sports/football/leagues/nfl/seasons/2024?lang=en&region=us"
        }
      }
    },
    {
      "pick": {
        "person": {
          "id": "2329",
          "firstName": "Matt",
          "lastName": "Bowen",
          "displayName": "Matt Bowen",
          "headshot": {
            "href": "https://a.espncdn.com/i/columnists/full/bowen_matt.png",
            "alt": "Matt Bowen"
          }
        },
        "competition": {
          "$ref": "http://sports.core.api.espn.com/v2/sports/football/leagues/nfl/events/401671861/competitions/401671861?lang=en&region=us"
        },
        "competitor": {
          "$ref": "http://sports.core.api.espn.com/v2/sports/football/leagues/nfl/events/401671861/competitions/401671861/competitors/34?lang=en&region=us"
        },
        "correct": true
      },
      "weekRecord": {
        "displayValue": "15-1",
        "stats": [
          {
            "name": "win",
            "displayName": "Wins",
            "shortDisplayName": "W",
            "description": "Wins",
            "abbreviation": "W",
            "type": "win",
            "value": 15.0,
            "displayValue": "15"
          },
          {
            "name": "loss",
            "displayName": "Losses",
            "shortDisplayName": "L",
            "description": "Losses",
            "abbreviation": "L",
            "type": "loss",
            "value": 1.0,
            "displayValue": "1"
          }
        ],
        "season": {
          "$ref": "http://sports.core.api.espn.com/v2/sports/football/leagues/nfl/seasons/2024?lang=en&region=us"
        }
      }
    }
  ]
}