{
  "count": 35,
  "pageIndex": 1,
  "pageSize": 25,
  "pageCount": 2,
  "items": [
    {
      "$ref": "http://sports.core.api.espn.com/v2/sports/soccer/leagues/eng.1/seasons/2024/athletes/138398?lang=en&region=us"
    },
    {
      "$ref": "http://sports.core.api.espn.com/v2/sports/soccer/leagues/eng.1/seasons/2024/athletes/196176?lang=en&region=us"
    }
  ]
}